// EVENT 4726
Name "Radio"

If(0,25,1)
 221()
 PictureClear(5)
 PictureClear(6)
 ShowMessageFace("",0,0,2,0)
 ShowMessage("......")
 242(2)
 Wait(120)
 241(bytes(0x04,0x08,0x6f,0x3a,0x0d,0x52,0x50,0x47,0x3a,0x3a,0x42,0x47,0x4d,0x08,0x3a,0x0a,0x40,0x6e,0x61,0x6d,0x65,0x49,0x22,0x0c,0x63,0x61,0x73,0x74,0x6c,0x65,0x36,0x06,0x3a,0x06,0x45,0x54,0x3a,0x0c,0x40,0x76,0x6f,0x6c,0x75,0x6d,0x65,0x69,0x69,0x3a,0x0b,0x40,0x70,0x69,0x74,0x63,0x68,0x69,0x69))
 EndEventProcessing()
 0()
EndIf()
PictureDisplay(5,"80_radio_st01",0,0,0,0,100,100,255,0)
ShowMessageFace("radio_fc1",0,0,2,1)
ShowMessage("\\n<Radio>You want me to do sexual proceSSing?\nBut all I have is an old FASHioned ONAhole...")
ShowMessageFace("",0,0,2,2)
ShowMessage("\\n<Luka>P-please...")
ShowMessageFace("radio_fc1",0,0,2,3)
ShowMessage("\\n<Radio>UnderstOOd\nThen I shall collect your seMEN.")
ShowMessageFace("",0,0,2,4)
ShowMessage("I take off my clothes, and lay on the bed...")
ShowMessage("Then...")
PictureDisplay(5,"ev_radio_h01",0,0,0,0,100,100,0,0)
PictureMove(5,null,0,0,0,0,100,100,255,0,30,true)
241(bytes(0x04,0x08,0x6f,0x3a,0x0d,0x52,0x50,0x47,0x3a,0x3a,0x42,0x47,0x4d,0x08,0x3a,0x0a,0x40,0x6e,0x61,0x6d,0x65,0x49,0x22,0x09,0x65,0x72,0x6f,0x31,0x06,0x3a,0x06,0x45,0x54,0x3a,0x0c,0x40,0x76,0x6f,0x6c,0x75,0x6d,0x65,0x69,0x69,0x3a,0x0b,0x40,0x70,0x69,0x74,0x63,0x68,0x69,0x69))
245(bytes(0x04,0x08,0x6f,0x3a,0x0d,0x52,0x50,0x47,0x3a,0x3a,0x42,0x47,0x53,0x08,0x3a,0x0a,0x40,0x6e,0x61,0x6d,0x65,0x49,0x22,0x17,0x6d,0x6f,0x6e,0x5f,0x68,0x73,0x65,0x61,0x6e,0x31,0x37,0x5f,0x73,0x69,0x67,0x6f,0x6b,0x69,0x06,0x3a,0x06,0x45,0x54,0x3a,0x0c,0x40,0x76,0x6f,0x6c,0x75,0x6d,0x65,0x69,0x55,0x3a,0x0b,0x40,0x70,0x69,0x74,0x63,0x68,0x69,0x69))
ShowMessageFace("",0,0,2,5)
ShowMessage("\\n<Luka>Ah, Ooooh...!")
ShowMessageFace("",0,0,2,6)
ShowMessage("Radio puts a soft onahole onto my penis.")
ShowMessage("The elastic feeling surrounds my penis.")
ShowMessageFace("",0,0,2,7)
ShowMessage("There are countless folds and ridges inside of it.")
ShowMessage("Every time Radio's hand goes up and down, they all rub against me.")
ShowMessageFace("radio_fc1",0,0,2,8)
ShowMessage("\\n<Radio>It's an OLd fashioned onahole with no GIMmick...\nA simple silicone TOY with just GRooves and FOlds...")
ShowMessageFace("",0,0,2,9)
ShowMessage("\\n<Luka>U-Ah, aaaah...!")
ShowMessageFace("",0,0,2,10)
ShowMessage("It's true it's simple...")
ShowMessage("And totally incomparable to a monster's incredible sexual organs.")
ShowMessageFace("",0,0,2,11)
ShowMessage("But in a businesslike manner, Radio strokes my penis with the onahole.")
ShowMessage("Excitement wells up in me at this sort of milking.")
ShowMessageFace("radio_fc1",0,0,2,12)
ShowMessage("\\n<Radio>I'll provIDe some SERVice...\n*Lick* *Lick*")
ShowMessageFace("",0,0,2,13)
ShowMessage("Radio puts her head against my chest, and licks my nipple.")
ShowMessage("The ticklish feeling of her tongue on me almost doubles the pleasure.")
ShowMessageFace("",0,0,2,14)
ShowMessage("\\n<Luka>Ngh... Aaah...")
ShowMessageFace("radio_fc1",0,0,2,15)
ShowMessage("\\n<Radio>Does that moan mean you FEel good?\nI'll make it EVen more IntEnse...")
ShowMessageFace("",0,0,2,16)
ShowMessage("The up and down movement of her onahole gets even faster.")
ShowMessage("Behind the soft pressure of the toy, I can feel her hands.")
ShowMessageFace("",0,0,2,17)
ShowMessage("The movement of her palm is clearly different from a living being.")
ShowMessage("The inorganic nature of her hand bleeds through the elastic toy.")
ShowMessageFace("",0,0,2,18)
ShowMessage("The sensation of having my semen milked gets even stronger.")
ShowMessage("The mechanical and businesslike milking is getting me closer to a climax.")
ShowMessageFace("",0,0,2,19)
ShowMessage("\\n<Luka>Unnngh...That feels good...")
ShowMessageFace("radio_fc1",0,0,2,20)
ShowMessage("\\n<Radio>I've detected a precursor to an orgasm.\nI SHall lead you to a climax, so please STop hoLDIng back.")
ShowMessageFace("",0,0,2,21)
ShowMessage("I feel her thumb and index finger tighten around the onahole.")
ShowMessage("As she moves up and down, my waist trembles in bliss.")
ShowMessageFace("",0,0,2,22)
ShowMessage("The neck of my penis catches against the onahole's ridges.")
ShowMessage("At last, I'm unable to withstand it any longer.")
ShowMessageFace("",0,0,2,23)
ShowMessage("\\n<Luka>Ah... I'm coming...!")
ShowMessageFace("radio_fc1",0,0,2,24)
ShowMessage("\\n<Radio>PLEase come inside thIS onahole.")
ShowMessageFace("",0,0,2,25)
ShowMessage("\\n<Luka>Ah, aaaah...!")
RunCommonEvent(104)
PictureDisplay(5,"ev_radio_h02",0,0,0,0,100,100,255,0)
RunCommonEvent(105)
ShowMessageFace("",0,0,2,26)
ShowMessage("My penis pulses inside her onahole.")
ShowMessage("Every time my semen spurts out, I can see it flooding the small toy.")
ShowMessageFace("",0,0,2,27)
ShowMessage("\\n<Luka>Nnngh...")
ShowMessageFace("radio_fc1",0,0,2,28)
ShowMessage("\\n<Radio>You CAme... Did you ENJoy it?")
ShowMessageFace("",0,0,2,29)
ShowMessage("Stroked by a machine's hand, and coming into an onahole...")
ShowMessage("And squeezed to the very last drop.")
246(2)
ShowMessageFace("",0,0,2,30)
ShowMessage("I feel slightly ashamed at being milked by a machine so easily...")
ShowMessage("But the incredible pleasure has left me too weak to care.")
221()
PictureClear(5)
PictureClear(6)
ShowMessageFace("",0,0,2,31)
ShowMessage("......")
242(2)
Wait(120)
241(bytes(0x04,0x08,0x6f,0x3a,0x0d,0x52,0x50,0x47,0x3a,0x3a,0x42,0x47,0x4d,0x08,0x3a,0x0a,0x40,0x6e,0x61,0x6d,0x65,0x49,0x22,0x0c,0x63,0x61,0x73,0x74,0x6c,0x65,0x36,0x06,0x3a,0x06,0x45,0x54,0x3a,0x0c,0x40,0x76,0x6f,0x6c,0x75,0x6d,0x65,0x69,0x69,0x3a,0x0b,0x40,0x70,0x69,0x74,0x63,0x68,0x69,0x69))
0()
