﻿// EVENT 2185
Name "Seduction: Kunoichi Elf"

355("$game_troop.lose_event_id = 3185")
ChangeVariable(26,26,0,3,3,1,4)
ChangeVariable(26,26,4,0,10)
ShowMessageFace("kunoitielf_fc1",0,0,2,1)
ShowMessage("\\n<Kunoichi Elf>This is an unfavorable situation...")
ShowMessage("I have to turn this around in a single move!")
ShowMessageFace("",0,0,2,2)
ShowMessage("The Kunoichi Elf throws Luka down and pins him!\nLuka's body is being straddled by the Kunoichi Elf!")
ShowMessageFace("kunoitielf_fc1",0,0,2,3)
ShowMessage("\\n<Kunoichi Elf>Now, resign yourself!\nIf you end your resistance, you'll be able to experience the kunoichi's ultimate sexual technique...")
ChangeSwitch(98,98,0)
ChangeSwitch(96,96,0)
ShowChoices(strings("Struggle","Let her continue"),1)
IfPlayerPicksChoice(0,"Struggle")
 ShowMessageFace("",0,0,2,4)
 ShowMessage("Luka struggles violently, and escapes from the Kunoichi Elf's restraint!")
 RunCommonEvent(1999)
 EndEventProcessing()
 0()
IfPlayerPicksChoice(1,"Let her continue")
 0()
404()
ShowMessageFace("kunoitielf_fc1",0,0,2,5)
ShowMessage("\\n<Kunoichi Elf>So you won't resist... Then I'll let you taste my secret technique. You shall be dried up as you experience the apex of my sexual skills...!")
ChangeVariable(26,26,3,0,3)
250(bytes(0x04,0x08,0x6f,0x3a,0x0c,0x52,0x50,0x47,0x3a,0x3a,0x53,0x45,0x08,0x3a,0x0a,0x40,0x6e,0x61,0x6d,0x65,0x49,0x22,0x11,0x6d,0x6f,0x6e,0x5f,0x65,0x72,0x6f,0x5f,0x70,0x79,0x75,0x32,0x06,0x3a,0x06,0x45,0x54,0x3a,0x0b,0x40,0x70,0x69,0x74,0x63,0x68,0x69,0x69,0x3a,0x0c,0x40,0x76,0x6f,0x6c,0x75,0x6d,0x65,0x69,0x69))
PictureDisplay(5,"ev_kunoitielf_ct01",0,0,0,0,100,100,255,0)
311(0,1,1,1,26,true)
ShowMessageFace("",0,0,2,6)
ShowMessage("The Kunoichi Elf drops her waist and wraps Luka's penis inside her devilish pussy!\\D")
ShowMessage("Luka takes \\V[26] damage!")
ChangeVariable(27,27,0,3,3,1,2)
If(1,27,0,0,0)
 JumpToLabel("射精1")
 0()
EndIf()
ShowMessageFace("",0,0,2,7)
ShowMessage("\\n<Luka>Aaaaaah...!!")
ShowMessageFace("",0,0,2,8)
ShowMessage("The Kunoichi Elf's vagina wriggled like a completely different creature. It persistently twists and tightens around my penis.")
ShowMessageFace("kunoitielf_fc1",0,0,2,9)
ShowMessage("\\n<Kunoichi Elf>Fufu...This is a kunoichi's secret technique.\nI'll squeeze out your semen until you're dried up.")
250(bytes(0x04,0x08,0x6f,0x3a,0x0c,0x52,0x50,0x47,0x3a,0x3a,0x53,0x45,0x08,0x3a,0x0a,0x40,0x6e,0x61,0x6d,0x65,0x49,0x22,0x13,0x6d,0x6f,0x6e,0x5f,0x65,0x72,0x6f,0x5f,0x63,0x68,0x75,0x70,0x61,0x34,0x06,0x3a,0x06,0x45,0x54,0x3a,0x0b,0x40,0x70,0x69,0x74,0x63,0x68,0x69,0x69,0x3a,0x0c,0x40,0x76,0x6f,0x6c,0x75,0x6d,0x65,0x69,0x69))
311(0,1,1,1,26,true)
ShowMessageFace("",0,0,2,10)
ShowMessage("The Kunoichi Elf's vagina sucks as it tries to squeeze Luka's semen!\\D")
ShowMessage("Luka takes \\V[26] damage!")
ChangeVariable(27,27,0,3,3,1,2)
If(1,27,0,0,0)
 JumpToLabel("射精2")
 0()
EndIf()
ShowMessageFace("kunoitielf_fc1",0,0,2,11)
ShowMessage("\\n<Kunoichi Elf>Isn't having your semen squeezed like this the height of joy...?")
250(bytes(0x04,0x08,0x6f,0x3a,0x0c,0x52,0x50,0x47,0x3a,0x3a,0x53,0x45,0x08,0x3a,0x0a,0x40,0x6e,0x61,0x6d,0x65,0x49,0x22,0x13,0x6d,0x6f,0x6e,0x5f,0x65,0x72,0x6f,0x5f,0x63,0x68,0x75,0x70,0x61,0x34,0x06,0x3a,0x06,0x45,0x54,0x3a,0x0b,0x40,0x70,0x69,0x74,0x63,0x68,0x69,0x69,0x3a,0x0c,0x40,0x76,0x6f,0x6c,0x75,0x6d,0x65,0x69,0x69))
311(0,1,1,1,26,true)
ShowMessageFace("",0,0,2,12)
ShowMessage("The Kunoichi Elf violently shakes her waist, relentlessly torturing Luka's penis!\\D")
ShowMessage("Luka takes \\V[26] damage!")
ChangeVariable(27,27,0,3,3,1,2)
If(1,27,0,0,0)
 JumpToLabel("射精2")
 0()
EndIf()
ShowMessageFace("kunoitielf_fc1",0,0,2,13)
ShowMessage("\\n<Kunoichi Elf>Hora hora hora... Scatter the proof of your surrender inside my pussy!")
250(bytes(0x04,0x08,0x6f,0x3a,0x0c,0x52,0x50,0x47,0x3a,0x3a,0x53,0x45,0x08,0x3a,0x0a,0x40,0x6e,0x61,0x6d,0x65,0x49,0x22,0x13,0x6d,0x6f,0x6e,0x5f,0x65,0x72,0x6f,0x5f,0x63,0x68,0x75,0x70,0x61,0x34,0x06,0x3a,0x06,0x45,0x54,0x3a,0x0b,0x40,0x70,0x69,0x74,0x63,0x68,0x69,0x69,0x3a,0x0c,0x40,0x76,0x6f,0x6c,0x75,0x6d,0x65,0x69,0x69))
311(0,1,1,1,26,true)
ShowMessageFace("",0,0,2,14)
ShowMessage("The inside of the Kunoichi Elf's vagina contracts as it tries to squeeze out Luka's semen!\\D")
ShowMessage("Luka takes \\V[26] damage!")
ChangeVariable(27,27,0,3,3,1,2)
If(1,27,0,0,0)
 JumpToLabel("射精2")
 0()
EndIf()
DefineLabel("射精1")
ShowMessageFace("",0,0,2,15)
ShowMessage("\\n<Luka>No, I'm coming... Aaaah...")
ShowMessageFace("kunoitielf_fc1",0,0,2,16)
ShowMessage("\\n<Kunoichi Elf>Heh, an instant defeat...")
RunCommonEvent(104)
PictureDisplay(5,"ev_kunoitielf_ct02",0,0,0,0,100,100,255,0)
RunCommonEvent(105)
ShowMessageFace("",0,0,2,17)
ShowMessage("The instant I was brought into the Kunoichi Elf's pussy, the overwhelming pleasure brought me to a climax. Her vagina sucks up my semen following my accidental release.")
ShowMessageFace("kunoitielf_fc1",0,0,2,18)
ShowMessage("\\n<Kunoichi Elf>Heh... That was too easy.\nTo not even last ten seconds is pitiful...")
RunCommonEvent(2000)
EndEventProcessing()
DefineLabel("射精2")
ShowMessageFace("",0,0,2,19)
ShowMessage("\\n<Luka>No, I'm coming... Aaaah...")
RunCommonEvent(104)
PictureDisplay(5,"ev_kunoitielf_ct02",0,0,0,0,100,100,255,0)
RunCommonEvent(105)
ShowMessageFace("",0,0,2,20)
ShowMessage("The incredible pleasure given by the Kunoichi Elf's pussy leads me to a quick ejaculation. Her vagina sucks up my semen as it flows into her.")
ShowMessageFace("kunoitielf_fc1",0,0,2,21)
ShowMessage("\\n<Kunoichi Elf>Fufu... How does it feel having your semen sucked by my pussy?")
RunCommonEvent(2000)
EndEventProcessing()
0()
