// EVENT 3218
Name "Caterpillar Girl"

PictureDisplay(5,"80_imomusi_st02",0,0,0,0,100,100,0,0)
PictureMove(5,null,0,0,0,0,100,100,255,0,30,true)
241(bytes(0x04,0x08,0x6f,0x3a,0x0d,0x52,0x50,0x47,0x3a,0x3a,0x42,0x47,0x4d,0x08,0x3a,0x0a,0x40,0x6e,0x61,0x6d,0x65,0x49,0x22,0x09,0x65,0x72,0x6f,0x31,0x06,0x3a,0x06,0x45,0x54,0x3a,0x0c,0x40,0x76,0x6f,0x6c,0x75,0x6d,0x65,0x69,0x69,0x3a,0x0b,0x40,0x70,0x69,0x74,0x63,0x68,0x69,0x69))
ShowMessageFace("",0,0,2,1)
ShowMessage("\\n<Luka>")
ShowMessage("Auuuu...")
ShowMessageFace("",0,0,2,2)
ShowMessage("Defeated, my strength fades in the blink of an eye.")
ShowMessageFace("imomusi_fc1",1,0,2,3)
ShowMessage("\\n<Caterpillar Girl>")
ShowMessage("Ehehe... Well then, this man is mine ♪")
250(bytes(0x04,0x08,0x6f,0x3a,0x0c,0x52,0x50,0x47,0x3a,0x3a,0x53,0x45,0x08,0x3a,0x0a,0x40,0x6e,0x61,0x6d,0x65,0x49,0x22,0x10,0x6d,0x6f,0x6e,0x5f,0x65,0x72,0x6f,0x5f,0x69,0x74,0x6f,0x06,0x3a,0x06,0x45,0x54,0x3a,0x0b,0x40,0x70,0x69,0x74,0x63,0x68,0x69,0x69,0x3a,0x0c,0x40,0x76,0x6f,0x6c,0x75,0x6d,0x65,0x69,0x69))
ShowMessageFace("",0,0,2,4)
ShowMessage("The Caterpillar Girl spits out sticky threads that cling to my body tightly.")
ShowMessageFace("",0,0,2,5)
ShowMessage("Her mysterious thread combines stickiness, elasticity and durability. The unique sensation of feeling it on my bare skin brings with it a strange pleasure...")
ShowMessageFace("",0,0,2,6)
ShowMessage("\\n<Luka>")
ShowMessage("Ah, aaaaaaah...")
245(bytes(0x04,0x08,0x6f,0x3a,0x0d,0x52,0x50,0x47,0x3a,0x3a,0x42,0x47,0x53,0x08,0x3a,0x0a,0x40,0x6e,0x61,0x6d,0x65,0x49,0x22,0x1a,0x6d,0x6f,0x6e,0x5f,0x68,0x73,0x65,0x61,0x6e,0x32,0x31,0x5f,0x74,0x65,0x6e,0x74,0x61,0x63,0x6c,0x65,0x32,0x06,0x3a,0x06,0x45,0x54,0x3a,0x0c,0x40,0x76,0x6f,0x6c,0x75,0x6d,0x65,0x69,0x55,0x3a,0x0b,0x40,0x70,0x69,0x74,0x63,0x68,0x69,0x69))
PictureDisplay(5,"ev_imomusi_h1",0,0,0,0,100,100,255,0)
ShowMessageFace("",0,0,2,7)
ShowMessage("She entangles and winds her sticky threads around me. As they cling to my skin, it feels as if I'm being wrapped in pleasure.")
ShowMessageFace("",0,0,2,8)
ShowMessage("My lower body reacts to the pleasure and my penis slowly gets erect...")
ShowMessageFace("imomusi_fc1",1,0,2,9)
ShowMessage("\\n<Caterpillar Girl>")
ShowMessage("Whaaat...? Your penis got this big already. ♪")
ShowMessageFace("",0,0,2,10)
ShowMessage("Her eyes are affixed on my male organ. The Caterpillar Girl covers my penis in her sticky thread as well!")
ShowMessageFace("imomusi_fc1",1,0,2,11)
ShowMessage("\\n<Caterpillar Girl>")
ShowMessage("I'll wrap up your penis as well~♪")
ShowMessageFace("",0,0,2,12)
ShowMessage("\\n<Luka>")
ShowMessage("Ah, aaaaaaaah!!")
250(bytes(0x04,0x08,0x6f,0x3a,0x0c,0x52,0x50,0x47,0x3a,0x3a,0x53,0x45,0x08,0x3a,0x0a,0x40,0x6e,0x61,0x6d,0x65,0x49,0x22,0x10,0x6d,0x6f,0x6e,0x5f,0x65,0x72,0x6f,0x5f,0x69,0x74,0x6f,0x06,0x3a,0x06,0x45,0x54,0x3a,0x0b,0x40,0x70,0x69,0x74,0x63,0x68,0x69,0x69,0x3a,0x0c,0x40,0x76,0x6f,0x6c,0x75,0x6d,0x65,0x69,0x69))
ShowMessageFace("",0,0,2,13)
ShowMessage("As I lie down, the sticky feeling covers my penis from the root to the tip.")
ShowMessageFace("",0,0,2,14)
ShowMessage("The sticky silk wraps around my penis, slowly tightening and forcing agonizing pleasure into me.")
ShowMessageFace("imomusi_fc1",1,0,2,15)
ShowMessage("\\n<Caterpillar Girl>")
ShowMessage("Ehehe... Round and round your penis it goes~♪")
ShowMessageFace("imomusi_fc1",1,0,2,16)
ShowMessage("\\n<Caterpillar Girl>")
ShowMessage("If I do this, then everything you let out can be used as nutrients for me. ♪")
ShowMessageFace("",0,0,2,17)
ShowMessage("\\n<Luka>")
ShowMessage("Ah, Auuuu...")
ShowMessageFace("",0,0,2,18)
ShowMessage("The girl continues to wrap my penis with her sticky silk. I try to struggle against the silk binding me but it's too tough to break.")
ShowMessageFace("",0,0,2,19)
ShowMessage("Unable to resist, I just lay there, wrapped up, unable to do anything against the bizarre pleasure...")
ShowMessageFace("imomusi_fc1",1,0,2,20)
ShowMessage("\\n<Caterpillar Girl>")
ShowMessage("Ehehe... Does it feel good big bro?")
ShowMessageFace("",0,0,2,21)
ShowMessage("With my penis now completely wrapped in silk, it starts to tighten around me. Surprised at the suddenly powerful stimulation, I feel myself instantly yielding to her.")
ShowMessageFace("",0,0,2,22)
ShowMessage("\\n<Luka>")
ShowMessage("Aaaaah...! Stop it...! I'm coming...!")
ShowMessageFace("imomusi_fc1",1,0,2,23)
ShowMessage("\\n<Caterpillar Girl>")
ShowMessage("Whaaaaat...? Already going to leak?")
RunCommonEvent(104)
PictureDisplay(5,"ev_imomusi_h2",0,0,0,0,100,100,255,0)
RunCommonEvent(105)
ShowMessageFace("",0,0,2,24)
ShowMessage("Semen shoots out from my penis and it seems as if it travels from my penis through the silk, directly being sucked up by the Caterpillar Girl.")
ShowMessageFace("",0,0,2,25)
ShowMessage("Despite the humiliation from this pathetic display, I shiver, fully enjoying the pleasure.")
ShowMessageFace("imomusi_fc1",1,0,2,26)
ShowMessage("\\n<Caterpillar Girl>")
ShowMessage("Big bro, I already made you come, hahaha~♪")
ShowMessageFace("",0,0,2,27)
ShowMessage("The Caterpillar Girl looks down at me, still bound in her silk. At the same time, she continues to tighten the silk around my penis.")
ShowMessageFace("imomusi_fc1",1,0,2,28)
ShowMessage("\\n<Caterpillar Girl>")
ShowMessage("You're so naughty, big bro... I'll have to wrap more around you and punish you~♪")
ShowMessageFace("",0,0,2,29)
ShowMessage("\\n<Luka>")
ShowMessage("Ah, aaaaaah...")
ShowMessageFace("",0,0,2,30)
ShowMessage("The Caterpillar Girl shoots out even more silk and rolls up my body.")
PictureClear(6)
PictureDisplay(5,"ev_imomusi_h3",0,0,0,0,100,100,255,0)
ShowMessageFace("",0,0,2,31)
ShowMessage("In only a few moments my entire body is wrapped in the silk.")
ShowMessageFace("imomusi_fc1",1,0,2,32)
ShowMessage("\\n<Caterpillar Girl>")
ShowMessage("Ehehe, I wrapped it all around you~♪\n Now you can have as many accidents as you want...♪")
ShowMessageFace("",0,0,2,33)
ShowMessage("\\n<Luka>")
ShowMessage("Ah... Auuuu...")
ShowMessageFace("",0,0,2,34)
ShowMessage("The sticky silk tightens around my body. The strange sense of pleasure brought on by contact with it starts to seep into my body.")
ShowMessageFace("",0,0,2,35)
ShowMessage("Since she covered me with even more silk, the amount wrapped around my penis increased too")
ShowMessageFace("",0,0,2,36)
ShowMessage("I've been completely captured by this girl and there's absolutely nothing I can do to escape...")
ShowMessageFace("imomusi_fc1",1,0,2,37)
ShowMessage("\\n<Caterpillar Girl>")
ShowMessage("Hoora... Now I'm going to bully your penis~♪")
ShowMessageFace("",0,0,2,38)
ShowMessage("She pulls on the silk wrapped around my penis, causing it to narrow and move around me.")
ShowMessageFace("",0,0,2,39)
ShowMessage("As she pulls and pushes the sticky cocoon around my penis, I pathetically squirm around as the new direct stimulation is forced into me.")
ShowMessageFace("imomusi_fc1",1,0,2,40)
ShowMessage("\\n<Caterpillar Girl>")
ShowMessage("Hora hora, leak out your white pee again~♪")
ShowMessageFace("",0,0,2,41)
ShowMessage("The sticky silk tightens around me as she pulls and pushes even harder, finally forcing me to another orgasm...")
ShowMessageFace("",0,0,2,42)
ShowMessage("\\n<Luka>")
ShowMessage("Ah, Aaaaaaaaaah!!")
RunCommonEvent(104)
PictureDisplay(5,"ev_imomusi_h4",0,0,0,0,100,100,255,0)
RunCommonEvent(105)
ShowMessageFace("",0,0,2,43)
ShowMessage("Completely at her mercy, I come again, covering the silk in semen. The sticky silk slowly starts to absorb the semen, sending the nutrients right into her body...")
ShowMessageFace("imomusi_fc1",1,0,2,44)
ShowMessage("\\n<Caterpillar Girl>")
ShowMessage("I'm going to suck more and more nutrients out of big bro. ♪\nFrom morning till night, day after day...")
ShowMessageFace("",0,0,2,45)
ShowMessage("\\n<Luka>")
ShowMessage("Aye, aaaaaaah...")
ShowMessageFace("",0,0,2,46)
ShowMessage("Stuck in her cocoon, I'm used as the sole source of the Caterpillar Girl's nutrients...")
221()
PictureClear(5)
PictureClear(6)
246(2)
ShowMessageFace("",0,0,2,47)
ShowMessage("Caught by the Caterpillar Girl, I'm never allowed out of her cocoon. Endlessly filled with pleasure, I'm forced to feed her nutrients to the brink of death every day...")
245(bytes(0x04,0x08,0x6f,0x3a,0x0d,0x52,0x50,0x47,0x3a,0x3a,0x42,0x47,0x53,0x08,0x3a,0x0a,0x40,0x6e,0x61,0x6d,0x65,0x49,0x22,0x1a,0x6d,0x6f,0x6e,0x5f,0x68,0x73,0x65,0x61,0x6e,0x32,0x31,0x5f,0x74,0x65,0x6e,0x74,0x61,0x63,0x6c,0x65,0x32,0x06,0x3a,0x06,0x45,0x54,0x3a,0x0c,0x40,0x76,0x6f,0x6c,0x75,0x6d,0x65,0x69,0x55,0x3a,0x0b,0x40,0x70,0x69,0x74,0x63,0x68,0x69,0x69))
PictureDisplay(1,"bg093",0,0,0,0,100,100,0,0)
PictureMove(1,null,0,0,0,0,100,100,255,0,90,true)
PictureDisplay(5,"ev_imomusi_h4",0,0,0,0,100,100,255,0)
ShowMessageFace("imomusi_fc1",1,0,2,48)
ShowMessage("\\n<Caterpillar Girl>")
ShowMessage("Thanks to your nutrients, I'll be able to grow into an adult soon. Once I'm bigger, I'll be able to suck even more out of you. ♪")
ShowMessageFace("",0,0,2,49)
ShowMessage("\\n<Luka>")
ShowMessage("ah... aaah...")
ShowMessageFace("",0,0,2,50)
ShowMessage("I can never escape from her. Abandoning all hope, I'm nothing but simple prey now...")
246(1)
ShowMessageFace("",0,0,2,51)
ShowMessage("......")
221()
PictureClear(1)
PictureClear(5)
242(1)
Wait(120)
355("memory_interruption")
ShowMessageFace("",0,0,2,52)
ShowMessage("You hear Ilias' voice calling out to you...")
ShowMessage("Receive her evaluation?")
ShowChoices(strings("Receive evaluation","Change difficulty","Reincarnate"),3)
IfPlayerPicksChoice(0,"Receive Evaluation")
 241(bytes(0x04,0x08,0x6f,0x3a,0x0d,0x52,0x50,0x47,0x3a,0x3a,0x42,0x47,0x4d,0x08,0x3a,0x0a,0x40,0x6e,0x61,0x6d,0x65,0x49,0x22,0x0a,0x69,0x72,0x69,0x61,0x73,0x06,0x3a,0x06,0x45,0x54,0x3a,0x0c,0x40,0x76,0x6f,0x6c,0x75,0x6d,0x65,0x69,0x5f,0x3a,0x0b,0x40,0x70,0x69,0x74,0x63,0x68,0x69,0x6e))
 PictureDisplay(1,"bg001",0,0,0,0,100,100,255,0)
 222()
 PictureDisplay(5,"80_iriasu_st04",0,0,0,0,100,100,0,0)
 PictureMove(5,null,0,0,0,0,100,100,255,0,30,true)
 ShowMessageFace("iriasu_fc1",3,0,2,53)
 ShowMessage("\\n<Ilias>")
 ShowMessage("Defeated by a caterpillar, the hero that can't even get rid of bugs.")
 ShowMessage("You're nothing more than a lettuce leaf.")
 PictureDisplay(5,"80_iriasu_st01",0,0,0,0,100,100,255,0)
 ShowMessageFace("iriasu_fc1",0,0,2,54)
 ShowMessage("\\n<Ilias>")
 ShowMessage("The Caterpillar Girl heavily relies on Slime attacks.")
 ShowMessage("It would be troublesome if you get Slimed in battle while other enemies are present.")
 ShowMessageFace("iriasu_fc1",0,0,2,55)
 ShowMessage("\\n<Ilias>")
 ShowMessage("She's quite sturdy because she's an Insect.")
 ShowMessage("But she's quite weak against status ailments, so put them to good use.")
 PictureDisplay(5,"80_iriasu_st02",0,0,0,0,100,100,255,0)
 ShowMessageFace("iriasu_fc1",1,0,2,56)
 ShowMessage("\\n<Ilias>")
 ShowMessage("Now go, oh Brave Luka.")
 ShowMessage("Next time you lose to a Caterpillar, I'll reincarnate you into a caterpillar as well.")
 242(1)
 221()
 PictureClear(5)
 PictureClear(1)
 Wait(60)
 0()
IfPlayerPicksChoice(1,"Change difficulty")
 ShowMessageFace("",0,0,2,57)
 ShowMessage("Please choose a difficulty level.")
 RunCommonEvent(110)
 0()
IfPlayerPicksChoice(2,"Reincarnate")
 0()
404()
RunCommonEvent(3000)
0()
