// EVENT 4576
Name "Saki 1"

If(0,25,1)
 221()
 PictureClear(5)
 PictureClear(6)
 ShowMessageFace("",0,0,2,0)
 ShowMessage("......")
 242(2)
 Wait(120)
 241(bytes(0x04,0x08,0x6f,0x3a,0x0d,0x52,0x50,0x47,0x3a,0x3a,0x42,0x47,0x4d,0x08,0x3a,0x0a,0x40,0x6e,0x61,0x6d,0x65,0x49,0x22,0x0c,0x63,0x61,0x73,0x74,0x6c,0x65,0x36,0x06,0x3a,0x06,0x45,0x54,0x3a,0x0c,0x40,0x76,0x6f,0x6c,0x75,0x6d,0x65,0x69,0x69,0x3a,0x0b,0x40,0x70,0x69,0x74,0x63,0x68,0x69,0x69))
 EndEventProcessing()
 0()
EndIf()
PictureDisplay(5,"80_saki_st01",0,0,0,0,100,100,255,0)
ShowMessageFace("saki_fc1",0,0,2,1)
ShowMessage("\\n<Saki>Saki bought a new outfit...\nCan you give some feedback?")
ShowMessageFace("",0,0,2,2)
ShowMessage("\\n<Luka>Ok, sure.")
ShowMessageFace("saki_fc1",0,0,2,3)
ShowMessage("\\n<Saki>All right then, come to Saki's room☆")
ShowMessageFace("",0,0,2,4)
ShowMessage("I follow Saki to her room...")
221()
PictureDisplay(1,"bg195",0,0,0,0,100,100,255,0)
PictureDisplay(5,"ev_saki_hc01",0,0,0,0,100,100,255,0)
222()
241(bytes(0x04,0x08,0x6f,0x3a,0x0d,0x52,0x50,0x47,0x3a,0x3a,0x42,0x47,0x4d,0x08,0x3a,0x0a,0x40,0x6e,0x61,0x6d,0x65,0x49,0x22,0x09,0x65,0x72,0x6f,0x31,0x06,0x3a,0x06,0x45,0x54,0x3a,0x0c,0x40,0x76,0x6f,0x6c,0x75,0x6d,0x65,0x69,0x69,0x3a,0x0b,0x40,0x70,0x69,0x74,0x63,0x68,0x69,0x69))
ShowMessageFace("saki_fc1",0,0,2,5)
ShowMessage("\\n<Saki>Look, look~♪ It's Cheerleader style~♪\nIt's cute, isn't it...?")
ShowMessageFace("",0,0,2,6)
ShowMessage("\\n<Luka>......")
ShowMessageFace("",0,0,2,7)
ShowMessage("Saki presses her butt out towards me, showing off her outfit.")
ShowMessage("For some reason, she had also stripped me naked.")
PictureDisplay(5,"ev_saki_hc02",0,0,0,0,100,100,255,0)
ShowMessageFace("saki_fc1",0,0,2,8)
ShowMessage("\\n<Saki>Ehehe, well?\nIs it irresistible...?")
ShowMessageFace("",0,0,2,9)
ShowMessage("Saki shakes her ass side to side, as if tempting me.")
ShowMessage("Sadly, my penis is all too happy to respond...")
ShowMessageFace("saki_fc1",0,0,2,10)
ShowMessage("\\n<Saki>Arere, are you in a lewd mood?\nBut there's no touching today...")
ShowMessageFace("saki_fc1",0,0,2,11)
ShowMessage("\\n<Saki>But I guess doing it yourself is fine.\nJust for today, you can masturbate while watching Saki's ass☆")
ShowMessageFace("",0,0,2,12)
ShowMessage("\\n<Luka>N...no way...")
ShowMessageFace("",0,0,2,13)
ShowMessage("Showing off her ass, Saki smirks at me.")
ShowMessage("My already-erect penis is trembling as I watch...")
ShowChoices(strings("Masturbate","Just look"),0)
IfPlayerPicksChoice(0,"Masturbate")
 PictureDisplay(5,"ev_saki_hc06",0,0,0,0,100,100,255,0)
 ShowMessageFace("",0,0,2,14)
 ShowMessage("\\n<Luka>Ah, aaah...")
 245(bytes(0x04,0x08,0x6f,0x3a,0x0d,0x52,0x50,0x47,0x3a,0x3a,0x42,0x47,0x53,0x08,0x3a,0x0a,0x40,0x6e,0x61,0x6d,0x65,0x49,0x22,0x17,0x6d,0x6f,0x6e,0x5f,0x68,0x73,0x65,0x61,0x6e,0x31,0x37,0x5f,0x73,0x69,0x67,0x6f,0x6b,0x69,0x06,0x3a,0x06,0x45,0x54,0x3a,0x0c,0x40,0x76,0x6f,0x6c,0x75,0x6d,0x65,0x69,0x69,0x3a,0x0b,0x40,0x70,0x69,0x74,0x63,0x68,0x69,0x69))
 ShowMessageFace("",0,0,2,15)
 ShowMessage("As if possessed, I start to move...")
 ShowMessage("Grabbing hold of my penis, I start to stroke.")
 ShowMessageFace("saki_fc1",0,0,2,16)
 ShowMessage("\\n<Saki>Ahaha, you're really masturbating~♪\nHow fuuunny♪")
 ShowMessageFace("",0,0,2,17)
 ShowMessage("As Saki makes fun of me, I continue stroking.")
 ShowMessage("Even though it feels miserable, I feel my excitement rising.")
 ShowMessageFace("",0,0,2,18)
 ShowMessage("\\n<Luka>Haa... Haa... Hauuu...")
 ShowMessageFace("saki_fc1",0,0,2,19)
 ShowMessage("\\n<Saki>You're rubbing it so much while looking at Saki's ass...\nYou're a real pervert, aren't you?☆")
 ShowMessageFace("saki_fc1",0,0,2,20)
 ShowMessage("\\n<Saki>Hora hora, it's the panties you love masturbating to...\nYou can come all over them~☆")
 ShowMessageFace("",0,0,2,21)
 ShowMessage("Saki swings her ass back and forth in front of me as she laughs.")
 ShowMessage("The misery and excitement combine together to increase my desire.")
 ShowMessageFace("",0,0,2,22)
 ShowMessage("I continue to stroke single-mindedly.")
 ShowMessage("Until I feel myself nearing a climax.")
 ShowMessageFace("",0,0,2,23)
 ShowMessage("\\n<Luka>Aaah...I'm coming...!")
 ShowMessageFace("saki_fc1",0,0,2,24)
 ShowMessage("\\n<Saki>Hora, come~♪\nShoot all that embarrassing juice on Saki's ass~♪")
 ShowMessageFace("",0,0,2,25)
 ShowMessage("While starting at Saki's ass, I move to finish myself off.")
 ShowMessage("The height of my miserable actions.")
 ShowMessageFace("",0,0,2,26)
 ShowMessage("A numbness spreads through my lower body...")
 ShowMessage("My penis starts to pulse.")
 ShowMessageFace("",0,0,2,27)
 ShowMessage("\\n<Luka>Ah, aaaah...!!")
 RunCommonEvent(104)
 PictureDisplay(5,"ev_saki_hc10",0,0,0,0,100,100,255,0)
 RunCommonEvent(105)
 ShowMessageFace("",0,0,2,28)
 ShowMessage("Embracing the humiliation and immoral feelings, I come.")
 ShowMessage("All the while, Saki is grinning as she watches.")
 ShowMessageFace("saki_fc1",0,0,2,29)
 ShowMessage("\\n<Saki>Uwaaa~♪")
 ShowMessageFace("",0,0,2,30)
 ShowMessage("\\n<Luka>Hau... Aah...")
 ShowMessageFace("",0,0,2,31)
 ShowMessage("Her white panties are stained with my semen.")
 ShowMessage("I masturbated as she made fun of me...")
 ShowMessageFace("",0,0,2,32)
 ShowMessage("After I finished coming, I was still standing in place.")
 ShowMessage("I can't even say anything, I'm too ashamed to speak.")
 246(2)
 ShowMessageFace("saki_fc1",0,0,2,33)
 ShowMessage("\\n<Saki>Ahah, are you satisfied with that?\nMaking yourself come is quick and easy, isn't it?")
 ShowMessageFace("saki_fc1",0,0,2,34)
 ShowMessage("\\n<Saki>Saki will help you masturbate next time, too☆\nYou can cover Saki's ass with semen again, ok...?")
 ShowMessageFace("",0,0,2,35)
 ShowMessage("\\n<Luka>......")
 ShowMessageFace("",0,0,2,36)
 ShowMessage("Saki smiles as she shakes her semen covered ass at me.")
 ShowMessage("I can only stare at the cloudy stain in silence.")
 221()
 PictureClear(5)
 PictureClear(6)
 ShowMessageFace("",0,0,2,37)
 ShowMessage("......")
 242(2)
 Wait(120)
 241(bytes(0x04,0x08,0x6f,0x3a,0x0d,0x52,0x50,0x47,0x3a,0x3a,0x42,0x47,0x4d,0x08,0x3a,0x0a,0x40,0x6e,0x61,0x6d,0x65,0x49,0x22,0x0c,0x63,0x61,0x73,0x74,0x6c,0x65,0x36,0x06,0x3a,0x06,0x45,0x54,0x3a,0x0c,0x40,0x76,0x6f,0x6c,0x75,0x6d,0x65,0x69,0x69,0x3a,0x0b,0x40,0x70,0x69,0x74,0x63,0x68,0x69,0x69))
 0()
IfPlayerPicksChoice(1,"Just look")
 ShowMessageFace("",0,0,2,38)
 ShowMessage("\\n<Luka>B-But... That...\nI can't do that...")
 ShowMessageFace("saki_fc1",0,0,2,39)
 ShowMessage("\\n<Saki>Are you embarrassed to do it while Saki's watching...?\nOk, then Saki will provide some service☆")
 245(bytes(0x04,0x08,0x6f,0x3a,0x0d,0x52,0x50,0x47,0x3a,0x3a,0x42,0x47,0x53,0x08,0x3a,0x0a,0x40,0x6e,0x61,0x6d,0x65,0x49,0x22,0x17,0x6d,0x6f,0x6e,0x5f,0x68,0x73,0x65,0x61,0x6e,0x31,0x37,0x5f,0x73,0x69,0x67,0x6f,0x6b,0x69,0x06,0x3a,0x06,0x45,0x54,0x3a,0x0c,0x40,0x76,0x6f,0x6c,0x75,0x6d,0x65,0x69,0x69,0x3a,0x0b,0x40,0x70,0x69,0x74,0x63,0x68,0x69,0x69))
 PictureDisplay(5,"ev_saki_hc03",0,0,0,0,100,100,255,0)
 ShowMessageFace("",0,0,2,40)
 ShowMessage("Tentacles grow from Saki's pom-pom and reach toward my body.")
 ShowMessage("They even coil around my penis!")
 ShowMessageFace("",0,0,2,41)
 ShowMessage("\\n<Luka>Hauuu...")
 ShowMessageFace("",0,0,2,42)
 ShowMessage("I tremble at their slimy feeling.")
 ShowMessage("Seductively moving, they start to stroke my penis.")
 ShowMessageFace("saki_fc1",0,0,2,43)
 ShowMessage("\\n<Saki>Ahaha...Your penis got so big~♪\nSaki will make it go small again☆")
 ShowMessageFace("",0,0,2,44)
 ShowMessage("\\n<Luka>Ah, Auuu...")
 ShowMessageFace("",0,0,2,45)
 ShowMessage("The tentacles start to coil around my penis.")
 ShowMessage("Rubbing and tightening, they start to stimulate me.")
 ShowMessageFace("",0,0,2,46)
 ShowMessage("I'm completely at the mercy of that pleasure.")
 ShowMessage("Trembling, my penis is throbbing in delight at the touch.")
 ShowMessageFace("saki_fc1",0,0,2,47)
 ShowMessage("\\n<Saki>Aha, what a lewd voice.\nThese tentacles feel good, don't they?")
 ShowMessageFace("saki_fc1",0,0,2,48)
 ShowMessage("\\n<Saki>Hora, come~♪\nPew pew all over Saki's tentacles~♪")
 ShowMessageFace("",0,0,2,49)
 ShowMessage("Saki's tentacles skillfully attack my penis.")
 ShowMessage("As their slimy touch caresses me, I feel my body giving in.")
 ShowMessageFace("",0,0,2,50)
 ShowMessage("\\n<Luka>Aaah...I'm coming...")
 ShowMessageFace("saki_fc1",0,0,2,51)
 ShowMessage("\\n<Saki>Ahaha, beaten so easily with Saki's tentacles...☆\nYou're a quick one, aren't you?~♪")
 ShowMessageFace("saki_fc1",0,0,2,52)
 ShowMessage("\\n<Saki>Hora, come~♪\nLeak all over Saki's ass～☆")
 ShowMessageFace("",0,0,2,53)
 ShowMessage("Her tentacles swell and stroke me.")
 ShowMessage("As they tangle around me, my head goes pure white in pleasure.")
 ShowMessageFace("",0,0,2,54)
 ShowMessage("\\n<Luka>Ah, aaaah...!!")
 RunCommonEvent(104)
 PictureDisplay(5,"ev_saki_hc05",0,0,0,0,100,100,255,0)
 RunCommonEvent(105)
 ShowMessageFace("",0,0,2,55)
 ShowMessage("I wasn't able to endure it any longer.")
 ShowMessage("Shooting out, my semen covers Saki's ass.")
 ShowMessageFace("",0,0,2,56)
 ShowMessage("\\n<Luka>Hau... Aah...")
 ShowMessageFace("",0,0,2,57)
 ShowMessage("As Saki's tentacles stroke me, I relax in ecstasy.")
 ShowMessage("By the time I was done coming, Saki's white panties were totally covered in semen.")
 246(2)
 ShowMessageFace("saki_fc1",0,0,2,58)
 ShowMessage("\\n<Saki>Ahaha, are you satisfied?\nThe tentacles sure made you come a lot☆")
 ShowMessageFace("saki_fc1",0,0,2,59)
 ShowMessage("\\n<Saki>But it felt really good, didn't it?\nYou can go again if you want☆")
 ShowMessageFace("",0,0,2,60)
 ShowMessage("\\n<Luka>......")
 ShowMessageFace("",0,0,2,61)
 ShowMessage("Saki laughs as she shows off her ass, covered in my semen.")
 ShowMessage("I can only stare at the cloudy stain in silence.")
 221()
 PictureClear(5)
 PictureClear(6)
 ShowMessageFace("",0,0,2,62)
 ShowMessage("......")
 242(2)
 Wait(120)
 241(bytes(0x04,0x08,0x6f,0x3a,0x0d,0x52,0x50,0x47,0x3a,0x3a,0x42,0x47,0x4d,0x08,0x3a,0x0a,0x40,0x6e,0x61,0x6d,0x65,0x49,0x22,0x0c,0x63,0x61,0x73,0x74,0x6c,0x65,0x36,0x06,0x3a,0x06,0x45,0x54,0x3a,0x0c,0x40,0x76,0x6f,0x6c,0x75,0x6d,0x65,0x69,0x69,0x3a,0x0b,0x40,0x70,0x69,0x74,0x63,0x68,0x69,0x69))
 0()
404()
0()
