﻿// EVENT 0499
Name "コラボ：魔城クリスタル2"

250(bytes(0x04,0x08,0x6f,0x3a,0x0c,0x52,0x50,0x47,0x3a,0x3a,0x53,0x45,0x08,0x3a,0x0a,0x40,0x6e,0x61,0x6d,0x65,0x49,0x22,0x0a,0x48,0x65,0x61,0x6c,0x37,0x06,0x3a,0x06,0x45,0x54,0x3a,0x0b,0x40,0x70,0x69,0x74,0x63,0x68,0x69,0x69,0x3a,0x0c,0x40,0x76,0x6f,0x6c,0x75,0x6d,0x65,0x69,0x55))
224(bytes(0x04,0x08,0x75,0x3a,0x0a,0x43,0x6f,0x6c,0x6f,0x72,0x25,0x00,0x00,0x00,0x00,0x00,0xe0,0x6f,0x40,0x00,0x00,0x00,0x00,0x00,0xe0,0x6f,0x40,0x00,0x00,0x00,0x00,0x00,0xe0,0x6f,0x40,0x00,0x00,0x00,0x00,0x00,0xe0,0x6f,0x40),30,true)
314(0,0)
ShowMessageFace("",0,0,2,1)
ShowMessage("パーティ全員のHPとMPが全快した！")
355("unlimited_choices(11, [\"転職・転種を行う\",")
655("\"パーティを編集する\",")
655("\"パーティの登録・呼び出しを行う\",")
655("\"アイテム倉庫を使う\", ")
655("\"転送\", ")
655("\"何もしない\"])")
If(1,11,0,0,0)
 355("SceneManager.call(Scene_JobChange)")
 314(0,0)
 EndEventProcessing()
 0()
EndIf()
If(1,11,0,1,0)
 217()
 313(0,1,1,1)
 355("call_party_edit")
 0()
EndIf()
If(1,11,0,2,0)
 ShowChoices(strings("登録したパーティを呼び出す","パーティを登録する ","やめる"),3)
 IfPlayerPicksChoice(0,null)
  355("SceneManager.call(Scene_PartyLoad)")
  0()
 IfPlayerPicksChoice(1,null)
  355("SceneManager.call(Scene_PartySave)")
  0()
 IfPlayerPicksChoice(2,null)
  EndEventProcessing()
  0()
 404()
 0()
EndIf()
If(1,11,0,3,0)
 355("SceneManager.call(Scene_Storehouse)")
 EndEventProcessing()
 0()
EndIf()
If(1,11,0,4,0)
 355("ex_choice_add(\"第1層\",1,\"v[1228] >= 1\",0)")
 655("ex_choice_add(\"第2層\",2,\"v[1228] >= 2\",0)")
 655("ex_choice_add(\"第3層\",3,\"v[1228] >= 3\",0)")
 655("ex_choice_add(\"第4層\",4,\"v[1228] >= 4\",0)")
 655("ex_choice_add(\"第5層\",5,\"v[1228] >= 5\",0)")
 655("ex_choice_add(\"第6層\",6,\"v[1228] >= 6\",0)")
 655("ex_choice_add(\"第7層\",7,\"v[1228] >= 7\",0)")
 355("ex_choice_add(\"第8層\",8,\"v[1228] >= 8\",0)")
 655("ex_choice_add(\"第9層\",9,\"v[1228] >= 9\",0)")
 655("ex_choice_add(\"第10層\",10,\"v[1228] >= 10\",0)")
 655("ex_choice_add(\"脱出する\",11)")
 655("ex_choice_add(\"やめる\",12)")
 355("ex_choice_show(0,11,[0,0])")
 If(1,9,0,1,0)
  250(bytes(0x04,0x08,0x6f,0x3a,0x0c,0x52,0x50,0x47,0x3a,0x3a,0x53,0x45,0x08,0x3a,0x0a,0x40,0x6e,0x61,0x6d,0x65,0x49,0x22,0x0b,0x4d,0x61,0x67,0x69,0x63,0x31,0x06,0x3a,0x06,0x45,0x54,0x3a,0x0b,0x40,0x70,0x69,0x74,0x63,0x68,0x69,0x69,0x3a,0x0c,0x40,0x76,0x6f,0x6c,0x75,0x6d,0x65,0x69,0x55))
  ChangeSwitch(100,100,1)
  TeleportPlayer(0,922,50,113,2,1)
  EndEventProcessing()
  0()
 EndIf()
 If(1,9,0,2,0)
  250(bytes(0x04,0x08,0x6f,0x3a,0x0c,0x52,0x50,0x47,0x3a,0x3a,0x53,0x45,0x08,0x3a,0x0a,0x40,0x6e,0x61,0x6d,0x65,0x49,0x22,0x0b,0x4d,0x61,0x67,0x69,0x63,0x31,0x06,0x3a,0x06,0x45,0x54,0x3a,0x0b,0x40,0x70,0x69,0x74,0x63,0x68,0x69,0x69,0x3a,0x0c,0x40,0x76,0x6f,0x6c,0x75,0x6d,0x65,0x69,0x55))
  ChangeSwitch(100,100,1)
  TeleportPlayer(0,923,39,82,2,1)
  EndEventProcessing()
  0()
 EndIf()
 If(1,9,0,3,0)
  250(bytes(0x04,0x08,0x6f,0x3a,0x0c,0x52,0x50,0x47,0x3a,0x3a,0x53,0x45,0x08,0x3a,0x0a,0x40,0x6e,0x61,0x6d,0x65,0x49,0x22,0x0b,0x4d,0x61,0x67,0x69,0x63,0x31,0x06,0x3a,0x06,0x45,0x54,0x3a,0x0b,0x40,0x70,0x69,0x74,0x63,0x68,0x69,0x69,0x3a,0x0c,0x40,0x76,0x6f,0x6c,0x75,0x6d,0x65,0x69,0x55))
  ChangeSwitch(100,100,1)
  TeleportPlayer(0,924,21,84,2,1)
  EndEventProcessing()
  0()
 EndIf()
 If(1,9,0,4,0)
  250(bytes(0x04,0x08,0x6f,0x3a,0x0c,0x52,0x50,0x47,0x3a,0x3a,0x53,0x45,0x08,0x3a,0x0a,0x40,0x6e,0x61,0x6d,0x65,0x49,0x22,0x0b,0x4d,0x61,0x67,0x69,0x63,0x31,0x06,0x3a,0x06,0x45,0x54,0x3a,0x0b,0x40,0x70,0x69,0x74,0x63,0x68,0x69,0x69,0x3a,0x0c,0x40,0x76,0x6f,0x6c,0x75,0x6d,0x65,0x69,0x55))
  ChangeSwitch(100,100,1)
  TeleportPlayer(0,925,23,33,2,1)
  EndEventProcessing()
  0()
 EndIf()
 If(1,9,0,5,0)
  If(1,1216,0,2,0)
   ShowMessageFace("",0,0,2,2)
   ShowMessage("何者かの魔力が、転送を妨害している……")
   ShowMessage("第4層までしか転送できないようだ。")
   EndEventProcessing()
   0()
  EndIf()
  250(bytes(0x04,0x08,0x6f,0x3a,0x0c,0x52,0x50,0x47,0x3a,0x3a,0x53,0x45,0x08,0x3a,0x0a,0x40,0x6e,0x61,0x6d,0x65,0x49,0x22,0x0b,0x4d,0x61,0x67,0x69,0x63,0x31,0x06,0x3a,0x06,0x45,0x54,0x3a,0x0b,0x40,0x70,0x69,0x74,0x63,0x68,0x69,0x69,0x3a,0x0c,0x40,0x76,0x6f,0x6c,0x75,0x6d,0x65,0x69,0x55))
  ChangeSwitch(100,100,1)
  TeleportPlayer(0,926,69,90,2,1)
  EndEventProcessing()
  0()
 EndIf()
 If(1,9,0,6,0)
  If(1,1216,0,2,0)
   ShowMessageFace("",0,0,2,3)
   ShowMessage("何者かの魔力が、転送を妨害している……")
   ShowMessage("第4層までしか転送できないようだ。")
   EndEventProcessing()
   0()
  EndIf()
  250(bytes(0x04,0x08,0x6f,0x3a,0x0c,0x52,0x50,0x47,0x3a,0x3a,0x53,0x45,0x08,0x3a,0x0a,0x40,0x6e,0x61,0x6d,0x65,0x49,0x22,0x0b,0x4d,0x61,0x67,0x69,0x63,0x31,0x06,0x3a,0x06,0x45,0x54,0x3a,0x0b,0x40,0x70,0x69,0x74,0x63,0x68,0x69,0x69,0x3a,0x0c,0x40,0x76,0x6f,0x6c,0x75,0x6d,0x65,0x69,0x55))
  ChangeSwitch(100,100,1)
  TeleportPlayer(0,927,70,57,2,1)
  EndEventProcessing()
  0()
 EndIf()
 If(1,9,0,7,0)
  If(1,1216,0,2,0)
   ShowMessageFace("",0,0,2,4)
   ShowMessage("何者かの魔力が、転送を妨害している……")
   ShowMessage("第4層までしか転送できないようだ。")
   EndEventProcessing()
   0()
  EndIf()
  250(bytes(0x04,0x08,0x6f,0x3a,0x0c,0x52,0x50,0x47,0x3a,0x3a,0x53,0x45,0x08,0x3a,0x0a,0x40,0x6e,0x61,0x6d,0x65,0x49,0x22,0x0b,0x4d,0x61,0x67,0x69,0x63,0x31,0x06,0x3a,0x06,0x45,0x54,0x3a,0x0b,0x40,0x70,0x69,0x74,0x63,0x68,0x69,0x69,0x3a,0x0c,0x40,0x76,0x6f,0x6c,0x75,0x6d,0x65,0x69,0x55))
  ChangeSwitch(100,100,1)
  TeleportPlayer(0,928,52,96,2,1)
  EndEventProcessing()
  0()
 EndIf()
 If(1,9,0,8,0)
  If(1,1216,0,2,0)
   ShowMessageFace("",0,0,2,5)
   ShowMessage("何者かの魔力が、転送を妨害している……")
   ShowMessage("第4層までしか転送できないようだ。")
   EndEventProcessing()
   0()
  EndIf()
  250(bytes(0x04,0x08,0x6f,0x3a,0x0c,0x52,0x50,0x47,0x3a,0x3a,0x53,0x45,0x08,0x3a,0x0a,0x40,0x6e,0x61,0x6d,0x65,0x49,0x22,0x0b,0x4d,0x61,0x67,0x69,0x63,0x31,0x06,0x3a,0x06,0x45,0x54,0x3a,0x0b,0x40,0x70,0x69,0x74,0x63,0x68,0x69,0x69,0x3a,0x0c,0x40,0x76,0x6f,0x6c,0x75,0x6d,0x65,0x69,0x55))
  ChangeSwitch(100,100,1)
  TeleportPlayer(0,929,44,66,2,1)
  EndEventProcessing()
  0()
 EndIf()
 If(1,9,0,9,0)
  If(1,1216,0,2,0)
   ShowMessageFace("",0,0,2,6)
   ShowMessage("何者かの魔力が、転送を妨害している……")
   ShowMessage("第4層までしか転送できないようだ。")
   EndEventProcessing()
   0()
  EndIf()
  250(bytes(0x04,0x08,0x6f,0x3a,0x0c,0x52,0x50,0x47,0x3a,0x3a,0x53,0x45,0x08,0x3a,0x0a,0x40,0x6e,0x61,0x6d,0x65,0x49,0x22,0x0b,0x4d,0x61,0x67,0x69,0x63,0x31,0x06,0x3a,0x06,0x45,0x54,0x3a,0x0b,0x40,0x70,0x69,0x74,0x63,0x68,0x69,0x69,0x3a,0x0c,0x40,0x76,0x6f,0x6c,0x75,0x6d,0x65,0x69,0x55))
  ChangeSwitch(100,100,1)
  TeleportPlayer(0,930,53,78,2,1)
  EndEventProcessing()
  0()
 EndIf()
 If(1,9,0,10,0)
  If(1,1216,0,2,0)
   ShowMessageFace("",0,0,2,7)
   ShowMessage("何者かの魔力が、転送を妨害している……")
   ShowMessage("第4層までしか転送できないようだ。")
   EndEventProcessing()
   0()
  EndIf()
  250(bytes(0x04,0x08,0x6f,0x3a,0x0c,0x52,0x50,0x47,0x3a,0x3a,0x53,0x45,0x08,0x3a,0x0a,0x40,0x6e,0x61,0x6d,0x65,0x49,0x22,0x0b,0x4d,0x61,0x67,0x69,0x63,0x31,0x06,0x3a,0x06,0x45,0x54,0x3a,0x0b,0x40,0x70,0x69,0x74,0x63,0x68,0x69,0x69,0x3a,0x0c,0x40,0x76,0x6f,0x6c,0x75,0x6d,0x65,0x69,0x55))
  ChangeSwitch(100,100,1)
  TeleportPlayer(0,931,7,15,2,1)
  EndEventProcessing()
  0()
 EndIf()
 If(1,9,0,11,0)
  ShowMessageFace("",0,0,2,8)
  ShowMessage("魔城トゥーロマンサから脱出しますか？")
  ShowChoices(strings("脱出しない","脱出する"),1)
  IfPlayerPicksChoice(0,null)
   EndEventProcessing()
   0()
  IfPlayerPicksChoice(1,null)
   250(bytes(0x04,0x08,0x6f,0x3a,0x0c,0x52,0x50,0x47,0x3a,0x3a,0x53,0x45,0x08,0x3a,0x0a,0x40,0x6e,0x61,0x6d,0x65,0x49,0x22,0x0b,0x4d,0x61,0x67,0x69,0x63,0x31,0x06,0x3a,0x06,0x45,0x54,0x3a,0x0b,0x40,0x70,0x69,0x74,0x63,0x68,0x69,0x69,0x3a,0x0c,0x40,0x76,0x6f,0x6c,0x75,0x6d,0x65,0x69,0x55))
   ChangeSwitch(100,100,1)
   TeleportPlayer(0,2,328,187,2,1)
   EndEventProcessing()
   0()
  404()
  0()
 EndIf()
 EndEventProcessing()
 0()
EndIf()
EndEventProcessing()
0()
