// EVENT 0050
Name "Skill: Play 101-110"

ChangeVariable(11,11,0,2,1,5)
If(1,100,0,101,0)
 If(1,11,0,1,0)
  ShowMessageFace("cent2_fc1",0,0,2,1)
  ShowMessage("\\n<Lichtina>Once we are defeated, I wonder if I will also...")
  313(0,101,0,24)
  ShowMessageFace("",0,0,2,2)
  ShowMessage("Lichtina is having perverted thoughts.")
  ShowMessage("Lichtina became horny!")
  EndEventProcessing()
  0()
 EndIf()
 If(1,11,0,2,0)
  ShowMessageFace("cent2_fc1",0,0,2,3)
  ShowMessage("\\n<Lichtina>No one is faster than me!")
  ShowMessageFace("",0,0,2,4)
  ShowMessage("Lichtina is running around nearby.")
  EndEventProcessing()
  0()
 EndIf()
 If(1,11,0,3,0)
  ShowMessageFace("cent2_fc1",0,0,2,5)
  ShowMessage("\\n<Lichtina>Spear training! Ya! Ha!")
  355("interrupt_skill(3291)")
  EndEventProcessing()
  0()
 EndIf()
 If(1,11,0,4,0)
  ShowMessageFace("cent2_fc1",0,0,2,6)
  ShowMessage("\\n<Lichtina>Fighting spirit is everything! Ha!")
  355("interrupt_skill(3294)")
  EndEventProcessing()
  0()
 EndIf()
 If(1,11,0,5,0)
  ShowMessageFace("cent2_fc1",0,0,2,7)
  ShowMessage("\\n<Lichtina>All right, take this... as a sign of my gratitude.")
  ShowMessageFace("",0,0,2,8)
  ShowMessage("Lichtina presents a gift!")
  250(bytes(0x04,0x08,0x6f,0x3a,0x0c,0x52,0x50,0x47,0x3a,0x3a,0x53,0x45,0x08,0x3a,0x0a,0x40,0x6e,0x61,0x6d,0x65,0x49,0x22,0x0a,0x49,0x74,0x65,0x6d,0x31,0x06,0x3a,0x06,0x45,0x54,0x3a,0x0b,0x40,0x70,0x69,0x74,0x63,0x68,0x69,0x69,0x3a,0x0c,0x40,0x76,0x6f,0x6c,0x75,0x6d,0x65,0x69,0x55))
  ChangeInventory_Item(310,0,0,1)
  ShowMessageFace("",0,0,2,9)
  ShowMessage("You obtain a \\ii[310]!")
  EndEventProcessing()
  0()
 EndIf()
 0()
EndIf()
If(1,100,0,102,0)
 If(1,11,0,1,0)
  ShowMessageFace("youko_fc1",1,0,2,10)
  ShowMessage("\\n<Kitsu>Ehehe... secret thin fried tofu...")
  ShowMessageFace("",0,0,2,11)
  ShowMessage("Kitsu is eating some thin fried tofu she had hidden.")
  EndEventProcessing()
  0()
 EndIf()
 If(1,11,0,2,0)
  ShowMessageFace("youko_fc1",1,0,2,12)
  ShowMessage("\\n<Kitsu>*munch* *munch* *munch*")
  ShowMessageFace("",0,0,2,13)
  ShowMessage("Kitsu is eating some food she stole.")
  EndEventProcessing()
  0()
 EndIf()
 If(1,11,0,3,0)
  ShowMessageFace("youko_fc1",0,0,2,14)
  ShowMessage("\\n<Kitsu>I have developed a new Ninjutsu!\nFox style, art of dispersion. ♪")
  355("interrupt_skill(3306)")
  EndEventProcessing()
  0()
 EndIf()
 If(1,11,0,4,0)
  ShowMessageFace("youko_fc1",2,0,2,15)
  ShowMessage("\\n<Kitsu>Help meeee!")
  250(bytes(0x04,0x08,0x6f,0x3a,0x0c,0x52,0x50,0x47,0x3a,0x3a,0x53,0x45,0x08,0x3a,0x0a,0x40,0x6e,0x61,0x6d,0x65,0x49,0x22,0x08,0x52,0x75,0x6e,0x06,0x3a,0x06,0x45,0x54,0x3a,0x0b,0x40,0x70,0x69,0x74,0x63,0x68,0x69,0x69,0x3a,0x0c,0x40,0x76,0x6f,0x6c,0x75,0x6d,0x65,0x69,0x55))
  ShowMessageFace("",0,0,2,16)
  ShowMessage("Kitsu ran away!")
  ShowMessage("...But she got turned around and came right back.")
  EndEventProcessing()
  0()
 EndIf()
 If(1,11,0,5,0)
  ShowMessageFace("youko_fc1",0,0,2,17)
  ShowMessage("\\n<Kitsu>Yaay, lalalaa. ♪")
  ShowMessageFace("",0,0,2,18)
  ShowMessage("Kitsu is happily singing and dancing.")
  EndEventProcessing()
  0()
 EndIf()
 0()
EndIf()
If(1,100,0,103,0)
 If(1,11,0,1,0)
  ShowMessageFace("kamuro_fc1",0,0,2,19)
  ShowMessage("\\n<Kamuro>Oh, I should write a letter to the fox village.")
  ShowMessageFace("",0,0,2,20)
  ShowMessage("Kamuro wrote a letter.")
  EndEventProcessing()
  0()
 EndIf()
 If(1,11,0,2,0)
  ShowMessageFace("kamuro_fc1",0,0,2,21)
  ShowMessage("\\n<Kamuro>Here, it's a gift of thin fried tofu.")
  ShowMessageFace("",0,0,2,22)
  ShowMessage("Kamuro presents a gift!")
  250(bytes(0x04,0x08,0x6f,0x3a,0x0c,0x52,0x50,0x47,0x3a,0x3a,0x53,0x45,0x08,0x3a,0x0a,0x40,0x6e,0x61,0x6d,0x65,0x49,0x22,0x0a,0x49,0x74,0x65,0x6d,0x31,0x06,0x3a,0x06,0x45,0x54,0x3a,0x0b,0x40,0x70,0x69,0x74,0x63,0x68,0x69,0x69,0x3a,0x0c,0x40,0x76,0x6f,0x6c,0x75,0x6d,0x65,0x69,0x55))
  ChangeInventory_Item(333,0,0,1)
  ShowMessageFace("",0,0,2,23)
  ShowMessage("You obtain some \\ii[333]!")
  EndEventProcessing()
  0()
 EndIf()
 If(1,11,0,3,0)
  ShowMessageFace("kamuro_fc1",2,0,2,24)
  ShowMessage("\\n<Kamuro>Umm, so...\nGo-good luck...")
  ShowMessageFace("",0,0,2,25)
  ShowMessage("Kamuro cheered everybody on!")
  ShowMessage("...but nobody heard her.")
  EndEventProcessing()
  0()
 EndIf()
 If(1,11,0,4,0)
  ShowMessageFace("kamuro_fc1",2,0,2,26)
  ShowMessage("\\n<Kamuro>Umm, let's stop...")
  ShowMessageFace("",0,0,2,27)
  ShowMessage("Kamuro tried to stop the fight!")
  ShowMessage("...but nobody heard her.")
  EndEventProcessing()
  0()
 EndIf()
 If(1,11,0,5,0)
  ShowMessageFace("kamuro_fc1",2,0,2,28)
  ShowMessage("\\n<Kamuro>Here I go... Ha!")
  355("interrupt_skill(3293)")
  EndEventProcessing()
  0()
 EndIf()
 0()
EndIf()
If(1,100,0,104,0)
 If(1,11,0,1,0)
  ShowMessageFace("kumo_fc1",0,0,2,29)
  ShowMessage("\\n<Rachnee>I need to make a scarf for the coming winter.")
  ShowMessageFace("",0,0,2,30)
  ShowMessage("Rachnee is knitting")
  EndEventProcessing()
  0()
 EndIf()
 If(1,11,0,2,0)
  ShowMessageFace("kumo_fc1",1,0,2,31)
  ShowMessage("\\n<Rachnee>Have you tried the rice today?")
  ShowMessageFace("",0,0,2,32)
  ShowMessage("Rachnee is laughing with a big grin.")
  EndEventProcessing()
  0()
 EndIf()
 If(1,11,0,3,0)
  ShowMessageFace("kumo_fc1",2,0,2,33)
  ShowMessage("\\n<Rachnee>Whoa whoa whoa! My leg got caught in my web!")
  313(0,104,0,28)
  ShowMessageFace("",0,0,2,34)
  ShowMessage("Rachnee accidentally got tangled in her own web!")
  ShowMessage("Rachnee has been bound!")
  EndEventProcessing()
  0()
 EndIf()
 If(1,11,0,4,0)
  ShowMessageFace("kumo_fc1",2,0,2,35)
  ShowMessage("\\n<Rachnee>I fell from my web! Ahhhh!")
  355("interrupt_skill(3310)")
  EndEventProcessing()
  0()
 EndIf()
 If(1,11,0,5,0)
  ShowMessageFace("kumo_fc1",0,0,2,36)
  ShowMessage("\\n<Rachnee>This is a spider dance. ♪")
  ShowMessageFace("",0,0,2,37)
  ShowMessage("Rachnee is dancing a fun dance!")
  ShowMessage("...but nothing happened.")
  EndEventProcessing()
  0()
 EndIf()
 0()
EndIf()
If(1,100,0,105,0)
 If(1,11,0,1,0)
  ShowMessageFace("mimic_fc1",2,0,2,38)
  ShowMessage("\\n<Minelli>......")
  ShowMessageFace("",0,0,2,39)
  ShowMessage("Minelli is hiding in her treasure chest.")
  EndEventProcessing()
  0()
 EndIf()
 If(1,11,0,2,0)
  ShowMessageFace("mimic_fc1",1,0,2,40)
  ShowMessage("\\n<Minelli>......")
  ShowMessageFace("",0,0,2,41)
  ShowMessage("Minelli is playing cards by herself.")
  EndEventProcessing()
  0()
 EndIf()
 If(1,11,0,3,0)
  ShowMessageFace("mimic_fc1",1,0,2,42)
  ShowMessage("\\n<Minelli>......")
  ShowMessageFace("",0,0,2,43)
  ShowMessage("Minelli is watering a cactus she is growing in her treasure chest.")
  EndEventProcessing()
  0()
 EndIf()
 If(1,11,0,4,0)
  ShowMessageFace("mimic_fc1",1,0,2,44)
  ShowMessage("\\n<Minelli>Octopus, sword, drum, monster...")
  ShowMessageFace("",0,0,2,45)
  ShowMessage("Minelli is playing the alphabet game.")
  EndEventProcessing()
  0()
 EndIf()
 If(1,11,0,5,0)
  ShowMessageFace("mimic_fc1",1,0,2,46)
  ShowMessage("\\n<Minelli>Rock, paper, scissors, shoot!\nGood right hand, you broke the four game winning streak.")
  ShowMessageFace("",0,0,2,47)
  ShowMessage("Minelli is playing rock-paper-scissors by herself.")
  EndEventProcessing()
  0()
 EndIf()
 0()
EndIf()
If(1,100,0,106,0)
 If(1,11,0,1,0)
  ShowMessageFace("nanabi_fc1",0,0,2,48)
  ShowMessage("\\n<Nanabi>When you have seven tails, it's hard to groom them all.")
  ShowMessageFace("",0,0,2,49)
  ShowMessage("Nanabi is grooming her tails.")
  EndEventProcessing()
  0()
 EndIf()
 If(1,11,0,2,0)
  ShowMessageFace("nanabi_fc1",0,0,2,50)
  ShowMessage("\\n<Nanabi>Here, it's a gift.\nPlease enjoy it.")
  ShowMessageFace("",0,0,2,51)
  ShowMessage("Nanabi presents a gift!")
  250(bytes(0x04,0x08,0x6f,0x3a,0x0c,0x52,0x50,0x47,0x3a,0x3a,0x53,0x45,0x08,0x3a,0x0a,0x40,0x6e,0x61,0x6d,0x65,0x49,0x22,0x0a,0x49,0x74,0x65,0x6d,0x31,0x06,0x3a,0x06,0x45,0x54,0x3a,0x0b,0x40,0x70,0x69,0x74,0x63,0x68,0x69,0x69,0x3a,0x0c,0x40,0x76,0x6f,0x6c,0x75,0x6d,0x65,0x69,0x55))
  ChangeInventory_Item(333,0,0,1)
  ShowMessageFace("",0,0,2,52)
  ShowMessage("You obtain \\ii[333]!")
  EndEventProcessing()
  0()
 EndIf()
 If(1,11,0,3,0)
  ShowMessageFace("nanabi_fc1",0,0,2,53)
  ShowMessage("\\n<Nanabi>A fox and the moon, it would be a shame not to dance.")
  ShowMessageFace("",0,0,2,54)
  ShowMessage("Nanabi is happily singing and dancing.")
  EndEventProcessing()
  0()
 EndIf()
 If(1,11,0,4,0)
  ShowMessageFace("nanabi_fc1",0,0,2,55)
  ShowMessage("\\n<Nanabi>Excuse me for a bit, it's a beautiful day and the sun feels good on my fur.")
  ShowMessageFace("",0,0,2,56)
  ShowMessage("Nanabi is sunbathing.")
  EndEventProcessing()
  0()
 EndIf()
 If(1,11,0,5,0)
  ShowMessageFace("nanabi_fc1",0,0,2,57)
  ShowMessage("\\n<Nanabi>Now, my fighting spirit is full power!")
  355("interrupt_skill(3294)")
  EndEventProcessing()
  0()
 EndIf()
 0()
EndIf()
If(1,100,0,107,0)
 If(1,11,0,1,0)
  ShowMessageFace("namako_fc1",2,0,2,58)
  ShowMessage("\\n<Yume>Ahh, I drank too much sand.")
  ShowMessageFace("",0,0,2,59)
  ShowMessage("Yume is cleaning sand from her semen sucking mouth.")
  EndEventProcessing()
  0()
 EndIf()
 If(1,11,0,2,0)
  ShowMessageFace("namako_fc1",0,0,2,60)
  ShowMessage("\\n<Yume>Cucumber dance. Dance. ♪ Dance. ♪")
  ShowMessageFace("",0,0,2,61)
  ShowMessage("Yume is dancing a strange dance.")
  ShowMessage("...but nothing happend.")
  EndEventProcessing()
  0()
 EndIf()
 If(1,11,0,3,0)
  ShowMessageFace("namako_fc1",2,0,2,62)
  ShowMessage("\\n<Yume>Heeey! Shellfish girl, where are youuu?!\nIs the miso soup done?!")
  ShowMessageFace("",0,0,2,63)
  ShowMessage("Yume is hitting a bowl with some chopsticks.")
  ShowMessage("But the other party was not present!")
  313(0,107,0,11)
  ShowMessageFace("",0,0,2,64)
  ShowMessage("Yume fell asleep as she waited.")
  EndEventProcessing()
  0()
 EndIf()
 If(1,11,0,4,0)
  ShowMessageFace("namako_fc1",2,0,2,65)
  ShowMessage("\\n<Yume>My cucumber mouth is shooting water bullets!")
  355("interrupt_skill(2602)")
  EndEventProcessing()
  0()
 EndIf()
 If(1,11,0,5,0)
  ShowMessageFace("kai_fc1",0,0,2,66)
  ShowMessage("\\n<Shellfish Girl>Lovely weather today. ♪")
  ShowMessageFace("namako_fc1",1,0,2,67)
  ShowMessage("\\n<Yume>Ahh! I found you shellfish girl!")
  ShowMessageFace("kai_fc1",2,0,2,68)
  ShowMessage("\\n<Shellfish Girl>Ahhh! Help!")
  ShowMessageFace("",0,0,2,69)
  ShowMessage("Yume is chasing the Shellfish Girl!")
  EndEventProcessing()
  0()
 EndIf()
 0()
EndIf()
If(1,100,0,108,0)
 If(1,11,0,1,0)
  ShowMessageFace("kai_fc1",0,0,2,70)
  ShowMessage("\\n<Shelly>......")
  313(0,108,0,306)
  ShowMessageFace("",0,0,2,71)
  ShowMessage("Shelly withdrew into her shell.")
  ShowMessage("Shelly's defense increased!")
  EndEventProcessing()
  0()
 EndIf()
 If(1,11,0,2,0)
  ShowMessageFace("namako_fc1",1,0,2,72)
  ShowMessage("\\n<Sea Cucumber Girl>Ahh! I found you Shellfish Girl!")
  ShowMessageFace("kai_fc1",2,0,2,73)
  ShowMessage("\\n<Shelly>Ahhh! Help!")
  ShowMessageFace("",0,0,2,74)
  ShowMessage("Shelly is being chased by a Sea Cucumber Girl!")
  EndEventProcessing()
  0()
 EndIf()
 If(1,11,0,3,0)
  ShowMessageFace("kai_fc1",0,0,2,75)
  ShowMessage("\\n<Shelly>I've made some miso soup. ♪")
  ShowMessageFace("",0,0,2,76)
  ShowMessage("Shelly presents a gift.")
  250(bytes(0x04,0x08,0x6f,0x3a,0x0c,0x52,0x50,0x47,0x3a,0x3a,0x53,0x45,0x08,0x3a,0x0a,0x40,0x6e,0x61,0x6d,0x65,0x49,0x22,0x0a,0x49,0x74,0x65,0x6d,0x31,0x06,0x3a,0x06,0x45,0x54,0x3a,0x0b,0x40,0x70,0x69,0x74,0x63,0x68,0x69,0x69,0x3a,0x0c,0x40,0x76,0x6f,0x6c,0x75,0x6d,0x65,0x69,0x55))
  ChangeInventory_Item(389,0,0,1)
  ShowMessageFace("",0,0,2,77)
  ShowMessage("You obtain \\ii[389]!")
  EndEventProcessing()
  0()
 EndIf()
 If(1,11,0,4,0)
  ShowMessageFace("kai_fc1",0,0,2,78)
  ShowMessage("\\n<Shelly>My dream is to become a bride!")
  ShowMessageFace("",0,0,2,79)
  ShowMessage("Shelly made a bold declaration.")
  ShowMessage("But nobody was listening.")
  EndEventProcessing()
  0()
 EndIf()
 If(1,11,0,5,0)
  ShowMessageFace("kai_fc1",0,0,2,80)
  ShowMessage("\\n<Shelly>Ahh, washing is just...")
  ShowMessageFace("",0,0,2,81)
  ShowMessage("Shelly is washing your dirty clothes.")
  EndEventProcessing()
  0()
 EndIf()
 0()
EndIf()
If(1,100,0,109,0)
 If(1,11,0,1,0)
  ShowMessageFace("kani_fc1",2,0,2,82)
  ShowMessage("\\n<Soapy>The greatest secret, the crab wave motion gun...")
  ShowMessageFace("",0,0,2,83)
  ShowMessage("Soapy has been training in secret.")
  EndEventProcessing()
  0()
 EndIf()
 If(1,11,0,2,0)
  ShowMessageFace("kani_fc1",0,0,2,84)
  ShowMessage("\\n<Soapy>Blehboblehbobleh.")
  ShowMessageFace("",0,0,2,85)
  ShowMessage("Soapy produced a large amount of bubbles!")
  ShowMessage("...but nothing happened.")
  EndEventProcessing()
  0()
 EndIf()
 If(1,11,0,3,0)
  ShowMessageFace("kani_fc1",0,0,2,86)
  ShowMessage("\\n<Soapy>If you need anything washed, leave it to me! ♪")
  ShowMessageFace("",0,0,2,87)
  ShowMessage("Soapy is washing dishes with her bubbles!")
  EndEventProcessing()
  0()
 EndIf()
 If(1,11,0,4,0)
  ShowMessageFace("kani_fc1",0,0,2,88)
  ShowMessage("\\n<Soapy>Rock, paper, scissors, go!\nYes! Rock is strong!")
  ShowMessageFace("",0,0,2,89)
  ShowMessage("Soapy is playing rock-paper-scissors by herself.")
  EndEventProcessing()
  0()
 EndIf()
 If(1,11,0,5,0)
  ShowMessageFace("kani_fc1",0,0,2,90)
  ShowMessage("\\n<Soapy>I've been protecting this little one.\nPlease release it into the sea.")
  250(bytes(0x04,0x08,0x6f,0x3a,0x0c,0x52,0x50,0x47,0x3a,0x3a,0x53,0x45,0x08,0x3a,0x0a,0x40,0x6e,0x61,0x6d,0x65,0x49,0x22,0x0a,0x49,0x74,0x65,0x6d,0x31,0x06,0x3a,0x06,0x45,0x54,0x3a,0x0b,0x40,0x70,0x69,0x74,0x63,0x68,0x69,0x69,0x3a,0x0c,0x40,0x76,0x6f,0x6c,0x75,0x6d,0x65,0x69,0x55))
  ChangeInventory_Item(326,0,0,1)
  ShowMessageFace("",0,0,2,91)
  ShowMessage("Soapy seems to have caught a crab.")
  ShowMessage("You obtain a \\ii[326]!")
  EndEventProcessing()
  0()
 EndIf()
 0()
EndIf()
If(1,100,0,110,0)
 If(1,11,0,1,0)
  ShowMessageFace("slimelord_fc1",0,0,2,92)
  ShowMessage("\\n<Bess>Blebblebbleb. ♪")
  ShowMessageFace("",0,0,2,93)
  ShowMessage("Bess' slime is wiggling and shaking.")
  ShowMessage("...but nothing happened.")
  EndEventProcessing()
  0()
 EndIf()
 If(1,11,0,2,0)
  ShowMessageFace("slimelord_fc1",4,0,2,94)
  ShowMessage("\\n<Bess>Yaay, yaay! ♪")
  ShowMessageFace("",0,0,2,95)
  ShowMessage("Bess is happily singing and dancing.")
  EndEventProcessing()
  0()
 EndIf()
 If(1,11,0,3,0)
  ShowMessageFace("slimelord_fc1",4,0,2,96)
  ShowMessage("\\n<Bess>Let's go! Yeah!")
  355("interrupt_skill(3301)")
  EndEventProcessing()
  0()
 EndIf()
 If(1,11,0,4,0)
  ShowMessageFace("slimelord_fc1",0,0,2,97)
  ShowMessage("\\n<Bess>Ehehe, nobody is looking.")
  ShowMessageFace("",0,0,2,98)
  ShowMessage("Bess is eating some food she stole.")
  EndEventProcessing()
  0()
 EndIf()
 If(1,11,0,5,0)
  ShowMessageFace("slimelord_fc1",3,0,2,99)
  ShowMessage("\\n<Bess>...gah! Something fell from the sky.")
  250(bytes(0x04,0x08,0x6f,0x3a,0x0c,0x52,0x50,0x47,0x3a,0x3a,0x53,0x45,0x08,0x3a,0x0a,0x40,0x6e,0x61,0x6d,0x65,0x49,0x22,0x0a,0x49,0x74,0x65,0x6d,0x31,0x06,0x3a,0x06,0x45,0x54,0x3a,0x0b,0x40,0x70,0x69,0x74,0x63,0x68,0x69,0x69,0x3a,0x0c,0x40,0x76,0x6f,0x6c,0x75,0x6d,0x65,0x69,0x55))
  ChangeInventory_Item(447,0,0,1)
  ShowMessageFace("",0,0,2,100)
  ShowMessage("Bess was hit by a falling pine cone.")
  ShowMessage("You obtain a \\ii[447]!")
  EndEventProcessing()
  0()
 EndIf()
 0()
EndIf()
0()
