// EVENT 2029
Name "Seduction: High Slug Girl"

If(0,25,1)
 EndEventProcessing()
 0()
EndIf()
355("$game_troop.lose_event_id = 3029")
ChangeVariable(26,26,0,3,3,1,4)
ChangeVariable(26,26,4,0,10)
ShowMessageFace("highslag_fc1",0,0,2,1)
ShowMessage("\\n<High Slug>I'm in a bad state... There's no helping it.\nWhy not try mating with me?")
ShowMessageFace("",0,0,2,2)
ShowMessage("The High Slug shows off a fleshy hole in her lower body!")
ShowMessageFace("highslag_fc1",0,0,2,3)
ShowMessage("\\n<High Slug>My slimy reproductive hole feels really good.\nI'll gladly accept all of your seed...")
ChangeSwitch(98,98,0)
ChangeSwitch(96,96,0)
ShowChoices(strings("Ignore her","Give in to temptation"),1)
IfPlayerPicksChoice(0,"無視する")
 ShowMessageFace("",0,0,2,4)
 ShowMessage("Luka resists her temptation!")
 RunCommonEvent(1999)
 EndEventProcessing()
 0()
IfPlayerPicksChoice(1,"誘惑に乗る")
 0()
404()
ShowMessageFace("highslag_fc1",0,0,2,5)
ShowMessage("\\n<High Slug>Now, come inside...\nDrown in the supreme pleasure of my slimy hole...")
355("battler_graphic_hide")
PictureDisplay(5,"ev_highslag_hc01",0,0,0,0,100,100,255,0)
ShowMessageFace("",0,0,2,6)
ShowMessage("Luka gives himself over to the High Slug's lower body!")
PictureDisplay(5,"ev_highslag_hc02",0,0,0,0,100,100,255,0)
ShowMessageFace("highslag_fc1",0,0,2,7)
ShowMessage("\\n<High Slug>Fufu, good boy.\nHave a taste of my reproductive organ...")
ChangeVariable(26,26,3,0,3)
250(bytes(0x04,0x08,0x6f,0x3a,0x0c,0x52,0x50,0x47,0x3a,0x3a,0x53,0x45,0x08,0x3a,0x0a,0x40,0x6e,0x61,0x6d,0x65,0x49,0x22,0x11,0x6d,0x6f,0x6e,0x5f,0x65,0x72,0x6f,0x5f,0x70,0x79,0x75,0x32,0x06,0x3a,0x06,0x45,0x54,0x3a,0x0b,0x40,0x70,0x69,0x74,0x63,0x68,0x69,0x69,0x3a,0x0c,0x40,0x76,0x6f,0x6c,0x75,0x6d,0x65,0x69,0x69))
PictureDisplay(5,"ev_highslag_hc03",0,0,0,0,100,100,255,0)
311(0,1,1,1,26,true)
ShowMessageFace("",0,0,2,8)
ShowMessage("Luka's penis sinks into her hole!")
ShowMessage("The slimy sensation wraps around his penis!\\D")
ShowMessage("Luka takes \\V[26] damage!")
ChangeVariable(27,27,0,3,3,1,2)
If(1,27,0,0,0)
 JumpToLabel("射精1")
 0()
EndIf()
ShowMessageFace("",0,0,2,9)
ShowMessage("\\n<Luka>Ah... Aaah!")
ShowMessageFace("highslag_fc1",0,0,2,10)
ShowMessage("\\n<High Slug>Ufufu, it's great, no?\nAren't you glad you got the chance to taste my hole?")
250(bytes(0x04,0x08,0x6f,0x3a,0x0c,0x52,0x50,0x47,0x3a,0x3a,0x53,0x45,0x08,0x3a,0x0a,0x40,0x6e,0x61,0x6d,0x65,0x49,0x22,0x12,0x6d,0x6f,0x6e,0x5f,0x65,0x72,0x6f,0x5f,0x6e,0x61,0x6d,0x65,0x31,0x06,0x3a,0x06,0x45,0x54,0x3a,0x0b,0x40,0x70,0x69,0x74,0x63,0x68,0x69,0x69,0x3a,0x0c,0x40,0x76,0x6f,0x6c,0x75,0x6d,0x65,0x69,0x69))
311(0,1,1,1,26,true)
ShowMessageFace("",0,0,2,11)
ShowMessage("The mucus covered hole surrounds Luka's penis!")
ShowMessage("Threads of slime cling to his body!\\D")
ShowMessage("Luka takes \\V[26] damage!")
ChangeVariable(27,27,0,3,3,1,2)
If(1,27,0,0,0)
 JumpToLabel("射精2")
 0()
EndIf()
ShowMessageFace("highslag_fc1",0,0,2,12)
ShowMessage("\\n<High Slug>I'll move around inside...\nI know you can't withstand much more...")
250(bytes(0x04,0x08,0x6f,0x3a,0x0c,0x52,0x50,0x47,0x3a,0x3a,0x53,0x45,0x08,0x3a,0x0a,0x40,0x6e,0x61,0x6d,0x65,0x49,0x22,0x12,0x6d,0x6f,0x6e,0x5f,0x65,0x72,0x6f,0x5f,0x6e,0x61,0x6d,0x65,0x31,0x06,0x3a,0x06,0x45,0x54,0x3a,0x0b,0x40,0x70,0x69,0x74,0x63,0x68,0x69,0x69,0x3a,0x0c,0x40,0x76,0x6f,0x6c,0x75,0x6d,0x65,0x69,0x69))
311(0,1,1,1,26,true)
ShowMessageFace("",0,0,2,13)
ShowMessage("The flesh inside of the High Slug starts to squirm!\\D")
ShowMessage("Luka takes \\V[26] damage!")
ChangeVariable(27,27,0,3,3,1,2)
If(1,27,0,0,0)
 JumpToLabel("射精2")
 0()
EndIf()
ShowMessageFace("highslag_fc1",0,0,2,14)
ShowMessage("\\n<High Slug>You're about to leak, aren't you?\nGive in, and let loose...")
250(bytes(0x04,0x08,0x6f,0x3a,0x0c,0x52,0x50,0x47,0x3a,0x3a,0x53,0x45,0x08,0x3a,0x0a,0x40,0x6e,0x61,0x6d,0x65,0x49,0x22,0x12,0x6d,0x6f,0x6e,0x5f,0x65,0x72,0x6f,0x5f,0x6e,0x61,0x6d,0x65,0x31,0x06,0x3a,0x06,0x45,0x54,0x3a,0x0b,0x40,0x70,0x69,0x74,0x63,0x68,0x69,0x69,0x3a,0x0c,0x40,0x76,0x6f,0x6c,0x75,0x6d,0x65,0x69,0x69))
311(0,1,1,1,26,true)
ShowMessageFace("",0,0,2,15)
ShowMessage("Her wavy walls assault Luka with pleasure!")
ShowMessage("His glans scrapes against her slimy walls!\\D")
ShowMessage("Luka takes \\V[26] damage!")
ChangeVariable(27,27,0,3,3,1,2)
If(1,27,0,0,0)
 JumpToLabel("射精2")
 0()
EndIf()
DefineLabel("射精1")
ShowMessageFace("",0,0,2,16)
ShowMessage("\\n<Luka>Oh no, I'm coming... Aaah...")
RunCommonEvent(104)
PictureDisplay(5,"ev_highslag_hc04",0,0,0,0,100,100,255,0)
RunCommonEvent(105)
ShowMessageFace("",0,0,2,17)
ShowMessage("The instant Luka is forced inside, he comes.")
ShowMessage("Her slimy hole was far too much for him to withstand.")
ShowMessageFace("highslag_fc1",0,0,2,18)
ShowMessage("\\n<High Slug>Ahaha, unbelievable.\nThat wasn't even five seconds!")
RunCommonEvent(2000)
EndEventProcessing()
DefineLabel("射精2")
ShowMessageFace("",0,0,2,19)
ShowMessage("\\n<Luka>Huaaa...That feels good...")
RunCommonEvent(104)
PictureDisplay(5,"ev_highslag_hc04",0,0,0,0,100,100,255,0)
RunCommonEvent(105)
ShowMessageFace("",0,0,2,20)
ShowMessage("Luka sighs in pleasure as he comes inside of her slimy hole.")
ShowMessage("His semen pours into her reproductive organ.")
ShowMessageFace("highslag_fc1",0,0,2,21)
ShowMessage("\\n<High Slug>Ufufu, you sure came a lot.\nDon't you just love mating with me...?")
RunCommonEvent(2000)
EndEventProcessing()
0()
