﻿// EVENT 2191
Name "Seduction: Futakuchi Girl"

355("$game_troop.lose_event_id = 3191")
ChangeVariable(26,26,0,3,3,1,4)
ChangeVariable(26,26,4,0,10)
ShowMessageFace("hutakuti_fc1",5,0,2,1)
ShowMessage("\\n<Futakuchi Girl>Ah, I'm getting hungry...\nI have to eat something to restore my energy!")
355("battler_graphic_hide")
PictureDisplay(5,"ev_hutakuti_ha1",0,0,0,0,100,100,255,0)
ShowMessageFace("",0,0,2,2)
ShowMessage("The Futakuchi Girl clings to Luka's waist!")
ShowMessageFace("hutakuti_fc1",5,0,2,3)
ShowMessage("\\n<Futakuchi Girl>I'm hungry...\nPlease let me drink your semen...")
PictureDisplay(5,"ev_hutakuti_ha2",0,0,0,0,100,100,255,0)
ShowMessageFace("",0,0,2,4)
ShowMessage("The Futakuchi Girl's hair twines around Luka's waist and genitals!")
ShowMessageFace("hutakuti_fc1",5,0,2,5)
ShowMessage("\\n<Futakuchi Girl>Please stay still...\nI'm going to suck the semen from your penis...")
ChangeSwitch(98,98,0)
ChangeSwitch(96,96,0)
ShowChoices(strings("Struggle","Let her continue"),1)
IfPlayerPicksChoice(0,"Struggle")
 ShowMessageFace("",0,0,2,6)
 ShowMessage("Luka struggles violently, and escapes from the Futakuchi Girl's restraint!")
 RunCommonEvent(1999)
 EndEventProcessing()
 0()
IfPlayerPicksChoice(1,"Let her continue")
 0()
404()
ShowMessageFace("hutakuti_fc1",5,0,2,7)
ShowMessage("\\n<Futakuchi Girl>Then, I'll feed off your penis...")
ChangeVariable(26,26,3,0,3)
250(bytes(0x04,0x08,0x6f,0x3a,0x0c,0x52,0x50,0x47,0x3a,0x3a,0x53,0x45,0x08,0x3a,0x0a,0x40,0x6e,0x61,0x6d,0x65,0x49,0x22,0x13,0x6d,0x6f,0x6e,0x5f,0x65,0x72,0x6f,0x5f,0x62,0x75,0x63,0x68,0x75,0x33,0x06,0x3a,0x06,0x45,0x54,0x3a,0x0b,0x40,0x70,0x69,0x74,0x63,0x68,0x69,0x69,0x3a,0x0c,0x40,0x76,0x6f,0x6c,0x75,0x6d,0x65,0x69,0x69))
PictureDisplay(5,"ev_hutakuti_ha3",0,0,0,0,100,100,255,0)
311(0,1,1,1,26,true)
ShowMessageFace("",0,0,2,8)
ShowMessage("The Futakuchi Girl holds Luka's penis in her mouth!\nShe immediately licks and sucks on his dick!\\D")
ShowMessage("Luka takes \\V[26] damage!")
ChangeVariable(27,27,0,3,3,1,2)
If(1,27,0,0,0)
 JumpToLabel("射精1")
 0()
EndIf()
ShowMessageFace("hutakuti_fc1",5,0,2,9)
ShowMessage("\\n<Futakuchi Girl>Mmmgh... *slurp*...\nIt's tasty...")
250(bytes(0x04,0x08,0x6f,0x3a,0x0c,0x52,0x50,0x47,0x3a,0x3a,0x53,0x45,0x08,0x3a,0x0a,0x40,0x6e,0x61,0x6d,0x65,0x49,0x22,0x13,0x6d,0x6f,0x6e,0x5f,0x65,0x72,0x6f,0x5f,0x62,0x75,0x63,0x68,0x75,0x33,0x06,0x3a,0x06,0x45,0x54,0x3a,0x0b,0x40,0x70,0x69,0x74,0x63,0x68,0x69,0x69,0x3a,0x0c,0x40,0x76,0x6f,0x6c,0x75,0x6d,0x65,0x69,0x69))
311(0,1,1,1,26,true)
ShowMessageFace("",0,0,2,10)
ShowMessage("The Futakuchi Girl runs her tongue all over Luka's penis, savoring it! Her oral sucking gives a sweet pleasure!\\D")
ShowMessage("Luka takes \\V[26] damage!")
ChangeVariable(27,27,0,3,3,1,2)
If(1,27,0,0,0)
 JumpToLabel("射精1")
 0()
EndIf()
ShowMessageFace("hutakuti_fc1",5,0,2,11)
ShowMessage("\\n<Futakuchi Girl>Hurry, please let it out soon...\n*suck* *slurp*")
250(bytes(0x04,0x08,0x6f,0x3a,0x0c,0x52,0x50,0x47,0x3a,0x3a,0x53,0x45,0x08,0x3a,0x0a,0x40,0x6e,0x61,0x6d,0x65,0x49,0x22,0x13,0x6d,0x6f,0x6e,0x5f,0x65,0x72,0x6f,0x5f,0x62,0x75,0x63,0x68,0x75,0x33,0x06,0x3a,0x06,0x45,0x54,0x3a,0x0b,0x40,0x70,0x69,0x74,0x63,0x68,0x69,0x69,0x3a,0x0c,0x40,0x76,0x6f,0x6c,0x75,0x6d,0x65,0x69,0x69))
311(0,1,1,1,26,true)
ShowMessageFace("",0,0,2,12)
ShowMessage("The Futakuchi Girl licks all over Luka's glans with her tongue!\nShe greedily sucks on it without pause!\\D")
ShowMessage("Luka takes \\V[26] damage!")
ChangeVariable(27,27,0,3,3,1,2)
If(1,27,0,0,0)
 JumpToLabel("射精1")
 0()
EndIf()
ShowMessageFace("hutakuti_fc1",5,0,2,13)
ShowMessage("\\n<Futakuchi Girl>Your penis is twitching...\nIt's coming out soon... *suuuck*")
250(bytes(0x04,0x08,0x6f,0x3a,0x0c,0x52,0x50,0x47,0x3a,0x3a,0x53,0x45,0x08,0x3a,0x0a,0x40,0x6e,0x61,0x6d,0x65,0x49,0x22,0x13,0x6d,0x6f,0x6e,0x5f,0x65,0x72,0x6f,0x5f,0x62,0x75,0x63,0x68,0x75,0x33,0x06,0x3a,0x06,0x45,0x54,0x3a,0x0b,0x40,0x70,0x69,0x74,0x63,0x68,0x69,0x69,0x3a,0x0c,0x40,0x76,0x6f,0x6c,0x75,0x6d,0x65,0x69,0x69))
311(0,1,1,1,26,true)
ShowMessageFace("",0,0,2,14)
ShowMessage("The Futakuchi Girl sucks on Luka's penis with all her might! Her intense vacuum forcibly sucks out his semen!\\D")
ShowMessage("Luka takes \\V[26] damage!")
ChangeVariable(27,27,0,3,3,1,2)
If(1,27,0,0,0)
 JumpToLabel("射精1")
 0()
EndIf()
DefineLabel("射精1")
ShowMessageFace("",0,0,2,15)
ShowMessage("\\n<Luka>No, I'm coming... Aaaah...")
RunCommonEvent(104)
PictureDisplay(5,"ev_hutakuti_ha4",0,0,0,0,100,100,255,0)
RunCommonEvent(105)
ShowMessageFace("",0,0,2,16)
ShowMessage("Unable to endure the sucking of the Futakuchi Girl's vacuum blowjob, I come. I finish shooting out a steady stream of semen into her mouth.")
ShowMessageFace("hutakuti_fc1",5,0,2,17)
ShowMessage("\\n<Futakuchi Girl>You let out so much tasty juice in my mouth...\n*suck* *suck*...")
RunCommonEvent(2000)
EndEventProcessing()
0()
