// EVENT 4166
Name "Sheep Girl"

If(0,25,1)
 221()
 PictureClear(5)
 PictureClear(6)
 ShowMessageFace("",0,0,2,0)
 ShowMessage("......")
 242(2)
 Wait(120)
 241(bytes(0x04,0x08,0x6f,0x3a,0x0d,0x52,0x50,0x47,0x3a,0x3a,0x42,0x47,0x4d,0x08,0x3a,0x0a,0x40,0x6e,0x61,0x6d,0x65,0x49,0x22,0x0c,0x63,0x61,0x73,0x74,0x6c,0x65,0x36,0x06,0x3a,0x06,0x45,0x54,0x3a,0x0c,0x40,0x76,0x6f,0x6c,0x75,0x6d,0x65,0x69,0x69,0x3a,0x0b,0x40,0x70,0x69,0x74,0x63,0x68,0x69,0x69))
 EndEventProcessing()
 0()
EndIf()
PictureDisplay(5,"80_hituzi_st02",0,0,0,0,100,100,255,0)
ShowMessageFace("hituzi_fc1",1,0,2,1)
ShowMessage("\\n<Mary>You want me to drink your semen...?\nEven if I'm drunk, that's a naughty thing to ask...")
ShowMessageFace("",0,0,2,2)
ShowMessage("\\n<Luka>P-please...")
ShowMessageFace("hituzi_fc1",1,0,2,3)
ShowMessage("\\n<Mary>It's alright...\nNnn... Your penis is nice and energetic. ♪")
241(bytes(0x04,0x08,0x6f,0x3a,0x0d,0x52,0x50,0x47,0x3a,0x3a,0x42,0x47,0x4d,0x08,0x3a,0x0a,0x40,0x6e,0x61,0x6d,0x65,0x49,0x22,0x09,0x65,0x72,0x6f,0x31,0x06,0x3a,0x06,0x45,0x54,0x3a,0x0c,0x40,0x76,0x6f,0x6c,0x75,0x6d,0x65,0x69,0x69,0x3a,0x0b,0x40,0x70,0x69,0x74,0x63,0x68,0x69,0x69))
PictureDisplay(5,"ev_hituzi_h01",0,0,0,0,100,100,0,0)
PictureMove(5,null,0,0,0,0,100,100,255,0,30,true)
ShowMessageFace("",0,0,2,4)
ShowMessage("Mary brings her face down between my legs and nuzzles her cheeks against my penis.")
ShowMessageFace("",0,0,2,5)
ShowMessage("\\n<Luka>Hold on, what do you think you're--")
PictureDisplay(5,"ev_hituzi_h02",0,0,0,0,100,100,255,0)
ShowMessageFace("hituzi_fc1",1,0,2,6)
ShowMessage("\\n<Mary>Aaaah. ♪ Your dick looks so delicious.\nIt smells really good too...")
ShowMessageFace("",0,0,2,7)
ShowMessage("Mary smiles and closes her eyes as her tongue slowly reaches out towards my penis.")
245(bytes(0x04,0x08,0x6f,0x3a,0x0d,0x52,0x50,0x47,0x3a,0x3a,0x42,0x47,0x53,0x08,0x3a,0x0a,0x40,0x6e,0x61,0x6d,0x65,0x49,0x22,0x10,0x6d,0x6f,0x6e,0x5f,0x68,0x76,0x6f,0x69,0x63,0x65,0x31,0x06,0x3a,0x06,0x45,0x54,0x3a,0x0c,0x40,0x76,0x6f,0x6c,0x75,0x6d,0x65,0x69,0x55,0x3a,0x0b,0x40,0x70,0x69,0x74,0x63,0x68,0x69,0x69))
PictureDisplay(5,"ev_hituzi_h03",0,0,0,0,100,100,255,0)
ShowMessageFace("hituzi_fc1",1,0,2,8)
ShowMessage("\\n<Mary>Mmmn, sspsst...")
ShowMessageFace("",0,0,2,9)
ShowMessage("\\n<Luka>Aaah, don't lick me...")
ShowMessageFace("",0,0,2,10)
ShowMessage("The rough feeling of her tongue on me...")
ShowMessage("I tremble a bit, as it's almost ticklish.")
ShowMessageFace("",0,0,2,11)
ShowMessage("After gently licking my penis, as if to taste me, Mary...")
PictureDisplay(5,"ev_hituzi_h04",0,0,0,0,100,100,255,0)
ShowMessageFace("hituzi_fc1",1,0,2,12)
ShowMessage("\\n<Mary>....Mmf.")
ShowMessageFace("",0,0,2,13)
ShowMessage("She opens her mouth wide, and swallows my penis!")
ShowMessage("My penis is welcomed into Mary's warm mouth...")
ShowMessageFace("",0,0,2,14)
ShowMessage("\\n<Luka>Ah... Ooooh...!")
ShowMessageFace("hituzi_fc1",1,0,2,15)
ShowMessage("\\n<Mary>Nnng... *Suck*")
ShowMessageFace("",0,0,2,16)
ShowMessage("Mary's mouth is warm enough to melt me away...")
ShowMessage("Her sticky saliva starts to fill her mouth up.")
ShowMessageFace("",0,0,2,17)
ShowMessage("The sweet, warm comfort causes me to sigh in bliss.")
ShowMessage("The incredible feeling of her mouth quickly brings me to the edge.")
ShowMessageFace("hituzi_fc1",1,0,2,18)
ShowMessage("\\n<Mary>Oh my, look at that pitiful face...♪\nDoes my mouth feel that amazing?")
ShowMessageFace("",0,0,2,19)
ShowMessage("\\n<Luka>Nnngh... It feels so good...")
PictureDisplay(5,"ev_hituzi_h05",0,0,0,0,100,100,255,0)
ShowMessageFace("hituzi_fc1",1,0,2,20)
ShowMessage("\\n<Mary>All right, I'll make you come quick then...\n*Suck* *Suck*♪")
ShowMessageFace("",0,0,2,21)
ShowMessage("\\n<Luka>Nnngh... Ah, aaah...")
ShowMessageFace("",0,0,2,22)
ShowMessage("Mary's tongue starts to move inside her mouth.")
ShowMessage("It creeps along my glans, pushing it all around.")
ShowMessageFace("hituzi_fc1",1,0,2,23)
ShowMessage("\\n<Mary>*Suck* So delicious...\n*Suck* *Suuuuck*")
ShowMessageFace("",0,0,2,24)
ShowMessage("\\n<Luka>Ah... That feels good... Ahhh...")
ShowMessageFace("",0,0,2,25)
ShowMessage("Her tongue runs slowly up and down my shaft.")
ShowMessage("Trailing it up and down, she's carefully tasting every inch of it.")
ShowMessageFace("",0,0,2,26)
ShowMessage("The tip of her tongue brushes against the back muscle.")
ShowMessage("Her warm, sticky saliva fills more and more of her mouth.")
ShowMessageFace("hituzi_fc1",1,0,2,27)
ShowMessage("\\n<Mary>Some delicious juice is coming out...\n*Lick* *Suck*")
ShowMessageFace("",0,0,2,28)
ShowMessage("The tip of her warm tongue darts to my urethral opening.")
ShowMessage("Her quick licking motions across my tip throw me into a new ecstasy.")
ShowMessageFace("",0,0,2,29)
ShowMessage("\\n<Luka>Ah, Ooooh...!")
ShowMessageFace("",0,0,2,30)
ShowMessage("My waist involuntarially bucks forward.")
ShowMessage("Her slightly rough tongue rubs along my sensitive tip.")
ShowMessageFace("hituzi_fc1",1,0,2,31)
ShowMessage("\\n<Mary>*Lick* Mmm... A lot's coming out of the tip...♪\n*Lick* *Lick*")
ShowMessageFace("hituzi_fc1",1,0,2,32)
ShowMessage("\\n<Mary>If you let out your semen, I'll lick it all up like this...♪")
ShowMessageFace("",0,0,2,33)
ShowMessage("\\n<Luka>Ah, aaah!")
ShowMessageFace("",0,0,2,34)
ShowMessage("I let out a moan as Mary's tongue licks me all around.")
ShowMessage("My lower body starts to get numb as the coming orgasm flows through me.")
ShowMessageFace("",0,0,2,35)
ShowMessage("Her unique blowjob never stops, despite me nearing climax.")
ShowMessage("There's no helping it, I can't withstand her tongue any longer...")
ShowMessageFace("",0,0,2,36)
ShowMessage("\\n<Luka>Can't hold back... I'm coming!")
ShowMessageFace("hituzi_fc1",1,0,2,37)
ShowMessage("\\n<Mary>Then go ahead and come~♪\n*Suck* *Suck*")
ShowMessageFace("",0,0,2,38)
ShowMessage("She sucks hard as her tongue darts all over the tip of my penis.")
ShowMessage("Succumbing to the pleasure, I bask in the sensations as I let go.")
RunCommonEvent(104)
PictureDisplay(5,"ev_hituzi_h06",0,0,0,0,100,100,255,0)
RunCommonEvent(105)
ShowMessageFace("hituzi_fc1",1,0,2,39)
ShowMessage("\\n<Mary>Nnn...Nnnnn!")
ShowMessageFace("",0,0,2,40)
ShowMessage("\\n<Luka>Ah, aaah...")
ShowMessageFace("",0,0,2,41)
ShowMessage("My semen shoots out into Mary's warm mouth.")
ShowMessage("As it pulses, her tongue runs all over my tip.")
ShowMessageFace("",0,0,2,42)
ShowMessage("I silently moan as her tongue laps up all of my semen as I come.")
ShowMessageFace("hituzi_fc1",1,0,2,43)
ShowMessage("\\n<Mary>*Lick* *Suuuck*")
ShowMessageFace("",0,0,2,44)
ShowMessage("\\n<Luka>Ngh... Aaah!")
ShowMessageFace("",0,0,2,45)
ShowMessage("Mary starts to suddenly suck me even harder.")
ShowMessage("Like a straw, she forcibly sucks it all out of me.")
ShowMessageFace("hituzi_fc1",1,0,2,46)
ShowMessage("\\n<Mary>*Suuuuck* *Gulp*")
ShowMessageFace("",0,0,2,47)
ShowMessage("\\n<Luka>Nnngh...")
ShowMessageFace("",0,0,2,48)
ShowMessage("Like a vacuum, she sucks and swallows everything.")
ShowMessage("She never stops, until every drop has been sucked out.")
ShowMessageFace("",0,0,2,49)
ShowMessage("Then...")
ShowMessageFace("hituzi_fc1",1,0,2,50)
ShowMessage("\\n<Mary>*Suck* *Suck*")
ShowMessageFace("",0,0,2,51)
ShowMessage("\\n<Luka>S...Stop... I finished coming already...")
ShowMessageFace("hituzi_fc1",1,0,2,52)
ShowMessage("\\n<Mary>*Suck* *Suuuuuuck*")
ShowMessageFace("",0,0,2,53)
ShowMessage("\\n<Luka>Hya... Aaah!")
ShowMessageFace("",0,0,2,54)
ShowMessage("Even though my ejaculation is over, Mary continues sucking hard.")
ShowMessage("The vacuum-like suction only increases my agonizing pleasure.")
ShowMessageFace("",0,0,2,55)
ShowMessage("\\n<Luka>S...Stop...Aaaah...!!")
ShowMessageFace("hituzi_fc1",1,0,2,56)
ShowMessage("\\n<Mary>*Lick* *Suuuuuck*")
ShowMessageFace("",0,0,2,57)
ShowMessage("This relentless suction, right after my climax...")
ShowMessage("It's going to lead me to another ejaculation, way before I'm ready.")
ShowMessageFace("",0,0,2,58)
ShowMessage("\\n<Luka>Aaaaah...!!")
ShowMessageFace("",0,0,2,59)
ShowMessage("It feels like she's forcing another ejaculation.")
ShowMessage("My penis starts to tremble in her sweet, warm mouth.")
ShowMessageFace("",0,0,2,60)
ShowMessage("\\n<Luka>Don't...I'm going to come again...!")
ShowMessageFace("hituzi_fc1",1,0,2,61)
ShowMessage("\\n<Mary>Come a lot... *Suck*\n*Suck* *Suuuuck*")
ShowMessageFace("",0,0,2,62)
ShowMessage("\\n<Luka>Ah... Hyaaaa!!")
ShowMessageFace("",0,0,2,63)
ShowMessage("She doesn't let up on her violent vacuum like stimulation at all.")
ShowMessage("My hips shake as my body gives itself over to her again.")
RunCommonEvent(104)
PictureDisplay(5,"ev_hituzi_h07",0,0,0,0,100,100,255,0)
RunCommonEvent(105)
ShowMessageFace("",0,0,2,64)
ShowMessage("\\n<Luka>Nnngh...")
PictureDisplay(5,"ev_hituzi_h08",0,0,0,0,100,100,255,0)
ShowMessageFace("hituzi_fc1",1,0,2,65)
ShowMessage("\\n<Mary>Nnn... *Suck*")
ShowMessageFace("",0,0,2,66)
ShowMessage("Mary's eyes narrow as she greedily swallows my semen.")
ShowMessage("Even as I come, her tongue licks and teases my penis.")
ShowMessageFace("",0,0,2,67)
ShowMessage("Until my ejaculation is over, and she had drank everything...")
ShowMessage("I could do nothing but bask in the feeling of being sucked dry.")
246(2)
ShowMessageFace("",0,0,2,68)
ShowMessage("\\n<Luka>Ah...uh...")
ShowMessageFace("",0,0,2,69)
ShowMessage("She's completely sucking my penis dry.")
ShowMessage("Totally exhausted, I couldn't stand if I wanted to.")
ShowMessageFace("hituzi_fc1",1,0,2,70)
ShowMessage("\\n<Mary>Thanks for the meal. ♪\nAfter drinking semen, alcohol is amazing~♪")
ShowMessageFace("",0,0,2,71)
ShowMessage("\\n<Luka>......")
ShowMessageFace("",0,0,2,72)
ShowMessage("Totally drained, I'm unable to move.")
ShowMessage("Exhausted, I struggle to move as Mary starts to drink next to me.")
221()
PictureClear(5)
246(2)
ShowMessageFace("",0,0,2,73)
ShowMessage("......")
242(2)
Wait(120)
241(bytes(0x04,0x08,0x6f,0x3a,0x0d,0x52,0x50,0x47,0x3a,0x3a,0x42,0x47,0x4d,0x08,0x3a,0x0a,0x40,0x6e,0x61,0x6d,0x65,0x49,0x22,0x0c,0x63,0x61,0x73,0x74,0x6c,0x65,0x36,0x06,0x3a,0x06,0x45,0x54,0x3a,0x0c,0x40,0x76,0x6f,0x6c,0x75,0x6d,0x65,0x69,0x69,0x3a,0x0b,0x40,0x70,0x69,0x74,0x63,0x68,0x69,0x69))
0()
