// EVENT 2164
Name "Seduction: Bonnie"

355("$game_troop.lose_event_id = 3164")
ChangeVariable(26,26,0,3,3,1,4)
ChangeVariable(26,26,4,0,10)
ShowMessageFace("bonny_fc1",0,0,2,1)
ShowMessage("\\n<Bonnie>")
ShowMessage("Wawawa... I'm in big trouble!")
ShowMessage("If it's like this, then... Oomf!")
355("battler_graphic_hide")
PictureDisplay(5,"ev_bonny_ha1",0,0,0,0,100,100,255,0)
ShowMessageFace("",0,0,2,2)
ShowMessage("Bonnie pushes Luka down!")
ShowMessage("She places her oversized breasts on his crotch!")
ShowMessageFace("bonny_fc1",1,0,2,3)
ShowMessage("\\n<Bonnie>")
ShowMessage("Now don't resist!")
ShowMessage("If you give up, I'll make you come with my breasts!")
ChangeSwitch(98,98,0)
ChangeSwitch(96,96,0)
ShowChoices(strings("Struggle","Let her continue"),1)
IfPlayerPicksChoice(0,"もがく")
 ShowMessageFace("",0,0,2,4)
 ShowMessage("Luka struggles, and breaks away from Bonnie!")
 RunCommonEvent(1999)
 EndEventProcessing()
 0()
IfPlayerPicksChoice(1,"なすがまま")
 0()
404()
ShowMessageFace("bonny_fc1",1,0,2,5)
ShowMessage("\\n<Bonnie>")
ShowMessage("You gave in!")
ShowMessage("I'll make you come with my breasts then!")
ChangeVariable(26,26,3,0,3)
250(bytes(0x04,0x08,0x6f,0x3a,0x0c,0x52,0x50,0x47,0x3a,0x3a,0x53,0x45,0x08,0x3a,0x0a,0x40,0x6e,0x61,0x6d,0x65,0x49,0x22,0x12,0x6d,0x6f,0x6e,0x5f,0x65,0x72,0x6f,0x5f,0x6b,0x6f,0x6b,0x69,0x31,0x06,0x3a,0x06,0x45,0x54,0x3a,0x0b,0x40,0x70,0x69,0x74,0x63,0x68,0x69,0x69,0x3a,0x0c,0x40,0x76,0x6f,0x6c,0x75,0x6d,0x65,0x69,0x69))
311(0,1,1,1,26,true)
ShowMessageFace("",0,0,2,6)
ShowMessage("Bonnie sandwiches Luka's penis between her breasts!")
ShowMessage("His penis is enveloped in her soft chest!\\D")
ShowMessage("Luka takes \\V[26] damage!")
ChangeVariable(27,27,0,3,3,1,2)
If(1,27,0,0,0)
 JumpToLabel("射精1")
 0()
EndIf()
ShowMessageFace("bonny_fc1",1,0,2,7)
ShowMessage("\\n<Bonnie>")
ShowMessage("How do my tits feel?")
ShowMessage("They should be nice and soft!")
250(bytes(0x04,0x08,0x6f,0x3a,0x0c,0x52,0x50,0x47,0x3a,0x3a,0x53,0x45,0x08,0x3a,0x0a,0x40,0x6e,0x61,0x6d,0x65,0x49,0x22,0x12,0x6d,0x6f,0x6e,0x5f,0x65,0x72,0x6f,0x5f,0x6b,0x6f,0x6b,0x69,0x31,0x06,0x3a,0x06,0x45,0x54,0x3a,0x0b,0x40,0x70,0x69,0x74,0x63,0x68,0x69,0x69,0x3a,0x0c,0x40,0x76,0x6f,0x6c,0x75,0x6d,0x65,0x69,0x69))
311(0,1,1,1,26,true)
ShowMessageFace("",0,0,2,8)
ShowMessage("Bonnie shakes her breasts side to side!")
ShowMessage("Pinched between them, Luka's penis is squeezed!\\D")
ShowMessage("Luka takes \\V[26] damage!")
ChangeVariable(27,27,0,3,3,1,2)
If(1,27,0,0,0)
 JumpToLabel("射精1")
 0()
EndIf()
ShowMessageFace("bonny_fc1",1,0,2,9)
ShowMessage("\\n<Bonnie>")
ShowMessage("Fufufu, writhe in pleasure!")
ShowMessage("My boobs are my trademark!")
250(bytes(0x04,0x08,0x6f,0x3a,0x0c,0x52,0x50,0x47,0x3a,0x3a,0x53,0x45,0x08,0x3a,0x0a,0x40,0x6e,0x61,0x6d,0x65,0x49,0x22,0x12,0x6d,0x6f,0x6e,0x5f,0x65,0x72,0x6f,0x5f,0x6b,0x6f,0x6b,0x69,0x31,0x06,0x3a,0x06,0x45,0x54,0x3a,0x0b,0x40,0x70,0x69,0x74,0x63,0x68,0x69,0x69,0x3a,0x0c,0x40,0x76,0x6f,0x6c,0x75,0x6d,0x65,0x69,0x69))
311(0,1,1,1,26,true)
ShowMessageFace("",0,0,2,10)
ShowMessage("Bonnie moves her breasts up and down, rubbing Luka's penis!")
ShowMessage("Sandwiched between them, the intense stimulation assaults him!\\D")
ShowMessage("Luka takes \\V[26] damage!")
ChangeVariable(27,27,0,3,3,1,2)
If(1,27,0,0,0)
 JumpToLabel("射精1")
 0()
EndIf()
ShowMessageFace("bonny_fc1",1,0,2,11)
ShowMessage("\\n<Bonnie>")
ShowMessage("This is the end!")
ShowMessage("Now cover my boobs in your semen!")
250(bytes(0x04,0x08,0x6f,0x3a,0x0c,0x52,0x50,0x47,0x3a,0x3a,0x53,0x45,0x08,0x3a,0x0a,0x40,0x6e,0x61,0x6d,0x65,0x49,0x22,0x12,0x6d,0x6f,0x6e,0x5f,0x65,0x72,0x6f,0x5f,0x6b,0x6f,0x6b,0x69,0x31,0x06,0x3a,0x06,0x45,0x54,0x3a,0x0b,0x40,0x70,0x69,0x74,0x63,0x68,0x69,0x69,0x3a,0x0c,0x40,0x76,0x6f,0x6c,0x75,0x6d,0x65,0x69,0x69))
311(0,1,1,1,26,true)
ShowMessageFace("",0,0,2,12)
ShowMessage("Bonnie intensely shakes her breasts around!")
ShowMessage("Stuck between them, her breasts overwhelm Luka's senses!\\D")
ShowMessage("Luka takes \\V[26] damage!")
ChangeVariable(27,27,0,3,3,1,2)
If(1,27,0,0,0)
 JumpToLabel("射精1")
 0()
EndIf()
DefineLabel("射精1")
ShowMessageFace("",0,0,2,13)
ShowMessage("\\n<Luka>No, I'm coming... Ahhh...")
RunCommonEvent(104)
PictureDisplay(5,"ev_bonny_ha2",0,0,0,0,100,100,255,0)
RunCommonEvent(105)
ShowMessageFace("",0,0,2,14)
ShowMessage("Drowning in Bonnie's breasts, I come.")
ShowMessage("Spurting between them, my white semen flows everywhere...")
ShowMessageFace("bonny_fc1",1,0,2,15)
ShowMessage("\\n<Bonnie>")
ShowMessage("Fufu... The Pirate's breasts stole your semen.")
ShowMessage("How does it feel to be robbed of your seed?")
RunCommonEvent(2000)
EndEventProcessing()
0()
