// EVENT 4094
Name "Rami 4"

If(0,25,1)
 221()
 PictureClear(5)
 PictureClear(6)
 ShowMessageFace("",0,0,2,0)
 ShowMessage("......")
 242(2)
 Wait(120)
 241(bytes(0x04,0x08,0x6f,0x3a,0x0d,0x52,0x50,0x47,0x3a,0x3a,0x42,0x47,0x4d,0x08,0x3a,0x0a,0x40,0x6e,0x61,0x6d,0x65,0x49,0x22,0x0c,0x63,0x61,0x73,0x74,0x6c,0x65,0x36,0x06,0x3a,0x06,0x45,0x54,0x3a,0x0c,0x40,0x76,0x6f,0x6c,0x75,0x6d,0x65,0x69,0x69,0x3a,0x0b,0x40,0x70,0x69,0x74,0x63,0x68,0x69,0x69))
 EndEventProcessing()
 0()
EndIf()
PictureDisplay(5,"80_inp_st01",0,0,0,0,100,100,255,0)
ShowMessageFace("inp_fc1",0,0,2,1)
ShowMessage("\\n<Rami>Eh, you want to do perverted things with me?")
ShowMessageFace("",0,0,2,2)
ShowMessage("\\n<Luka>P-please...")
ShowMessageFace("",0,0,2,3)
ShowMessage("Rami looks at me timidly nodding, and laughs.")
ShowMessage("A smile of superiority crosses her face as she looks at me.")
PictureDisplay(5,"80_inp_st02",0,0,0,0,100,100,255,0)
ShowMessageFace("inp_fc1",1,0,2,4)
ShowMessage("\\n<Rami>...Ok, you're a friend after all.\nShall we go to my room? ♪")
ShowMessageFace("",0,0,2,5)
ShowMessage("I follow Rami to her room...")
221()
PictureClear(5)
PictureDisplay(1,"bg195",0,0,0,0,100,100,255,0)
PictureDisplay(5,"80_inp_st02",0,0,0,0,100,100,255,0)
222()
241(bytes(0x04,0x08,0x6f,0x3a,0x0d,0x52,0x50,0x47,0x3a,0x3a,0x42,0x47,0x4d,0x08,0x3a,0x0a,0x40,0x6e,0x61,0x6d,0x65,0x49,0x22,0x09,0x65,0x72,0x6f,0x31,0x06,0x3a,0x06,0x45,0x54,0x3a,0x0c,0x40,0x76,0x6f,0x6c,0x75,0x6d,0x65,0x69,0x69,0x3a,0x0b,0x40,0x70,0x69,0x74,0x63,0x68,0x69,0x69))
ShowMessageFace("inp_fc1",0,0,2,6)
ShowMessage("\\n<Rami>I'll be on top, then.\nYou love being violated anyway, don't you?")
ShowMessageFace("inp_fc1",1,0,2,7)
ShowMessage("\\n<Rami>Also... I won't go easy on you, so you'll come in no time.\nIt might be super embarrassing for you, are you sure you want to do it?")
ShowMessageFace("",0,0,2,8)
ShowMessage("\\n<Luka>......")
ShowMessageFace("",0,0,2,9)
ShowMessage("Instead of answering, I just lay down.")
ShowMessageFace("inp_fc1",0,0,2,10)
ShowMessage("\\n<Rami>Ahaha, you want to be violated that badly?\nYour penis got so big, it must want to be inside me. ♪")
ShowMessageFace("",0,0,2,11)
ShowMessage("Rami gets on top of me as she giggles.")
ShowMessage("She grabs hold of my penis, and guides me to her entrance.")
ShowMessageFace("",0,0,2,12)
ShowMessage("\\n<Luka>Ah, aaah...")
ShowMessageFace("inp_fc1",0,0,2,13)
ShowMessage("\\n<Rami>Ok, I'll put it in♪")
245(bytes(0x04,0x08,0x6f,0x3a,0x0d,0x52,0x50,0x47,0x3a,0x3a,0x42,0x47,0x53,0x08,0x3a,0x0a,0x40,0x6e,0x61,0x6d,0x65,0x49,0x22,0x17,0x6d,0x6f,0x6e,0x5f,0x68,0x73,0x65,0x61,0x6e,0x31,0x38,0x5f,0x73,0x6c,0x69,0x6d,0x65,0x31,0x06,0x3a,0x06,0x45,0x54,0x3a,0x0c,0x40,0x76,0x6f,0x6c,0x75,0x6d,0x65,0x69,0x55,0x3a,0x0b,0x40,0x70,0x69,0x74,0x63,0x68,0x69,0x69))
PictureDisplay(5,"ev_inp_hc2",0,0,0,0,100,100,0,0)
PictureMove(5,null,0,0,0,0,100,100,255,0,30,true)
ShowMessageFace("",0,0,2,14)
ShowMessage("Rami drops her waist, enveloping my penis in her warmth.")
ShowMessage("Her tight vagina presses down on me from every side.")
ShowMessageFace("",0,0,2,15)
ShowMessage("\\n<Luka>Aaaah...!")
ShowMessageFace("",0,0,2,16)
ShowMessage("I'm being raped by a tiny Imp right now.")
ShowMessage("My excitement only increases, as I desired this immoral act.")
ShowMessageFace("inp_fc1",1,0,2,17)
ShowMessage("\\n<Rami>All right, I'll make you come fast.\nIf I tighten inside, you'll finish at once. ♪")
ShowMessageFace("",0,0,2,18)
ShowMessage("\\n<Luka>Ah, unnngh...!")
ShowMessageFace("",0,0,2,19)
ShowMessage("Her vagina slowly starts to tighten.")
ShowMessage("Rami squeezes and tenses, trying to force me to an instant climax.")
ShowMessageFace("inp_fc1",1,0,2,20)
ShowMessage("\\n<Rami>...Hya! Hya!")
ShowMessageFace("",0,0,2,21)
ShowMessage("\\n<Luka>Aaaaaah! Aaaah...!!")
ShowMessageFace("",0,0,2,22)
ShowMessage("Every time Rami tenses, an incredible tightness assaults me.")
ShowMessage("The sweet massage overwhelms my senses.")
ShowMessageFace("",0,0,2,23)
ShowMessage("The intense tightness brings me to the edge in no time.")
ShowMessage("Just as Rami said, it seems like I'll come in no time...")
ShowMessageFace("",0,0,2,24)
ShowMessage("\\n<Luka>Urhg...!")
ShowMessageFace("inp_fc1",1,0,2,25)
ShowMessage("\\n<Rami>Oh? Are you trying to endure it?\nThere's no point~♪")
ShowMessageFace("inp_fc1",1,0,2,26)
ShowMessage("\\n<Rami>If I tighten like this...\nUnf, unf♪")
ShowMessageFace("",0,0,2,27)
ShowMessage("\\n<Luka>Ha...Aaaah...!")
ShowMessageFace("",0,0,2,28)
ShowMessage("My pride is on the line against Rami here.")
ShowMessage("The sweet tightness tries to blow past all of my endurance.")
ShowMessageFace("",0,0,2,29)
ShowMessage("But I'm teetering on the edge, about to fall over any moment.")
ShowMessage("I tense up my waist, trying to hold on.")
ShowMessageFace("inp_fc1",1,0,2,30)
ShowMessage("\\n<Rami>Ok, time to finish you~♪\nHyaa♪")
ShowMessageFace("",0,0,2,31)
ShowMessage("An incredible tightness surrounds me.")
ShowMessage("Her warm pussy squeezes the last sense from my mind.")
ShowMessageFace("",0,0,2,32)
ShowMessage("My head goes white in pure pleasure.")
ShowMessage("I submit myself to the ecstasy, and release everything.")
246(2)
RunCommonEvent(104)
PictureDisplay(5,"ev_inp_hc3",0,0,0,0,100,100,255,0)
RunCommonEvent(105)
ShowMessageFace("",0,0,2,33)
ShowMessage("\\n<Luka>Hnnaaa...")
ShowMessageFace("",0,0,2,34)
ShowMessage("I explode inside Rami.")
ShowMessage("My penis pulses as it spurts out shot after shot into her small pussy.")
ShowMessageFace("inp_fc1",1,0,2,35)
ShowMessage("\\n<Rami>Ahaha, you came~♪\nIt only took a moment, like I thought. ♪")
ShowMessageFace("",0,0,2,36)
ShowMessage("Rami giggles as I come in her.")
ShowMessage("She laughs at me as I come, until the final drop is out.")
ShowMessageFace("",0,0,2,37)
ShowMessage("She made me come so easily...")
ShowMessage("The mix of ecstasy and humiliation swirl together in my head.")
ShowMessageFace("inp_fc1",0,0,2,38)
ShowMessage("\\n<Rami>Ehehe, did it feel good?\nIf you want to go again, just ask anytime. ♪")
ShowMessageFace("inp_fc1",0,0,2,39)
ShowMessage("\\n<Rami>It only takes me a moment to make you come, after all.\n...Ahaha♪")
ShowMessageFace("",0,0,2,40)
ShowMessage("\\n<Luka>......")
ShowMessageFace("",0,0,2,41)
ShowMessage("I tremble underneath her body.")
ShowMessage("After regaining some energy, I manage to leave her room.")
221()
PictureClear(5)
PictureClear(6)
ShowMessageFace("",0,0,2,42)
ShowMessage("......")
242(2)
Wait(120)
241(bytes(0x04,0x08,0x6f,0x3a,0x0d,0x52,0x50,0x47,0x3a,0x3a,0x42,0x47,0x4d,0x08,0x3a,0x0a,0x40,0x6e,0x61,0x6d,0x65,0x49,0x22,0x0c,0x63,0x61,0x73,0x74,0x6c,0x65,0x36,0x06,0x3a,0x06,0x45,0x54,0x3a,0x0c,0x40,0x76,0x6f,0x6c,0x75,0x6d,0x65,0x69,0x69,0x3a,0x0b,0x40,0x70,0x69,0x74,0x63,0x68,0x69,0x69))
0()
