// EVENT 4797
Name "Mermaid Pirate2"

PictureDisplay(5,"80_k_mermaid_st02",0,0,0,0,100,100,0,0)
PictureMove(5,null,0,0,0,0,100,100,255,0,30,true)
ShowMessageFace("k_mermaid_fc1",1,0,2,1)
ShowMessage("\\n<Lolitta>")
ShowMessage("Ya wanna do dirty things with me?")
ShowMessageFace("",0,0,2,2)
ShowMessage("\\n<Luka>")
ShowMessage("Y-yes...please...")
ShowMessageFace("k_mermaid_fc1",1,0,2,3)
ShowMessage("\\n<Lolitta>")
ShowMessage("Aight then... come to me room.")
ShowMessageFace("",0,0,2,4)
ShowMessage("Thus, I follow her to a private room...")
221()
PictureDisplay(1,"bg195",0,0,0,0,100,100,255,0)
PictureDisplay(5,"ev_k_mermaid_hb1",0,0,0,0,100,100,255,0)
222()
241(bytes(0x04,0x08,0x6f,0x3a,0x0d,0x52,0x50,0x47,0x3a,0x3a,0x42,0x47,0x4d,0x08,0x3a,0x0a,0x40,0x6e,0x61,0x6d,0x65,0x49,0x22,0x09,0x65,0x72,0x6f,0x31,0x06,0x3a,0x06,0x45,0x54,0x3a,0x0c,0x40,0x76,0x6f,0x6c,0x75,0x6d,0x65,0x69,0x69,0x3a,0x0b,0x40,0x70,0x69,0x74,0x63,0x68,0x69,0x69))
ShowMessageFace("k_mermaid_fc1",1,0,2,5)
ShowMessage("\\n<Lolitta>")
ShowMessage("Let's do this!")
ShowMessageFace("",0,0,2,6)
ShowMessage("\\n<Luka>")
ShowMessage("Waah!")
ShowMessageFace("",0,0,2,7)
ShowMessage("As soon as I enter the room, Lolitta forces herself on me.")
ShowMessage("Her lower body comes in close contact with mine.")
ShowMessageFace("",0,0,2,8)
ShowMessage("Her lower body has a pink opening on it.")
ShowMessage("She brings it closer to my penis...")
ShowMessageFace("k_mermaid_fc1",1,0,2,9)
ShowMessage("\\n<Lolitta>")
ShowMessage("I'm gonna rape ya with me pussy.")
ShowMessage("A mermaid's cunt feels darn good.")
ShowMessageFace("",0,0,2,10)
ShowMessage("\\n<Luka>")
ShowMessage("Ah...Aaaaah...")
ShowMessageFace("k_mermaid_fc1",1,0,2,11)
ShowMessage("\\n<Lolitta>")
ShowMessage("Hora hora, I'll slide it in~♪")
ShowMessage("I'll squeeze ya in me pussy~♪")
ShowMessageFace("",0,0,2,12)
ShowMessage("I can only watch as Lolitta is about to rape me.")
ShowMessage("She puts the tip of my glans next to her vaginal opening and pushes her hips down on me...")
245(bytes(0x04,0x08,0x6f,0x3a,0x0d,0x52,0x50,0x47,0x3a,0x3a,0x42,0x47,0x53,0x08,0x3a,0x0a,0x40,0x6e,0x61,0x6d,0x65,0x49,0x22,0x1e,0x6d,0x6f,0x6e,0x5f,0x68,0x73,0x65,0x61,0x6e,0x30,0x32,0x5f,0x69,0x6e,0x6e,0x65,0x72,0x77,0x6f,0x72,0x6b,0x73,0x5f,0x61,0x32,0x06,0x3a,0x06,0x45,0x54,0x3a,0x0c,0x40,0x76,0x6f,0x6c,0x75,0x6d,0x65,0x69,0x55,0x3a,0x0b,0x40,0x70,0x69,0x74,0x63,0x68,0x69,0x69))
ShowMessageFace("",0,0,2,13)
ShowMessage("And my penis slides inside her vagina.")
ShowMessage("I unexpectedly moan at the slimy feeling of her vaginal walls.")
ShowMessageFace("",0,0,2,14)
ShowMessage("\\n<Luka>")
ShowMessage("Ah...Auuu!")
ShowMessageFace("k_mermaid_fc1",1,0,2,15)
ShowMessage("\\n<Lolitta>")
ShowMessage("Me pussy's really soft, ain't it?")
ShowMessage("Yer gonna feel so good~♪")
ShowMessageFace("",0,0,2,16)
ShowMessage("\\n<Luka>")
ShowMessage("Auuu...Amazing, it feels so good...")
ShowMessageFace("",0,0,2,17)
ShowMessage("Her fish half is covered in slimy scales all the way to her tail.")
ShowMessage("Her vagina is no exception either.")
ShowMessageFace("",0,0,2,18)
ShowMessage("The inside feels like it's tightly wrapping me in a slimy membrane...")
ShowMessage("Any man would lose their mind after tasting this feeling.")
ShowMessageFace("k_mermaid_fc1",1,0,2,19)
ShowMessage("\\n<Lolitta>")
ShowMessage("Haha, it looks like yer feelin' good~♪")
ShowMessage("Ain't me pussy just amazin'?")
ShowMessageFace("",0,0,2,20)
ShowMessage("\\n<Luka>")
ShowMessage("Th-that feels so good...Aaaah....")
ShowMessageFace("",0,0,2,21)
ShowMessage("Dipped inside her slimy honey pot, my waist starts trembling...")
ShowMessage("The folds inside her vagina start to rub against my penis.")
ShowMessageFace("",0,0,2,22)
ShowMessage("The soft folds wiggle and rub against the surface of my glans.")
ShowMessage("It feels like my glans is being licked by myriad tongues from all directions.")
ShowMessageFace("",0,0,2,23)
ShowMessage("\\n<Luka>")
ShowMessage("Ah...Auuuu!!")
ShowMessageFace("",0,0,2,24)
ShowMessage("An agonizing pleasure courses through me as the folds keep licking my glans.")
ShowMessage("I can't endure this...")
ShowMessageFace("",0,0,2,25)
ShowMessage("\\n<Luka>")
ShowMessage("Auuu...I'm going to come...")
ShowMessageFace("k_mermaid_fc1",1,0,2,26)
ShowMessage("\\n<Lolitta>")
ShowMessage("Haha, I jus' put ya in.")
ShowMessage("Ya gonna cum already?")
ShowMessageFace("",0,0,2,27)
ShowMessage("\\n<Luka>")
ShowMessage("St-stop...Aaaaah!!")
ShowMessageFace("",0,0,2,28)
ShowMessage("While tasting the slimy feeling, I entrust myself to her folds...")
ShowMessage("The feeling of release springs from my waist and I fully accept it...")
RunCommonEvent(104)
PictureDisplay(5,"ev_k_mermaid_hb2",0,0,0,0,100,100,255,0)
RunCommonEvent(105)
ShowMessageFace("",0,0,2,29)
ShowMessage("\\n<Luka>")
ShowMessage("Fuaaa...")
ShowMessageFace("",0,0,2,30)
ShowMessage("I come inside Lolitta's honey pot.")
ShowMessage("My semen shoots out inside her as I taste the melting feeling of ecstasy.")
ShowMessageFace("",0,0,2,31)
ShowMessage("Once I was inserted in her masterpiece vagina, my fate was sealed.")
ShowMessage("I release my semen inside her as I taste the ecstasy...")
ShowMessageFace("k_mermaid_fc1",1,0,2,32)
ShowMessage("\\n<Lolitta>")
ShowMessage("I didn't do nothing, I jus' put it in!")
ShowMessage("Pathetic~♪")
ShowMessageFace("",0,0,2,33)
ShowMessage("Lolitta looks at me and smiles...")
ShowMessageFace("k_mermaid_fc1",1,0,2,34)
ShowMessage("\\n<Lolitta>")
ShowMessage("How's 'bout this...")
ShowMessage("What's gonna happen if I start movin'?")
ShowMessageFace("",0,0,2,35)
ShowMessage("\\n<Luka>")
ShowMessage("Th-that's...")
ShowMessageFace("",0,0,2,36)
ShowMessage("As she said, Lolitta begins shaking her hips slowly.")
ShowMessage("In tandem with her hip movement, her insides start undulating as well.")
ShowMessageFace("",0,0,2,37)
ShowMessage("My penis rubs against her slimy vaginal walls.")
ShowMessage("They rub and entangle me inside them.")
ShowMessageFace("",0,0,2,38)
ShowMessage("\\n<Luka>")
ShowMessage("Ah...! Aaaaaah...!!")
ShowMessageFace("",0,0,2,39)
ShowMessage("I moan out in pleasure from that intense stimulation.")
ShowMessage("My penis receives superb pleasure inside her vagina...")
ShowMessageFace("",0,0,2,40)
ShowMessage("\\n<Luka>")
ShowMessage("Th-that feels good...Hyaa, Aaaah!!")
ShowMessageFace("k_mermaid_fc1",1,0,2,41)
ShowMessage("\\n<Lolitta>")
ShowMessage("Haha, what shameful moanin'.")
ShowMessage("Yer gonna cum a second time, aren't ya?")
ShowMessageFace("",0,0,2,42)
ShowMessage("\\n<Luka>")
ShowMessage("Auu...Ah, Aaaaah!!")
ShowMessageFace("",0,0,2,43)
ShowMessage("Her soft meat undulates and shrinks around me.")
ShowMessage("Her slippery walls press against my penis.")
ShowMessageFace("",0,0,2,44)
ShowMessage("The pleasure I feel from her squeezing me between her walls is absolutely insane.")
ShowMessage("I can't endure this pleasure for long...")
ShowMessageFace("",0,0,2,45)
ShowMessage("\\n<Luka>")
ShowMessage("C-coming...!")
ShowMessage("Ah, Aaaaah!!")
RunCommonEvent(104)
PictureDisplay(5,"ev_k_mermaid_hb3",0,0,0,0,100,100,255,0)
RunCommonEvent(105)
ShowMessageFace("",0,0,2,46)
ShowMessage("In the next moment my semen shoots out.")
ShowMessage("I can't endure the wiggling of her meat and her vagina greedily devours my semen.")
ShowMessageFace("",0,0,2,47)
ShowMessage("\\n<Luka>")
ShowMessage("Aaaah...I came...")
ShowMessageFace("k_mermaid_fc1",1,0,2,48)
ShowMessage("\\n<Lolitta>")
ShowMessage("Haha, yer fast!")
ShowMessage("Ye got a fast pecker, I'll bully it more!")
ShowMessageFace("",0,0,2,49)
ShowMessage("\\n<Luka>")
ShowMessage("Stop already...Hyaaaaaa!!")
ShowMessageFace("",0,0,2,50)
ShowMessage("Lolitta puts force in her waist and moves her fish half.")
ShowMessage("In response to her movement, the muscles inside her vagina contract in sync.")
ShowMessageFace("",0,0,2,51)
ShowMessage("The undulating walls surround my penis...")
ShowMessage("Moreover, her folds violently lick my glans...")
ShowMessageFace("",0,0,2,52)
ShowMessage("\\n<Luka>")
ShowMessage("Auuu..Ah, Aaaaah!!")
ShowMessageFace("",0,0,2,53)
ShowMessage("Inside her, my penis is tightly rubbed...")
ShowMessage("I completely entrust myself to the melting pleasure...")
RunCommonEvent(104)
PictureDisplay(5,"ev_k_mermaid_hb4",0,0,0,0,100,100,255,0)
RunCommonEvent(105)
246(2)
ShowMessageFace("",0,0,2,54)
ShowMessage("\\n<Luka>")
ShowMessage("Auuuuu...")
ShowMessageFace("",0,0,2,55)
ShowMessage("For a third time I devote my semen to Lolitta's vagina.")
ShowMessage("While tasting the melting pleasure, I feel completely weak...")
ShowMessageFace("k_mermaid_fc1",1,0,2,56)
ShowMessage("\\n<Lolitta>")
ShowMessage("I jus' moved a bit and ye already came.")
ShowMessage("I should train yer lil' fella.")
ShowMessageFace("",0,0,2,57)
ShowMessage("\\n<Luka>")
ShowMessage("Auuu...")
ShowMessageFace("",0,0,2,58)
ShowMessage("I came while under Lolitta's body...")
ShowMessage("A miserable sense of defeat comes over me.")
ShowMessageFace("k_mermaid_fc1",1,0,2,59)
ShowMessage("\\n<Lolitta>")
ShowMessage("It's settled then, I'll train yer cock.")
ShowMessage("From now on, every night yer gonna com to me room... got it?")
ShowMessageFace("",0,0,2,60)
ShowMessage("\\n<Luka>")
ShowMessage("........")
ShowMessageFace("",0,0,2,61)
ShowMessage("Overwhelmed by the feeling of defeat, I couldn't even reply.")
ShowMessage("This humiliation may continue every night from this day forth...")
221()
PictureClear(5)
PictureClear(6)
ShowMessageFace("",0,0,2,62)
ShowMessage("・・・・・・")
RunCommonEvent(3998)
0()
