// EVENT 7232
Name "Julia: Match"

ChangeSwitch(96,96,0)
ChangeSwitch(98,98,0)
ShowMessageFace("mob_sensi1_fc1",0,0,2,1)
ShowMessage("\\n<Julia>All right then, here I go.")
ShowMessage("First of all, taste my chest!")
250(bytes(0x04,0x08,0x6f,0x3a,0x0c,0x52,0x50,0x47,0x3a,0x3a,0x53,0x45,0x08,0x3a,0x0a,0x40,0x6e,0x61,0x6d,0x65,0x49,0x22,0x12,0x6d,0x6f,0x6e,0x5f,0x65,0x72,0x6f,0x5f,0x6b,0x6f,0x6b,0x69,0x31,0x06,0x3a,0x06,0x45,0x54,0x3a,0x0b,0x40,0x70,0x69,0x74,0x63,0x68,0x69,0x69,0x3a,0x0c,0x40,0x76,0x6f,0x6c,0x75,0x6d,0x65,0x69,0x69))
PictureDisplay(5,"80_mob_sensi1_st01",0,0,-190,0,100,100,255,0)
PictureDisplay(6,"ev_mob_sensi1_ct11",0,0,240,50,100,100,255,0)
ChangeVariable(11,11,0,2,125,135)
311(0,1,1,1,11,true)
ShowMessageFace("",0,0,2,2)
ShowMessage("Julia sandwiches Luka's penis between her breasts!")
ShowMessage("His penis is caught in her soft valley!\\D")
ShowMessage("Luka takes \\V[11] damage!")
ChangeVariable(27,27,0,3,3,1,2)
If(1,27,0,0,0)
 RunCommonEvent(7235)
 EndEventProcessing()
 0()
EndIf()
ShowMessageFace("mob_sensi1_fc1",0,0,2,3)
ShowMessage("\\n<Julia>Now I can rub your cock against my chest armor.")
ShowMessage("It feels better than it seems...")
250(bytes(0x04,0x08,0x6f,0x3a,0x0c,0x52,0x50,0x47,0x3a,0x3a,0x53,0x45,0x08,0x3a,0x0a,0x40,0x6e,0x61,0x6d,0x65,0x49,0x22,0x12,0x6d,0x6f,0x6e,0x5f,0x65,0x72,0x6f,0x5f,0x6b,0x6f,0x6b,0x69,0x31,0x06,0x3a,0x06,0x45,0x54,0x3a,0x0b,0x40,0x70,0x69,0x74,0x63,0x68,0x69,0x69,0x3a,0x0c,0x40,0x76,0x6f,0x6c,0x75,0x6d,0x65,0x69,0x69))
ChangeVariable(11,11,0,2,125,135)
311(0,1,1,1,11,true)
ShowMessageFace("",0,0,2,4)
ShowMessage("Julia's armor rubs against Luka's penis!")
ShowMessage("The distinctive stimulus attacks Luka!\\D")
ShowMessage("Luka takes \\V[11] damage!")
ChangeVariable(27,27,0,3,3,1,2)
If(1,27,0,0,0)
 RunCommonEvent(7235)
 EndEventProcessing()
 0()
EndIf()
250(bytes(0x04,0x08,0x6f,0x3a,0x0c,0x52,0x50,0x47,0x3a,0x3a,0x53,0x45,0x08,0x3a,0x0a,0x40,0x6e,0x61,0x6d,0x65,0x49,0x22,0x12,0x6d,0x6f,0x6e,0x5f,0x65,0x72,0x6f,0x5f,0x6b,0x6f,0x6b,0x69,0x31,0x06,0x3a,0x06,0x45,0x54,0x3a,0x0b,0x40,0x70,0x69,0x74,0x63,0x68,0x69,0x69,0x3a,0x0c,0x40,0x76,0x6f,0x6c,0x75,0x6d,0x65,0x69,0x69))
ChangeVariable(11,11,0,2,125,135)
311(0,1,1,1,11,true)
ShowMessageFace("",0,0,2,5)
ShowMessage("Julia squeezes Luka's penis between her breasts!")
ShowMessage("His glans rubs against her armor!\\D")
ShowMessage("Luka takes \\V[11] damage!")
ChangeVariable(27,27,0,3,3,1,2)
If(1,27,0,0,0)
 RunCommonEvent(7235)
 EndEventProcessing()
 0()
EndIf()
ShowMessageFace("mob_sensi1_fc1",0,0,2,6)
ShowMessage("\\n<Julia>Are you going to come on my breasts?")
ShowMessage("It's still the opening performance, but a lot of men finish here...")
250(bytes(0x04,0x08,0x6f,0x3a,0x0c,0x52,0x50,0x47,0x3a,0x3a,0x53,0x45,0x08,0x3a,0x0a,0x40,0x6e,0x61,0x6d,0x65,0x49,0x22,0x12,0x6d,0x6f,0x6e,0x5f,0x65,0x72,0x6f,0x5f,0x6b,0x6f,0x6b,0x69,0x31,0x06,0x3a,0x06,0x45,0x54,0x3a,0x0b,0x40,0x70,0x69,0x74,0x63,0x68,0x69,0x69,0x3a,0x0c,0x40,0x76,0x6f,0x6c,0x75,0x6d,0x65,0x69,0x69))
ChangeVariable(11,11,0,2,125,135)
311(0,1,1,1,11,true)
ShowMessageFace("",0,0,2,7)
ShowMessage("Julia bounces her breasts up and down!")
ShowMessage("His penis is tightened between her soft breasts!\\D")
ShowMessage("Luka takes \\V[11] damage!")
ChangeVariable(27,27,0,3,3,1,2)
If(1,27,0,0,0)
 RunCommonEvent(7235)
 EndEventProcessing()
 0()
EndIf()
250(bytes(0x04,0x08,0x6f,0x3a,0x0c,0x52,0x50,0x47,0x3a,0x3a,0x53,0x45,0x08,0x3a,0x0a,0x40,0x6e,0x61,0x6d,0x65,0x49,0x22,0x12,0x6d,0x6f,0x6e,0x5f,0x65,0x72,0x6f,0x5f,0x6b,0x6f,0x6b,0x69,0x31,0x06,0x3a,0x06,0x45,0x54,0x3a,0x0b,0x40,0x70,0x69,0x74,0x63,0x68,0x69,0x69,0x3a,0x0c,0x40,0x76,0x6f,0x6c,0x75,0x6d,0x65,0x69,0x69))
ChangeVariable(11,11,0,2,125,135)
311(0,1,1,1,11,true)
ShowMessageFace("",0,0,2,8)
ShowMessage("The cold chest armor rubs against Luka's penis!")
ShowMessage("The stiff, unique stimulation attacks Luka!\\D")
ShowMessage("Luka takes \\V[11] damage!")
ChangeVariable(27,27,0,3,3,1,2)
If(1,27,0,0,0)
 RunCommonEvent(7235)
 EndEventProcessing()
 0()
EndIf()
If(1,27,0,175,4)
 ShowMessageFace("ruka_fc1",0,0,2,9)
 ShowMessage("\\n<Luka>A-auu...")
 ShowMessageFace("mob_sensi1_fc1",0,0,2,10)
 ShowMessage("\\n<Julia>You seem to be feeling it...")
 ShowMessage("I'll finish you off with my mouth.")
 0()
Else()
 ShowMessageFace("mob_sensi1_fc1",0,0,2,11)
 ShowMessage("\\n<Julia>You're enduring it pretty well.")
 ShowMessage("But next will be my mouth technique...")
 0()
EndIf()
250(bytes(0x04,0x08,0x6f,0x3a,0x0c,0x52,0x50,0x47,0x3a,0x3a,0x53,0x45,0x08,0x3a,0x0a,0x40,0x6e,0x61,0x6d,0x65,0x49,0x22,0x13,0x6d,0x6f,0x6e,0x5f,0x65,0x72,0x6f,0x5f,0x62,0x75,0x63,0x68,0x75,0x31,0x06,0x3a,0x06,0x45,0x54,0x3a,0x0b,0x40,0x70,0x69,0x74,0x63,0x68,0x69,0x69,0x3a,0x0c,0x40,0x76,0x6f,0x6c,0x75,0x6d,0x65,0x69,0x69))
PictureDisplay(6,"ev_mob_sensi1_ct01",0,0,240,50,100,100,255,0)
ChangeVariable(11,11,0,2,125,135)
311(0,1,1,1,11,true)
ShowMessageFace("",0,0,2,12)
ShowMessage("Julia licks Luka's tip!")
ShowMessage("Her tongue crawls all over his sensitive glans!\\D")
ShowMessage("Luka takes \\V[11] damage!")
ChangeVariable(27,27,0,3,3,1,2)
If(1,27,0,0,0)
 RunCommonEvent(7236)
 EndEventProcessing()
 0()
EndIf()
250(bytes(0x04,0x08,0x6f,0x3a,0x0c,0x52,0x50,0x47,0x3a,0x3a,0x53,0x45,0x08,0x3a,0x0a,0x40,0x6e,0x61,0x6d,0x65,0x49,0x22,0x13,0x6d,0x6f,0x6e,0x5f,0x65,0x72,0x6f,0x5f,0x62,0x75,0x63,0x68,0x75,0x33,0x06,0x3a,0x06,0x45,0x54,0x3a,0x0b,0x40,0x70,0x69,0x74,0x63,0x68,0x69,0x69,0x3a,0x0c,0x40,0x76,0x6f,0x6c,0x75,0x6d,0x65,0x69,0x69))
ChangeVariable(11,11,0,2,125,135)
311(0,1,1,1,11,true)
ShowMessageFace("",0,0,2,13)
ShowMessage("Julia sucks the tip of Luka's penis into her mouth!")
ShowMessage("She slowly sucks on him!\\D")
ShowMessage("Luka takes \\V[11] damage!")
ChangeVariable(27,27,0,3,3,1,2)
If(1,27,0,0,0)
 RunCommonEvent(7236)
 EndEventProcessing()
 0()
EndIf()
ShowMessageFace("mob_sensi1_fc1",0,0,2,14)
ShowMessage("\\n<Julia>*Suuuck* Now come.")
ShowMessage("Shoot your white stuff all over...")
250(bytes(0x04,0x08,0x6f,0x3a,0x0c,0x52,0x50,0x47,0x3a,0x3a,0x53,0x45,0x08,0x3a,0x0a,0x40,0x6e,0x61,0x6d,0x65,0x49,0x22,0x13,0x6d,0x6f,0x6e,0x5f,0x65,0x72,0x6f,0x5f,0x62,0x75,0x63,0x68,0x75,0x33,0x06,0x3a,0x06,0x45,0x54,0x3a,0x0b,0x40,0x70,0x69,0x74,0x63,0x68,0x69,0x69,0x3a,0x0c,0x40,0x76,0x6f,0x6c,0x75,0x6d,0x65,0x69,0x69))
ChangeVariable(11,11,0,2,125,135)
311(0,1,1,1,11,true)
ShowMessageFace("",0,0,2,15)
ShowMessage("Julia sucks harder on Luka's penis!")
ShowMessage("Her warm, wet mouth closes around his shaft!\\D")
ShowMessage("Luka takes \\V[11] damage!")
ChangeVariable(27,27,0,3,3,1,2)
If(1,27,0,0,0)
 RunCommonEvent(7236)
 EndEventProcessing()
 0()
EndIf()
250(bytes(0x04,0x08,0x6f,0x3a,0x0c,0x52,0x50,0x47,0x3a,0x3a,0x53,0x45,0x08,0x3a,0x0a,0x40,0x6e,0x61,0x6d,0x65,0x49,0x22,0x13,0x6d,0x6f,0x6e,0x5f,0x65,0x72,0x6f,0x5f,0x62,0x75,0x63,0x68,0x75,0x33,0x06,0x3a,0x06,0x45,0x54,0x3a,0x0b,0x40,0x70,0x69,0x74,0x63,0x68,0x69,0x69,0x3a,0x0c,0x40,0x76,0x6f,0x6c,0x75,0x6d,0x65,0x69,0x69))
ChangeVariable(11,11,0,2,125,135)
311(0,1,1,1,11,true)
ShowMessageFace("",0,0,2,16)
ShowMessage("Her tongue runs all over his penis inside her mouth!")
ShowMessage("She runs it up and down his back muscle!\\D")
ShowMessage("Luka takes \\V[11] damage!")
ChangeVariable(27,27,0,3,3,1,2)
If(1,27,0,0,0)
 RunCommonEvent(7236)
 EndEventProcessing()
 0()
EndIf()
ShowMessageFace("mob_sensi1_fc1",0,0,2,17)
ShowMessage("\\n<Julia>Now to finish you...")
ShowMessage("This will make you come... *Suuuuck*")
250(bytes(0x04,0x08,0x6f,0x3a,0x0c,0x52,0x50,0x47,0x3a,0x3a,0x53,0x45,0x08,0x3a,0x0a,0x40,0x6e,0x61,0x6d,0x65,0x49,0x22,0x13,0x6d,0x6f,0x6e,0x5f,0x65,0x72,0x6f,0x5f,0x62,0x75,0x63,0x68,0x75,0x33,0x06,0x3a,0x06,0x45,0x54,0x3a,0x0b,0x40,0x70,0x69,0x74,0x63,0x68,0x69,0x69,0x3a,0x0c,0x40,0x76,0x6f,0x6c,0x75,0x6d,0x65,0x69,0x69))
ChangeVariable(11,11,0,2,125,135)
311(0,1,1,1,11,true)
ShowMessageFace("",0,0,2,18)
ShowMessage("Julia intensely sucks on Luka's penis!")
ShowMessage("Her powerful vacuum tries to force Luka over the edge!\\D")
ShowMessage("Luka takes \\V[11] damage!")
ChangeVariable(27,27,0,3,3,1,2)
If(1,27,0,0,0)
 RunCommonEvent(7236)
 EndEventProcessing()
 0()
EndIf()
RunCommonEvent(7234)
EndEventProcessing()
0()
