// EVENT 0112
Name "Difficulty Application"

If(1,902,0,-2,0)
 ChangeVariable(41,41,0,0,50)
 ChangeVariable(42,42,0,0,50)
 ChangeVariable(43,43,0,0,50)
 ChangeVariable(44,44,0,0,50)
 ChangeVariable(45,45,0,0,100)
 ChangeVariable(46,46,0,0,100)
 ChangeVariable(47,47,0,0,100)
 EndEventProcessing()
 0()
EndIf()
If(1,902,0,-1,0)
 ChangeVariable(41,41,0,0,75)
 ChangeVariable(42,42,0,0,75)
 ChangeVariable(43,43,0,0,75)
 ChangeVariable(44,44,0,0,75)
 ChangeVariable(45,45,0,0,100)
 ChangeVariable(46,46,0,0,100)
 ChangeVariable(47,47,0,0,100)
 EndEventProcessing()
 0()
EndIf()
If(1,902,0,0,0)
 ChangeVariable(41,41,0,0,100)
 ChangeVariable(42,42,0,0,100)
 ChangeVariable(43,43,0,0,100)
 ChangeVariable(44,44,0,0,100)
 ChangeVariable(45,45,0,0,100)
 ChangeVariable(46,46,0,0,100)
 ChangeVariable(47,47,0,0,100)
 EndEventProcessing()
 0()
EndIf()
If(1,902,0,1,0)
 ChangeVariable(41,41,0,0,125)
 ChangeVariable(42,42,0,0,125)
 ChangeVariable(43,43,0,0,110)
 ChangeVariable(44,44,0,0,125)
 ChangeVariable(45,45,0,0,75)
 ChangeVariable(46,46,0,0,100)
 ChangeVariable(47,47,0,0,100)
 EndEventProcessing()
 0()
EndIf()
If(1,902,0,2,0)
 ChangeVariable(41,41,0,0,150)
 ChangeVariable(42,42,0,0,150)
 ChangeVariable(43,43,0,0,120)
 ChangeVariable(44,44,0,0,125)
 ChangeVariable(45,45,0,0,50)
 ChangeVariable(46,46,0,0,100)
 ChangeVariable(47,47,0,0,100)
 EndEventProcessing()
 0()
EndIf()
If(1,1001,0,3,2)
 If(1,902,0,3,0)
  ChangeVariable(41,41,0,0,175)
  ChangeVariable(42,42,0,0,175)
  ChangeVariable(43,43,0,0,120)
  ChangeVariable(44,44,0,0,125)
  ChangeVariable(45,45,0,0,25)
  ChangeVariable(46,46,0,0,100)
  ChangeVariable(47,47,0,0,100)
  EndEventProcessing()
  0()
 EndIf()
 If(1,902,0,4,0)
  ChangeVariable(41,41,0,0,200)
  ChangeVariable(42,42,0,0,200)
  ChangeVariable(43,43,0,0,125)
  ChangeVariable(44,44,0,0,150)
  ChangeVariable(45,45,0,0,10)
  ChangeVariable(46,46,0,0,100)
  ChangeVariable(47,47,0,0,100)
  EndEventProcessing()
  0()
 EndIf()
 0()
EndIf()
If(1,1001,0,4,1)
 If(1,902,0,3,0)
  ChangeVariable(41,41,0,0,200)
  ChangeVariable(42,42,0,0,200)
  ChangeVariable(43,43,0,0,125)
  ChangeVariable(44,44,0,0,150)
  ChangeVariable(45,45,0,0,25)
  ChangeVariable(46,46,0,0,100)
  ChangeVariable(47,47,0,0,100)
  EndEventProcessing()
  0()
 EndIf()
 If(1,902,0,4,0)
  ChangeVariable(41,41,0,0,300)
  ChangeVariable(42,42,0,0,500)
  ChangeVariable(43,43,0,0,150)
  ChangeVariable(44,44,0,0,200)
  ChangeVariable(45,45,0,0,10)
  ChangeVariable(46,46,0,0,100)
  ChangeVariable(47,47,0,0,100)
  EndEventProcessing()
  0()
 EndIf()
 0()
EndIf()
0()
