// EVENT 0906
Name "Chaos Labyrinth Rank 3 Items"

ChangeVariable(12,12,0,2,1,4)
If(1,12,0,1,0)
 JumpToLabel("消費アイテム")
 0()
EndIf()
If(1,12,0,2,0)
 JumpToLabel("素材アイテム")
 0()
EndIf()
If(1,12,0,3,0)
 JumpToLabel("食料アイテム")
 0()
EndIf()
If(1,12,0,4,0)
 JumpToLabel("アクセサリ")
 0()
EndIf()
DefineLabel("消費アイテム")
ChangeVariable(11,11,0,2,1,17)
If(1,11,0,1,0)
 ChangeInventory_Item(2,0,0,1)
 EndEventProcessing()
 0()
EndIf()
If(1,11,0,2,0)
 ChangeInventory_Item(4,0,0,1)
 EndEventProcessing()
 0()
EndIf()
If(1,11,0,3,0)
 ChangeInventory_Item(8,0,0,1)
 EndEventProcessing()
 0()
EndIf()
If(1,11,0,4,0)
 ChangeInventory_Item(11,0,0,1)
 EndEventProcessing()
 0()
EndIf()
If(1,11,0,5,0)
 ChangeInventory_Item(20,0,0,1)
 EndEventProcessing()
 0()
EndIf()
If(1,11,0,6,0)
 ChangeInventory_Item(21,0,0,1)
 EndEventProcessing()
 0()
EndIf()
If(1,11,0,7,0)
 ChangeInventory_Item(37,0,0,1)
 EndEventProcessing()
 0()
EndIf()
If(1,11,0,8,0)
 ChangeInventory_Item(41,0,0,1)
 EndEventProcessing()
 0()
EndIf()
If(1,11,0,9,0)
 ChangeInventory_Item(45,0,0,1)
 EndEventProcessing()
 0()
EndIf()
If(1,11,0,10,0)
 ChangeInventory_Item(103,0,0,1)
 EndEventProcessing()
 0()
EndIf()
If(1,11,0,11,0)
 ChangeInventory_Item(109,0,0,1)
 EndEventProcessing()
 0()
EndIf()
If(1,11,0,12,0)
 ChangeInventory_Item(110,0,0,1)
 EndEventProcessing()
 0()
EndIf()
If(1,11,0,13,0)
 ChangeInventory_Item(111,0,0,1)
 EndEventProcessing()
 0()
EndIf()
If(1,11,0,14,0)
 ChangeInventory_Item(32,0,0,1)
 EndEventProcessing()
 0()
EndIf()
If(1,11,0,15,1)
 If(1,11,0,17,2)
  ChangeInventory_Item(91,0,0,1)
  EndEventProcessing()
  0()
 EndIf()
 0()
EndIf()
DefineLabel("素材アイテム")
ChangeVariable(11,11,0,2,6,27)
If(1,11,0,6,0)
 ChangeInventory_Item(204,0,0,1)
 EndEventProcessing()
 0()
EndIf()
If(1,11,0,7,0)
 ChangeInventory_Item(205,0,0,1)
 EndEventProcessing()
 0()
EndIf()
If(1,11,0,8,0)
 ChangeInventory_Item(206,0,0,1)
 EndEventProcessing()
 0()
EndIf()
If(1,11,0,9,0)
 ChangeInventory_Item(207,0,0,1)
 EndEventProcessing()
 0()
EndIf()
If(1,11,0,10,0)
 ChangeInventory_Item(208,0,0,1)
 EndEventProcessing()
 0()
EndIf()
If(1,11,0,11,0)
 ChangeInventory_Item(209,0,0,1)
 EndEventProcessing()
 0()
EndIf()
If(1,11,0,12,0)
 ChangeInventory_Item(210,0,0,1)
 EndEventProcessing()
 0()
EndIf()
If(1,11,0,13,0)
 ChangeInventory_Item(211,0,0,1)
 EndEventProcessing()
 0()
EndIf()
If(1,11,0,14,0)
 ChangeInventory_Item(212,0,0,1)
 EndEventProcessing()
 0()
EndIf()
If(1,11,0,15,0)
 ChangeInventory_Item(213,0,0,1)
 EndEventProcessing()
 0()
EndIf()
If(1,11,0,16,0)
 ChangeInventory_Item(214,0,0,1)
 EndEventProcessing()
 0()
EndIf()
If(1,11,0,17,0)
 ChangeInventory_Item(215,0,0,1)
 EndEventProcessing()
 0()
EndIf()
If(1,11,0,18,0)
 ChangeInventory_Item(216,0,0,1)
 EndEventProcessing()
 0()
EndIf()
If(1,11,0,19,0)
 ChangeInventory_Item(217,0,0,1)
 EndEventProcessing()
 0()
EndIf()
If(1,11,0,20,0)
 ChangeInventory_Item(218,0,0,1)
 EndEventProcessing()
 0()
EndIf()
If(1,11,0,21,0)
 ChangeInventory_Item(219,0,0,1)
 EndEventProcessing()
 0()
EndIf()
If(1,11,0,22,0)
 ChangeInventory_Item(220,0,0,1)
 EndEventProcessing()
 0()
EndIf()
If(1,11,0,23,0)
 ChangeInventory_Item(221,0,0,1)
 EndEventProcessing()
 0()
EndIf()
If(1,11,0,24,0)
 ChangeInventory_Item(222,0,0,1)
 EndEventProcessing()
 0()
EndIf()
If(1,11,0,25,0)
 ChangeInventory_Item(223,0,0,1)
 EndEventProcessing()
 0()
EndIf()
If(1,11,0,26,0)
 ChangeInventory_Item(224,0,0,1)
 EndEventProcessing()
 0()
EndIf()
If(1,11,0,27,0)
 ChangeInventory_Item(225,0,0,1)
 EndEventProcessing()
 0()
EndIf()
DefineLabel("食料アイテム")
ChangeVariable(11,11,0,2,28,72)
If(1,11,0,28,0)
 ChangeInventory_Item(344,0,0,1)
 EndEventProcessing()
 0()
EndIf()
If(1,11,0,29,0)
 ChangeInventory_Item(345,0,0,1)
 EndEventProcessing()
 0()
EndIf()
If(1,11,0,30,0)
 ChangeInventory_Item(346,0,0,1)
 EndEventProcessing()
 0()
EndIf()
If(1,11,0,31,0)
 ChangeInventory_Item(347,0,0,1)
 EndEventProcessing()
 0()
EndIf()
If(1,11,0,32,0)
 ChangeInventory_Item(348,0,0,1)
 EndEventProcessing()
 0()
EndIf()
If(1,11,0,33,0)
 ChangeInventory_Item(349,0,0,1)
 EndEventProcessing()
 0()
EndIf()
If(1,11,0,34,0)
 ChangeInventory_Item(350,0,0,1)
 EndEventProcessing()
 0()
EndIf()
If(1,11,0,35,0)
 ChangeInventory_Item(351,0,0,1)
 EndEventProcessing()
 0()
EndIf()
If(1,11,0,36,0)
 ChangeInventory_Item(352,0,0,1)
 EndEventProcessing()
 0()
EndIf()
If(1,11,0,37,0)
 ChangeInventory_Item(353,0,0,1)
 EndEventProcessing()
 0()
EndIf()
If(1,11,0,38,0)
 ChangeInventory_Item(354,0,0,1)
 EndEventProcessing()
 0()
EndIf()
If(1,11,0,39,0)
 ChangeInventory_Item(355,0,0,1)
 EndEventProcessing()
 0()
EndIf()
If(1,11,0,40,0)
 ChangeInventory_Item(356,0,0,1)
 EndEventProcessing()
 0()
EndIf()
If(1,11,0,41,0)
 ChangeInventory_Item(363,0,0,1)
 EndEventProcessing()
 0()
EndIf()
If(1,11,0,42,0)
 ChangeInventory_Item(364,0,0,1)
 EndEventProcessing()
 0()
EndIf()
If(1,11,0,43,0)
 ChangeInventory_Item(365,0,0,1)
 EndEventProcessing()
 0()
EndIf()
If(1,11,0,44,0)
 ChangeInventory_Item(366,0,0,1)
 EndEventProcessing()
 0()
EndIf()
If(1,11,0,45,0)
 ChangeInventory_Item(367,0,0,1)
 EndEventProcessing()
 0()
EndIf()
If(1,11,0,46,0)
 ChangeInventory_Item(368,0,0,1)
 EndEventProcessing()
 0()
EndIf()
If(1,11,0,47,0)
 ChangeInventory_Item(370,0,0,1)
 EndEventProcessing()
 0()
EndIf()
If(1,11,0,48,0)
 ChangeInventory_Item(371,0,0,1)
 EndEventProcessing()
 0()
EndIf()
If(1,11,0,49,0)
 ChangeInventory_Item(374,0,0,1)
 EndEventProcessing()
 0()
EndIf()
If(1,11,0,50,0)
 ChangeInventory_Item(385,0,0,1)
 EndEventProcessing()
 0()
EndIf()
If(1,11,0,51,0)
 ChangeInventory_Item(386,0,0,1)
 EndEventProcessing()
 0()
EndIf()
If(1,11,0,52,0)
 ChangeInventory_Item(387,0,0,1)
 EndEventProcessing()
 0()
EndIf()
If(1,11,0,53,0)
 ChangeInventory_Item(388,0,0,1)
 EndEventProcessing()
 0()
EndIf()
If(1,11,0,54,0)
 ChangeInventory_Item(384,0,0,1)
 EndEventProcessing()
 0()
EndIf()
If(1,11,0,55,0)
 ChangeInventory_Item(390,0,0,1)
 EndEventProcessing()
 0()
EndIf()
If(1,11,0,56,0)
 ChangeInventory_Item(391,0,0,1)
 EndEventProcessing()
 0()
EndIf()
If(1,11,0,57,0)
 ChangeInventory_Item(393,0,0,1)
 EndEventProcessing()
 0()
EndIf()
If(1,11,0,58,0)
 ChangeInventory_Item(394,0,0,1)
 EndEventProcessing()
 0()
EndIf()
If(1,11,0,59,0)
 ChangeInventory_Item(395,0,0,1)
 EndEventProcessing()
 0()
EndIf()
If(1,11,0,60,0)
 ChangeInventory_Item(396,0,0,1)
 EndEventProcessing()
 0()
EndIf()
If(1,11,0,61,0)
 ChangeInventory_Item(397,0,0,1)
 EndEventProcessing()
 0()
EndIf()
If(1,11,0,62,0)
 ChangeInventory_Item(398,0,0,1)
 EndEventProcessing()
 0()
EndIf()
If(1,11,0,63,0)
 ChangeInventory_Item(399,0,0,1)
 EndEventProcessing()
 0()
EndIf()
If(1,11,0,64,0)
 ChangeInventory_Item(400,0,0,1)
 EndEventProcessing()
 0()
EndIf()
If(1,11,0,65,0)
 ChangeInventory_Item(401,0,0,1)
 EndEventProcessing()
 0()
EndIf()
If(1,11,0,66,0)
 ChangeInventory_Item(402,0,0,1)
 EndEventProcessing()
 0()
EndIf()
If(1,11,0,67,0)
 ChangeInventory_Item(403,0,0,1)
 EndEventProcessing()
 0()
EndIf()
If(1,11,0,68,0)
 ChangeInventory_Item(404,0,0,1)
 EndEventProcessing()
 0()
EndIf()
If(1,11,0,69,0)
 ChangeInventory_Item(405,0,0,1)
 EndEventProcessing()
 0()
EndIf()
If(1,11,0,70,0)
 ChangeInventory_Item(406,0,0,1)
 EndEventProcessing()
 0()
EndIf()
If(1,11,0,71,0)
 ChangeInventory_Item(407,0,0,1)
 EndEventProcessing()
 0()
EndIf()
If(1,11,0,72,0)
 ChangeInventory_Item(450,0,0,1)
 EndEventProcessing()
 0()
EndIf()
DefineLabel("アクセサリ")
ChangeVariable(11,11,0,2,73,165)
If(1,11,0,73,0)
 ChangeInventoryArmor(1003,0,0,1,false)
 EndEventProcessing()
 0()
EndIf()
If(1,11,0,74,0)
 ChangeInventoryArmor(1008,0,0,1,false)
 EndEventProcessing()
 0()
EndIf()
If(1,11,0,75,0)
 ChangeInventoryArmor(1013,0,0,1,false)
 EndEventProcessing()
 0()
EndIf()
If(1,11,0,76,0)
 ChangeInventoryArmor(1018,0,0,1,false)
 EndEventProcessing()
 0()
EndIf()
If(1,11,0,77,0)
 ChangeInventoryArmor(1023,0,0,1,false)
 EndEventProcessing()
 0()
EndIf()
If(1,11,0,78,0)
 ChangeInventoryArmor(1028,0,0,1,false)
 EndEventProcessing()
 0()
EndIf()
If(1,11,0,79,0)
 ChangeInventoryArmor(1033,0,0,1,false)
 EndEventProcessing()
 0()
EndIf()
If(1,11,0,80,0)
 ChangeInventoryArmor(1038,0,0,1,false)
 EndEventProcessing()
 0()
EndIf()
If(1,11,0,81,0)
 ChangeInventoryArmor(1043,0,0,1,false)
 EndEventProcessing()
 0()
EndIf()
If(1,11,0,82,0)
 ChangeInventoryArmor(1047,0,0,1,false)
 EndEventProcessing()
 0()
EndIf()
If(1,11,0,83,0)
 ChangeInventoryArmor(1051,0,0,1,false)
 EndEventProcessing()
 0()
EndIf()
If(1,11,0,84,0)
 ChangeInventoryArmor(1055,0,0,1,false)
 EndEventProcessing()
 0()
EndIf()
If(1,11,0,85,0)
 ChangeInventoryArmor(1057,0,0,1,false)
 EndEventProcessing()
 0()
EndIf()
If(1,11,0,86,0)
 ChangeInventoryArmor(1060,0,0,1,false)
 EndEventProcessing()
 0()
EndIf()
If(1,11,0,87,0)
 ChangeInventoryArmor(1062,0,0,1,false)
 EndEventProcessing()
 0()
EndIf()
If(1,11,0,88,0)
 ChangeInventoryArmor(1065,0,0,1,false)
 EndEventProcessing()
 0()
EndIf()
If(1,11,0,89,0)
 ChangeInventoryArmor(1067,0,0,1,false)
 EndEventProcessing()
 0()
EndIf()
If(1,11,0,90,0)
 ChangeInventoryArmor(1072,0,0,1,false)
 EndEventProcessing()
 0()
EndIf()
If(1,11,0,91,0)
 ChangeInventoryArmor(1077,0,0,1,false)
 EndEventProcessing()
 0()
EndIf()
If(1,11,0,92,0)
 ChangeInventoryArmor(1101,0,0,1,false)
 EndEventProcessing()
 0()
EndIf()
If(1,11,0,93,0)
 ChangeInventoryArmor(1107,0,0,1,false)
 EndEventProcessing()
 0()
EndIf()
If(1,11,0,94,0)
 ChangeInventoryArmor(1109,0,0,1,false)
 EndEventProcessing()
 0()
EndIf()
If(1,11,0,95,0)
 ChangeInventoryArmor(1114,0,0,1,false)
 EndEventProcessing()
 0()
EndIf()
If(1,11,0,96,0)
 ChangeInventoryArmor(1116,0,0,1,false)
 EndEventProcessing()
 0()
EndIf()
If(1,11,0,97,0)
 ChangeInventoryArmor(1118,0,0,1,false)
 EndEventProcessing()
 0()
EndIf()
If(1,11,0,98,0)
 ChangeInventoryArmor(1121,0,0,1,false)
 EndEventProcessing()
 0()
EndIf()
If(1,11,0,99,0)
 ChangeInventoryArmor(1127,0,0,1,false)
 EndEventProcessing()
 0()
EndIf()
If(1,11,0,100,0)
 ChangeInventoryArmor(1131,0,0,1,false)
 EndEventProcessing()
 0()
EndIf()
If(1,11,0,101,0)
 ChangeInventoryArmor(1143,0,0,1,false)
 EndEventProcessing()
 0()
EndIf()
If(1,11,0,102,0)
 ChangeInventoryArmor(1146,0,0,1,false)
 EndEventProcessing()
 0()
EndIf()
If(1,11,0,103,0)
 ChangeInventoryArmor(1148,0,0,1,false)
 EndEventProcessing()
 0()
EndIf()
If(1,11,0,104,0)
 ChangeInventoryArmor(1154,0,0,1,false)
 EndEventProcessing()
 0()
EndIf()
If(1,11,0,105,0)
 ChangeInventoryArmor(1155,0,0,1,false)
 EndEventProcessing()
 0()
EndIf()
If(1,11,0,106,0)
 ChangeInventoryArmor(1161,0,0,1,false)
 EndEventProcessing()
 0()
EndIf()
If(1,11,0,107,0)
 ChangeInventoryArmor(1165,0,0,1,false)
 EndEventProcessing()
 0()
EndIf()
If(1,11,0,108,0)
 ChangeInventoryArmor(1168,0,0,1,false)
 EndEventProcessing()
 0()
EndIf()
If(1,11,0,109,0)
 ChangeInventoryArmor(1174,0,0,1,false)
 EndEventProcessing()
 0()
EndIf()
If(1,11,0,110,0)
 ChangeInventoryArmor(1176,0,0,1,false)
 EndEventProcessing()
 0()
EndIf()
If(1,11,0,111,0)
 ChangeInventoryArmor(1183,0,0,1,false)
 EndEventProcessing()
 0()
EndIf()
If(1,11,0,112,0)
 ChangeInventoryArmor(1186,0,0,1,false)
 EndEventProcessing()
 0()
EndIf()
If(1,11,0,113,0)
 ChangeInventoryArmor(1191,0,0,1,false)
 EndEventProcessing()
 0()
EndIf()
If(1,11,0,114,0)
 ChangeInventoryArmor(1192,0,0,1,false)
 EndEventProcessing()
 0()
EndIf()
If(1,11,0,115,0)
 ChangeInventoryArmor(1193,0,0,1,false)
 EndEventProcessing()
 0()
EndIf()
If(1,11,0,116,0)
 ChangeInventoryArmor(1201,0,0,1,false)
 EndEventProcessing()
 0()
EndIf()
If(1,11,0,117,0)
 ChangeInventoryArmor(1202,0,0,1,false)
 EndEventProcessing()
 0()
EndIf()
If(1,11,0,118,0)
 ChangeInventoryArmor(1203,0,0,1,false)
 EndEventProcessing()
 0()
EndIf()
If(1,11,0,119,0)
 ChangeInventoryArmor(1204,0,0,1,false)
 EndEventProcessing()
 0()
EndIf()
If(1,11,0,120,0)
 ChangeInventoryArmor(1205,0,0,1,false)
 EndEventProcessing()
 0()
EndIf()
If(1,11,0,121,0)
 ChangeInventoryArmor(1206,0,0,1,false)
 EndEventProcessing()
 0()
EndIf()
If(1,11,0,122,0)
 ChangeInventoryArmor(1207,0,0,1,false)
 EndEventProcessing()
 0()
EndIf()
If(1,11,0,123,0)
 ChangeInventoryArmor(1208,0,0,1,false)
 EndEventProcessing()
 0()
EndIf()
If(1,11,0,124,0)
 ChangeInventoryArmor(1209,0,0,1,false)
 EndEventProcessing()
 0()
EndIf()
If(1,11,0,125,0)
 ChangeInventoryArmor(1210,0,0,1,false)
 EndEventProcessing()
 0()
EndIf()
If(1,11,0,126,0)
 ChangeInventoryArmor(1211,0,0,1,false)
 EndEventProcessing()
 0()
EndIf()
If(1,11,0,127,0)
 ChangeInventoryArmor(1279,0,0,1,false)
 EndEventProcessing()
 0()
EndIf()
If(1,11,0,128,0)
 ChangeInventoryArmor(1413,0,0,1,false)
 EndEventProcessing()
 0()
EndIf()
If(1,11,0,129,0)
 ChangeInventoryArmor(1416,0,0,1,false)
 EndEventProcessing()
 0()
EndIf()
If(1,11,0,130,0)
 ChangeInventoryArmor(1419,0,0,1,false)
 EndEventProcessing()
 0()
EndIf()
If(1,11,0,131,0)
 ChangeInventoryArmor(1422,0,0,1,false)
 EndEventProcessing()
 0()
EndIf()
If(1,11,0,132,0)
 ChangeInventoryArmor(1425,0,0,1,false)
 EndEventProcessing()
 0()
EndIf()
If(1,11,0,133,0)
 ChangeInventoryArmor(1428,0,0,1,false)
 EndEventProcessing()
 0()
EndIf()
If(1,11,0,134,0)
 ChangeInventoryArmor(1431,0,0,1,false)
 EndEventProcessing()
 0()
EndIf()
If(1,11,0,135,0)
 ChangeInventoryArmor(1434,0,0,1,false)
 EndEventProcessing()
 0()
EndIf()
If(1,11,0,136,0)
 ChangeInventoryArmor(1437,0,0,1,false)
 EndEventProcessing()
 0()
EndIf()
If(1,11,0,137,0)
 ChangeInventoryArmor(1440,0,0,1,false)
 EndEventProcessing()
 0()
EndIf()
If(1,11,0,138,0)
 ChangeInventoryArmor(1443,0,0,1,false)
 EndEventProcessing()
 0()
EndIf()
If(1,11,0,139,0)
 ChangeInventoryArmor(1446,0,0,1,false)
 EndEventProcessing()
 0()
EndIf()
If(1,11,0,140,0)
 ChangeInventoryArmor(1449,0,0,1,false)
 EndEventProcessing()
 0()
EndIf()
If(1,11,0,141,0)
 ChangeInventoryArmor(1452,0,0,1,false)
 EndEventProcessing()
 0()
EndIf()
If(1,11,0,142,0)
 ChangeInventoryArmor(1455,0,0,1,false)
 EndEventProcessing()
 0()
EndIf()
If(1,11,0,143,0)
 ChangeInventoryArmor(1458,0,0,1,false)
 EndEventProcessing()
 0()
EndIf()
If(1,11,0,144,0)
 ChangeInventoryArmor(1461,0,0,1,false)
 EndEventProcessing()
 0()
EndIf()
If(1,11,0,145,0)
 ChangeInventoryArmor(1464,0,0,1,false)
 EndEventProcessing()
 0()
EndIf()
If(1,11,0,146,0)
 ChangeInventoryArmor(1467,0,0,1,false)
 EndEventProcessing()
 0()
EndIf()
If(1,11,0,147,0)
 ChangeInventoryArmor(1470,0,0,1,false)
 EndEventProcessing()
 0()
EndIf()
If(1,11,0,148,0)
 ChangeInventoryArmor(1473,0,0,1,false)
 EndEventProcessing()
 0()
EndIf()
If(1,11,0,149,0)
 ChangeInventoryArmor(1476,0,0,1,false)
 EndEventProcessing()
 0()
EndIf()
If(1,11,0,150,0)
 ChangeInventoryArmor(1479,0,0,1,false)
 EndEventProcessing()
 0()
EndIf()
If(1,11,0,151,0)
 ChangeInventoryArmor(1482,0,0,1,false)
 EndEventProcessing()
 0()
EndIf()
If(1,11,0,152,0)
 ChangeInventoryArmor(1493,0,0,1,false)
 EndEventProcessing()
 0()
EndIf()
If(1,11,0,153,0)
 ChangeInventoryArmor(1497,0,0,1,false)
 EndEventProcessing()
 0()
EndIf()
If(1,11,0,154,0)
 ChangeInventoryArmor(1501,0,0,1,false)
 EndEventProcessing()
 0()
EndIf()
If(1,11,0,155,0)
 ChangeInventoryArmor(1505,0,0,1,false)
 EndEventProcessing()
 0()
EndIf()
If(1,11,0,156,0)
 ChangeInventoryArmor(1509,0,0,1,false)
 EndEventProcessing()
 0()
EndIf()
If(1,11,0,157,0)
 ChangeInventoryArmor(1513,0,0,1,false)
 EndEventProcessing()
 0()
EndIf()
If(1,11,0,158,0)
 ChangeInventoryArmor(1525,0,0,1,false)
 EndEventProcessing()
 0()
EndIf()
If(1,11,0,159,0)
 ChangeInventoryArmor(1529,0,0,1,false)
 EndEventProcessing()
 0()
EndIf()
If(1,11,0,160,0)
 ChangeInventoryArmor(1688,0,0,1,false)
 EndEventProcessing()
 0()
EndIf()
If(1,11,0,161,0)
 ChangeInventoryArmor(1691,0,0,1,false)
 EndEventProcessing()
 0()
EndIf()
If(1,11,0,162,0)
 ChangeInventoryArmor(1694,0,0,1,false)
 EndEventProcessing()
 0()
EndIf()
If(1,11,0,163,0)
 ChangeInventoryArmor(1697,0,0,1,false)
 EndEventProcessing()
 0()
EndIf()
If(1,11,0,164,0)
 ChangeInventoryArmor(1700,0,0,1,false)
 EndEventProcessing()
 0()
EndIf()
If(1,11,0,165,0)
 ChangeInventoryArmor(1703,0,0,1,false)
 EndEventProcessing()
 0()
EndIf()
0()
