﻿// EVENT 7124
Name "Maria: Victory"

PictureClear(6)
ShowMessageFace("mob_sister1_fc1",0,0,2,1)
ShowMessage("\\n<Maria>Arara, you endured.\nSuch a powerful man...")
250(bytes(0x04,0x08,0x6f,0x3a,0x0c,0x52,0x50,0x47,0x3a,0x3a,0x53,0x45,0x08,0x3a,0x0a,0x40,0x6e,0x61,0x6d,0x65,0x49,0x22,0x0d,0x6d,0x6f,0x6e,0x5f,0x6c,0x76,0x75,0x70,0x06,0x3a,0x06,0x45,0x54,0x3a,0x0b,0x40,0x70,0x69,0x74,0x63,0x68,0x69,0x69,0x3a,0x0c,0x40,0x76,0x6f,0x6c,0x75,0x6d,0x65,0x69,0x69))
ChangeSwitch(98,98,1)
ChangeSwitch(96,96,1)
ShowMessageFace("",0,0,2,2)
ShowMessage("Luka emerged from the battle fuck victorious!")
If(1,813,0,2,1)
 ShowMessageFace("mob_sister1_fc1",0,0,2,3)
 ShowMessage("\\n<Maria>I'm sorry, but there's no prize.\nYou already won before.")
 0()
Else()
 ShowMessageFace("mob_sister1_fc1",0,0,2,4)
 ShowMessage("\\n<Maria>Then I'll give you the book.\nIt's the perfect gift for a bookish girl.")
 250(bytes(0x04,0x08,0x6f,0x3a,0x0c,0x52,0x50,0x47,0x3a,0x3a,0x53,0x45,0x08,0x3a,0x0a,0x40,0x6e,0x61,0x6d,0x65,0x49,0x22,0x0a,0x49,0x74,0x65,0x6d,0x31,0x06,0x3a,0x06,0x45,0x54,0x3a,0x0b,0x40,0x70,0x69,0x74,0x63,0x68,0x69,0x69,0x3a,0x0c,0x40,0x76,0x6f,0x6c,0x75,0x6d,0x65,0x69,0x55))
 ChangeInventory_Item(517,0,0,1)
 ChangeVariable(813,813,0,0,2)
 RunCommonEvent(6999)
 0()
EndIf()
ShowMessageFace("mob_sister1_fc1",0,0,2,5)
ShowMessage("\\n<Maria>Fufu, please come again.\nNext time, I'll lead you to heaven...")
If(0,2331,1)
 PictureClear(5)
 281(1)
 TeleportPlayer(0,27,8,16,2,0)
 216(0)
 0()
EndIf()
EndEventProcessing()
0()
