﻿// EVENT 0605
Name "Event: Enemy strength down"

ChangeSwitch(73,73,0)
If(1,129,0,0,0)
 ShowMessageFace("cupid_fc1",0,0,2,1)
 ShowMessage("\\n<Cupid>If you gimme some money, I'll weaken your enemies for you. 5000G. How about it...?")
 ShowChoices(strings("Yes please","No thanks"),2)
 IfPlayerPicksChoice(0,null)
  125(1,0,5000)
  ShowMessageFace("cupid_fc1",1,0,2,2)
  ShowMessage("\\n<Cupid>All righty, here we go! Mystical aura pirororooon~♪")
  If(1,151,0,0,0)
   ChangeVariable(149,149,2,0,18)
   0()
  EndIf()
  If(1,151,0,1,0)
   ChangeVariable(149,149,2,0,90)
   0()
  EndIf()
  If(1,151,0,2,0)
   ChangeVariable(149,149,2,0,120)
   0()
  EndIf()
  If(1,151,0,3,0)
   ChangeVariable(149,149,2,0,150)
   0()
  EndIf()
  If(1,151,0,4,0)
   ChangeVariable(149,149,2,0,180)
   0()
  EndIf()
  If(1,151,0,5,0)
   ChangeVariable(149,149,2,0,210)
   0()
  EndIf()
  ChangeVariable(129,129,0,0,1)
  250(bytes(0x04,0x08,0x6f,0x3a,0x0c,0x52,0x50,0x47,0x3a,0x3a,0x53,0x45,0x08,0x3a,0x0a,0x40,0x6e,0x61,0x6d,0x65,0x49,0x22,0x0a,0x49,0x74,0x65,0x6d,0x31,0x06,0x3a,0x06,0x45,0x54,0x3a,0x0b,0x40,0x70,0x69,0x74,0x63,0x68,0x69,0x69,0x3a,0x0c,0x40,0x76,0x6f,0x6c,0x75,0x6d,0x65,0x69,0x55))
  ShowMessageFace("",0,0,2,3)
  ShowMessage("The enemy's strength was decreased!")
  ChangeSwitch(73,73,1)
  EndEventProcessing()
  0()
 IfPlayerPicksChoice(1,null)
  ShowMessageFace("cupid_fc1",2,0,2,4)
  ShowMessage("\\n<Cupid>Cheapskate~!!")
  ChangeSwitch(73,73,1)
  EndEventProcessing()
  0()
 404()
 0()
EndIf()
If(1,129,0,1,0)
 ShowMessageFace("cupid_fc1",4,0,2,5)
 ShowMessage("\\n<Cupid>Let's all get along♪")
 ChangeSwitch(73,73,1)
 EndEventProcessing()
 0()
EndIf()
0()
