// EVENT 1077
Name "Talk: Zombie Swordsman"

If(1,20,0,1,0)
 JumpToLabel("情報")
 0()
EndIf()
If(1,20,0,2,0)
 JumpToLabel("質問")
 0()
EndIf()
If(1,20,0,3,0)
 JumpToLabel("要求")
 0()
EndIf()
If(1,20,0,4,0)
 JumpToLabel("贈与")
 0()
EndIf()
DefineLabel("情報")
ChangeVariable(13,13,0,2,1,100)
If(1,13,0,10,2)
 ShowMessageFace("zonbe_fc2",0,0,2,1)
 ShowMessage("\\n<Zombie Swordsman>Ah, ahhhh...")
 EndEventProcessing()
 0()
EndIf()
If(1,13,0,20,2)
 ShowMessageFace("zonbe_fc2",0,0,2,2)
 ShowMessage("\\n<Zombie Swordsman>Uuu... Oh, ohhhh...")
 EndEventProcessing()
 0()
EndIf()
If(1,13,0,30,2)
 ShowMessageFace("zonbe_fc2",0,0,2,3)
 ShowMessage("\\n<Zombie Swordsman>I still remember a little...\nI was...a swordsman...")
 EndEventProcessing()
 0()
EndIf()
If(1,13,0,40,2)
 ShowMessageFace("zonbe_fc2",0,0,2,4)
 ShowMessage("\\n<Zombie Swordsman>Uhh... I died... many years ago...")
 EndEventProcessing()
 0()
EndIf()
If(1,13,0,50,2)
 ShowMessageFace("zonbe_fc2",0,0,2,5)
 ShowMessage("\\n<Zombie Swordsman>I do not hold a grudge against anybody...\nThose who wield a sword...die by the sword...")
 EndEventProcessing()
 0()
EndIf()
If(1,13,0,60,2)
 ShowMessageFace("zonbe_fc2",0,0,2,6)
 ShowMessage("\\n<Zombie Swordsman>My flesh may have decayed, but...my sword...has not dulled...")
 EndEventProcessing()
 0()
EndIf()
If(1,13,0,70,2)
 ShowMessageFace("zonbe_fc2",0,0,2,7)
 ShowMessage("\\n<Zombie Swordsman>The path of a warrior, till the very end...")
 EndEventProcessing()
 0()
EndIf()
If(1,13,0,80,2)
 ShowMessageFace("zonbe_fc2",0,0,2,8)
 ShowMessage("\\n<Zombie Swordsman>I still wield a blade...")
 EndEventProcessing()
 0()
EndIf()
If(1,13,0,90,2)
 ShowMessageFace("zonbe_fc2",0,0,2,9)
 ShowMessage("\\n<Zombie Swordsman>When it comes to battle...my sluggish mind becomes cool and clear...\nBefore I was a zombie...I was a warrior...")
 EndEventProcessing()
 0()
EndIf()
If(1,13,0,100,2)
 ShowMessageFace("zonbe_fc2",0,0,2,10)
 ShowMessage("\\n<Zombie Swordsman>Uhh... Now... Bout...")
 EndEventProcessing()
 0()
EndIf()
DefineLabel("質問")
ChangeVariable(13,13,0,2,1,50)
If(1,13,0,10,2)
 ShowMessageFace("zonbe_fc2",0,0,2,11)
 ShowMessage("\\n<Zombie Swordsman>Auu... T-the path of a warrior... means...")
 ShowChoices(strings("To die","To be kept alive","To rape"),0)
 IfPlayerPicksChoice(0,"死ぬこと")
  ShowMessageFace("zonbe_fc2",0,0,2,12)
  ShowMessage("\\n<Zombie Swordsman>The path of a warrior ends with death... But it hasn't...")
  ShowMessageFace("",0,0,2,13)
  ShowMessage("She makes a good point...")
  0()
 IfPlayerPicksChoice(1,"生かすこと")
  ShowMessageFace("zonbe_fc2",0,0,2,14)
  ShowMessage("\\n<Zombie Swordsman>In that case... I do not wish to follow this path any longer...")
  355("change_friend(-5)")
  0()
 IfPlayerPicksChoice(2,"犯すこと")
  ShowMessageFace("zonbe_fc2",0,0,2,15)
  ShowMessage("\\n<Zombie Swordsman>It does not... But I want... Semen...")
  355("change_friend(10)")
  0()
 404()
 EndEventProcessing()
 0()
EndIf()
If(1,13,0,20,2)
 ShowMessageFace("zonbe_fc2",0,0,2,16)
 ShowMessage("\\n<Zombie Swordsman>In this age... who... is the strongest swordsman?")
 ShowChoices(strings("Granberia","Fernandez","Me"),0)
 IfPlayerPicksChoice(0,"グランベリア")
  ShowMessageFace("zonbe_fc2",0,0,2,17)
  ShowMessage("\\n<Zombie Swordsman>Uhh... Never heard of them... I want to fight... that person...")
  355("change_friend(10)")
  0()
 IfPlayerPicksChoice(1,"フェルナンデス")
  ShowMessageFace("zonbe_fc2",0,0,2,18)
  ShowMessage("\\n<Zombie Swordsman>Wait... She is still alive... in this era...?")
  0()
 IfPlayerPicksChoice(2,"僕")
  ShowMessageFace("zonbe_fc2",0,0,2,19)
  ShowMessage("\\n<Zombie Swordsman>In that case...let's duel...\nEven if my soul is destroyed...I still have my pride...")
  0()
 404()
 EndEventProcessing()
 0()
EndIf()
If(1,13,0,30,2)
 ShowMessageFace("zonbe_fc2",0,0,2,20)
 ShowMessage("\\n<Zombie Swordsman>My sword or my body... Which has decayed more...?")
 ShowChoices(strings("Your sword","Your body","Neither have decayed","Both have decayed"),0)
 IfPlayerPicksChoice(0,"剣")
  ShowMessageFace("zonbe_fc2",0,0,2,21)
  ShowMessage("\\n<Zombie Swordsman>Then I will use my own bones as a sword...")
  0()
 IfPlayerPicksChoice(1,"体")
  ShowMessageFace("zonbe_fc2",0,0,2,22)
  ShowMessage("\\n<Zombie Swordsman>As long as I have a sword, this body is...")
  0()
 IfPlayerPicksChoice(2,"両方朽ちない")
  ShowMessageFace("zonbe_fc2",0,0,2,23)
  ShowMessage("\\n<Zombie Swordsman>I see... As long as I have my fighting spirit, I will never decay...")
  355("change_friend(10)")
  0()
 IfPlayerPicksChoice(3,"両方朽ちてる")
  ShowMessageFace("zonbe_fc2",0,0,2,24)
  ShowMessage("\\n<Zombie Swordsman>Then I will let you have a taste...of my decayed sword and my decayed body...")
  355("change_friend(-5)")
  0()
 404()
 EndEventProcessing()
 0()
EndIf()
If(1,13,0,40,2)
 ShowMessageFace("zonbe_fc2",0,0,2,25)
 ShowMessage("\\n<Zombie Swordsman>Sooner or later there will come a time when I do not wield a sword... When that time comes, what should I do...?")
 ShowChoices(strings("Live peacefully in the mansion","Return to your grave","Continue to use a sword"),0)
 IfPlayerPicksChoice(0,"屋敷で静かに暮らす")
  ShowMessageFace("zonbe_fc2",0,0,2,26)
  ShowMessage("\\n<Zombie Swordsman>Something like that... does not suit me.")
  355("change_friend(-5)")
  0()
 IfPlayerPicksChoice(1,"墓に帰る")
  ShowMessageFace("zonbe_fc2",0,0,2,27)
  ShowMessage("\\n<Zombie Swordsman>Return to that place... Return... That is reasonable...")
  0()
 IfPlayerPicksChoice(2,"それでも剣を持つ")
  ShowMessageFace("zonbe_fc2",0,0,2,28)
  ShowMessage("\\n<Zombie Swordsman>I see... No matter where I am, I am a swordsman...")
  355("change_friend(10)")
  0()
 404()
 EndEventProcessing()
 0()
EndIf()
If(1,13,0,50,2)
 ShowMessageFace("zonbe_fc2",0,0,2,29)
 ShowMessage("\\n<Zombie Swordsman>I do not remember more than half the day... What was I doing during that time...?")
 ShowChoices(strings("Sleeping","Dancing","Sword training"),0)
 IfPlayerPicksChoice(0,"眠っている")
  ShowMessageFace("zonbe_fc2",0,0,2,30)
  ShowMessage("\\n<Zombie Swordsman>A body that craves inactivity... That's unfortunate...")
  0()
 IfPlayerPicksChoice(1,"踊っている")
  ShowMessageFace("zonbe_fc2",0,0,2,31)
  ShowMessage("\\n<Zombie Swordsman>Taunting me...")
  355("change_friend(-5)")
  0()
 IfPlayerPicksChoice(2,"剣の修行")
  ShowMessageFace("zonbe_fc2",0,0,2,32)
  ShowMessage("\\n<Zombie Swordsman>I hope so... I have a sword, even during that time...")
  355("change_friend(10)")
  0()
 404()
 EndEventProcessing()
 0()
EndIf()
DefineLabel("要求")
ChangeVariable(13,13,0,2,1,30)
If(1,13,0,10,2)
 If(8,11)
  ShowMessageFace("zonbe_fc2",0,0,2,33)
  ShowMessage("\\n<Zombie Swordsman>Uhh... Phoenix Tail...")
  ChangeVariable(24,24,0,3,0,11,0)
  ShowMessageFace("",0,0,2,34)
  ShowMessage("Do you want to give a \\ii[11]? (Have:\\V[24])")
  ShowChoices(strings("Yes","No"),2)
  IfPlayerPicksChoice(0,"Yes")
   ShowMessageFace("zonbe_fc2",0,0,2,35)
   ShowMessage("\\n<Zombie Swordsman>Thanks...")
   ChangeInventory_Item(11,1,0,1)
   355("change_friend(20)")
   EndEventProcessing()
   0()
  IfPlayerPicksChoice(1,"No")
   ShowMessageFace("zonbe_fc2",0,0,2,36)
   ShowMessage("\\n<Zombie Swordsman>......")
   EndEventProcessing()
   0()
  404()
  0()
 Else()
  ChangeVariable(13,13,0,0,20)
  0()
 EndIf()
 0()
EndIf()
If(1,13,0,20,2)
 If(8,329)
  ShowMessageFace("zonbe_fc2",0,0,2,37)
  ShowMessage("\\n<Zombie Swordsman>Uhh... Meat...")
  ChangeVariable(24,24,0,3,0,329,0)
  ShowMessageFace("",0,0,2,38)
  ShowMessage("Do you want to give some \\ii[329]? (Have:\\V[24])")
  ShowChoices(strings("Yes","No"),2)
  IfPlayerPicksChoice(0,"Yes")
   ShowMessageFace("zonbe_fc2",0,0,2,39)
   ShowMessage("\\n<Zombie Swordsman>Thanks...")
   ChangeInventory_Item(329,1,0,1)
   355("change_friend(30)")
   EndEventProcessing()
   0()
  IfPlayerPicksChoice(1,"No")
   ShowMessageFace("zonbe_fc2",0,0,2,40)
   ShowMessage("\\n<Zombie Swordsman>......")
   EndEventProcessing()
   0()
  404()
  0()
 Else()
  ChangeVariable(13,13,0,0,30)
  0()
 EndIf()
 0()
EndIf()
If(1,13,0,30,2)
 ShowMessageFace("zonbe_fc2",0,0,2,41)
 ShowMessage("\\n<Zombie Swordsman>I want to repair a sword wound... Funds...")
 If(7,69,0)
  ChangeVariable(24,24,0,3,7,2,0)
  ShowMessageFace("",0,0,2,42)
  ShowMessage("Do you want to give 69G? (Remaining: \\V[24])")
  ShowChoices(strings("Yes","No"),2)
  IfPlayerPicksChoice(0,"Yes")
   ShowMessageFace("zonbe_fc2",0,0,2,43)
   ShowMessage("\\n<Zombie Swordsman>Thanks...")
   125(1,0,69)
   355("change_friend(25)")
   EndEventProcessing()
   0()
  IfPlayerPicksChoice(1,"No")
   ShowMessageFace("zonbe_fc2",0,0,2,44)
   ShowMessage("\\n<Zombie Swordsman>......")
   EndEventProcessing()
   0()
  404()
  0()
 Else()
  ShowMessageFace("zonbe_fc2",0,0,2,45)
  ShowMessage("\\n<Zombie Swordsman>None...")
  EndEventProcessing()
  0()
 EndIf()
 0()
EndIf()
DefineLabel("贈与")
ChangeVariable(13,13,0,2,1,30)
If(1,25,0,1,0)
 ChangeVariable(13,13,0,0,30)
 ChangeVariable(25,25,0,0,0)
 0()
EndIf()
If(1,25,0,2,0)
 ChangeVariable(13,13,0,2,1,20)
 ChangeVariable(25,25,0,0,0)
 0()
EndIf()
If(1,13,0,10,2)
 ShowMessageFace("zonbe_fc2",0,0,2,46)
 ShowMessage("\\n<Zombie Swordsman>Strange powder... I entrust it to you...")
 250(bytes(0x04,0x08,0x6f,0x3a,0x0c,0x52,0x50,0x47,0x3a,0x3a,0x53,0x45,0x08,0x3a,0x0a,0x40,0x6e,0x61,0x6d,0x65,0x49,0x22,0x0a,0x49,0x74,0x65,0x6d,0x31,0x06,0x3a,0x06,0x45,0x54,0x3a,0x0b,0x40,0x70,0x69,0x74,0x63,0x68,0x69,0x69,0x3a,0x0c,0x40,0x76,0x6f,0x6c,0x75,0x6d,0x65,0x69,0x55))
 ChangeInventory_Item(186,0,0,1)
 ShowMessageFace("",0,0,2,47)
 ShowMessage("The Zombie Swordsman gave you some \\ii[186]!")
 EndEventProcessing()
 0()
EndIf()
If(1,13,0,20,2)
 ShowMessageFace("zonbe_fc2",0,0,2,48)
 ShowMessage("\\n<Zombie Swordsman>Spare weapon... Use it.")
 250(bytes(0x04,0x08,0x6f,0x3a,0x0c,0x52,0x50,0x47,0x3a,0x3a,0x53,0x45,0x08,0x3a,0x0a,0x40,0x6e,0x61,0x6d,0x65,0x49,0x22,0x0a,0x49,0x74,0x65,0x6d,0x31,0x06,0x3a,0x06,0x45,0x54,0x3a,0x0b,0x40,0x70,0x69,0x74,0x63,0x68,0x69,0x69,0x3a,0x0c,0x40,0x76,0x6f,0x6c,0x75,0x6d,0x65,0x69,0x55))
 ChangeInventoryWeapon(11,0,0,1,false)
 ShowMessageFace("",0,0,2,49)
 ShowMessage("The Zombie Swordsman gave you a \\iw[11]!")
 EndEventProcessing()
 0()
EndIf()
If(1,13,0,30,2)
 ShowMessageFace("zonbe_fc2",0,0,2,50)
 ShowMessage("\\n<Zombie Swordsman>When life is lost, things like this are left behind... It's not much, but... Take it...")
 250(bytes(0x04,0x08,0x6f,0x3a,0x0c,0x52,0x50,0x47,0x3a,0x3a,0x53,0x45,0x08,0x3a,0x0a,0x40,0x6e,0x61,0x6d,0x65,0x49,0x22,0x0a,0x49,0x74,0x65,0x6d,0x31,0x06,0x3a,0x06,0x45,0x54,0x3a,0x0b,0x40,0x70,0x69,0x74,0x63,0x68,0x69,0x69,0x3a,0x0c,0x40,0x76,0x6f,0x6c,0x75,0x6d,0x65,0x69,0x55))
 125(0,0,115)
 ShowMessageFace("",0,0,2,51)
 ShowMessage("The Zombie Swordsman gave you 115G!")
 EndEventProcessing()
 0()
EndIf()
0()
