// EVENT 4097
Name "Rumi & Remi"

If(0,25,1)
 221()
 PictureClear(5)
 PictureClear(6)
 ShowMessageFace("",0,0,2,0)
 ShowMessage("......")
 242(2)
 Wait(120)
 241(bytes(0x04,0x08,0x6f,0x3a,0x0d,0x52,0x50,0x47,0x3a,0x3a,0x42,0x47,0x4d,0x08,0x3a,0x0a,0x40,0x6e,0x61,0x6d,0x65,0x49,0x22,0x0c,0x63,0x61,0x73,0x74,0x6c,0x65,0x36,0x06,0x3a,0x06,0x45,0x54,0x3a,0x0c,0x40,0x76,0x6f,0x6c,0x75,0x6d,0x65,0x69,0x69,0x3a,0x0b,0x40,0x70,0x69,0x74,0x63,0x68,0x69,0x69))
 EndEventProcessing()
 0()
EndIf()
PictureDisplay(5,"80_inp_st01",0,0,0,0,100,100,255,0)
ShowMessageFace("inp_fc1",0,0,2,1)
ShowMessage("\\n<Rami>You want to do lewd things with all three of us? How indulgent of you. ♪")
ShowMessageFace("inp_fc3",0,0,2,2)
ShowMessage("\\n<Rumi>......")
ShowMessageFace("inp_fc2",0,0,2,3)
ShowMessage("\\n<Remi>......")
ShowMessageFace("",0,0,2,4)
ShowMessage("\\n<Luka>P-please...")
ShowMessageFace("",0,0,2,5)
ShowMessage("The imps exchange glances for a few moments before Rami turns to me with a smug smile.")
PictureDisplay(5,"80_inp_st02",0,0,0,0,100,100,255,0)
ShowMessageFace("inp_fc1",1,0,2,6)
ShowMessage("\\n<Rami>...okay, we'll play with you.\nLet's go find a room. ♪")
ShowMessageFace("",0,0,2,7)
ShowMessage("Thus, the imps and I go find a private room--")
221()
PictureClear(5)
PictureDisplay(1,"bg195",0,0,0,0,100,100,255,0)
PictureDisplay(5,"ev_inp_hf1",0,0,0,0,100,100,255,0)
222()
241(bytes(0x04,0x08,0x6f,0x3a,0x0d,0x52,0x50,0x47,0x3a,0x3a,0x42,0x47,0x4d,0x08,0x3a,0x0a,0x40,0x6e,0x61,0x6d,0x65,0x49,0x22,0x09,0x65,0x72,0x6f,0x31,0x06,0x3a,0x06,0x45,0x54,0x3a,0x0c,0x40,0x76,0x6f,0x6c,0x75,0x6d,0x65,0x69,0x69,0x3a,0x0b,0x40,0x70,0x69,0x74,0x63,0x68,0x69,0x69))
245(bytes(0x04,0x08,0x6f,0x3a,0x0d,0x52,0x50,0x47,0x3a,0x3a,0x42,0x47,0x53,0x08,0x3a,0x0a,0x40,0x6e,0x61,0x6d,0x65,0x49,0x22,0x10,0x6d,0x6f,0x6e,0x5f,0x68,0x76,0x6f,0x69,0x63,0x65,0x33,0x06,0x3a,0x06,0x45,0x54,0x3a,0x0c,0x40,0x76,0x6f,0x6c,0x75,0x6d,0x65,0x69,0x55,0x3a,0x0b,0x40,0x70,0x69,0x74,0x63,0x68,0x69,0x69))
ShowMessageFace("",0,0,2,8)
ShowMessage("\\n<Luka>Ahh...")
ShowMessageFace("",0,0,2,9)
ShowMessage("The imps turn me over into a disgraceful position and begin ravishing me.")
ShowMessageFace("",0,0,2,10)
ShowMessage("Rumi sticks her tongue out toward my ass...")
ShowMessage("And Remi swallows my penis!")
ShowMessageFace("",0,0,2,11)
ShowMessage("\\n<Luka>Ahh...")
ShowMessageFace("",0,0,2,12)
ShowMessage("I moan in surprise as the sudden stimulation comes over me.")
ShowMessageFace("",0,0,2,13)
ShowMessage("Remi's small mouth drips with saliva as she eagerly sucks on me.")
ShowMessageFace("",0,0,2,14)
ShowMessage("Her small lips rub and press against my penis, as if she was trying to chew on me without using her teeth.")
ShowMessageFace("inp_fc3",1,0,2,15)
ShowMessage("\\n<Rumi>Nnn... *Lick*")
ShowMessageFace("",0,0,2,16)
ShowMessage("\\n<Luka>Ah!\nDon't lick there!")
ShowMessageFace("",0,0,2,17)
ShowMessage("Rumi starts licking at my anus, her tongue racing around the hole.")
ShowMessageFace("",0,0,2,18)
ShowMessage("Her quick tongue darts around the outside, only invading inside for a second...")
ShowMessageFace("",0,0,2,19)
ShowMessage("\\n<Luka>Ah...")
ShowMessageFace("inp_fc1",1,0,2,20)
ShowMessage("\\n<Rami>Ehehe... Rumi's ass licking is amazing, isn't it?")
ShowMessageFace("inp_fc1",1,0,2,21)
ShowMessage("\\n<Imp>All of us love licking a little bit...\nBut she loves it the most.")
ShowMessageFace("inp_fc1",1,0,2,22)
ShowMessage("\\n<Rami>When she licks people, they always feel so good they can't stop themselves from peeing.")
ShowMessageFace("inp_fc3",1,0,2,23)
ShowMessage("\\n<Rumi>*Lick* *Lick*")
ShowMessageFace("",0,0,2,24)
ShowMessage("Her small tongue runs around my anus, slowly building up her saliva with pass after pass.")
ShowMessageFace("",0,0,2,25)
ShowMessage("Every so often, her quick tongue darts in and out of my anus, so fast it's like a tiny piston.")
ShowMessageFace("",0,0,2,26)
ShowMessage("\\n<Luka>Ahh!")
ShowMessageFace("",0,0,2,27)
ShowMessage("The sudden movements make my waist push forward into the back of Remi's throat as she sucks on me from the front.")
ShowMessageFace("",0,0,2,28)
ShowMessage("Far from being surprised, she uses the thrusts to suck on my tip even harder.")
ShowMessageFace("",0,0,2,29)
ShowMessage("\\n<Luka>Ahh...")
ShowMessageFace("inp_fc1",1,0,2,30)
ShowMessage("\\n<Rami>Ehe... Remi's mouth techniques are unbearable, aren't they?")
ShowMessageFace("inp_fc1",1,0,2,31)
ShowMessage("\\n<Rami>She won't let go until she's made you come at least five times, too.")
ShowMessageFace("inp_fc1",1,0,2,32)
ShowMessage("\\n<Rami>She'll suck up your semen, straight from your roots.\nAhaha, you look so pitiful!")
ShowMessageFace("inp_fc2",1,0,2,33)
ShowMessage("\\n<Remi>Mmm... *Suck*")
ShowMessageFace("",0,0,2,34)
ShowMessage("Remi slowly sucks harder, pulling my penis deeper into her small mouth.")
ShowMessage("The vacuum-like suction washes pleasure over me like a wave.")
ShowMessageFace("",0,0,2,35)
ShowMessage("Her quick tongue movements feel like another creature entirely in her mouth, skillfully licking every inch of my tip as she sucks.")
ShowMessageFace("",0,0,2,36)
ShowMessage("\\n<Luka>Ahh!")
ShowMessageFace("",0,0,2,37)
ShowMessage("With the two of them licking my penis and ass at the same time, my body rocks back and forth, stuck between the two sources of pleasure.")
ShowMessageFace("",0,0,2,38)
ShowMessage("My body twitches and spasms, as I'm left unable to hold back my rising desire any longer.")
ShowMessageFace("",0,0,2,39)
ShowMessage("\\n<Luka>Ahh... I'm going to come...")
ShowMessageFace("inp_fc2",1,0,2,40)
ShowMessage("\\n<Remi>Nnn... *Lick*")
ShowMessageFace("",0,0,2,41)
ShowMessage("The moment I cry out about my coming orgasm, Remi sucks far harder than before, drawing me all the way inside her tight mouth.")
ShowMessageFace("",0,0,2,42)
ShowMessage("Her tiny mouth narrows as she sucks as hard as she can, her tongue licking rapidly back and forth across my glans.")
ShowMessageFace("",0,0,2,43)
ShowMessage("\\n<Luka>Ahhh!")
RunCommonEvent(104)
PictureDisplay(5,"ev_inp_hf2",0,0,0,0,100,100,255,0)
RunCommonEvent(105)
ShowMessageFace("",0,0,2,44)
ShowMessage("Feeling like she's sucking out my semen itself, I moan in ecstasy as I explode in her mouth.")
ShowMessageFace("inp_fc2",1,0,2,45)
ShowMessage("\\n<Remi>Nnn... *Gulp* *Gulp*")
ShowMessageFace("",0,0,2,46)
ShowMessage("Remi eagerly swallows my semen, gulping down each time I spurt inside her mouth.")
ShowMessage("Her cheeks narrow inward and rub against my glans with each swallow, eliciting a moan from me.")
ShowMessageFace("",0,0,2,47)
ShowMessage("\\n<Luka>Ahhh!")
ShowMessageFace("inp_fc3",1,0,2,48)
ShowMessage("\\n<Rumi>*Lick* *Lick*")
ShowMessageFace("",0,0,2,49)
ShowMessage("All during my ejaculation, Rumi continues licking my ass.")
ShowMessage("The two little Imps keep toying with me until my ejaculation is over.")
ShowMessageFace("",0,0,2,50)
ShowMessage("\\n<Luka>Ahh...")
ShowMessageFace("",0,0,2,51)
ShowMessage("Since the two of them were attacking me, I feel twice as drained as usual.")
ShowMessage("Feeling even weaker than before, there's nothing I can do to resist...")
ShowMessageFace("inp_fc1",1,0,2,52)
ShowMessage("\\n<Rami>Ahaha, she drank it all.\nBut there's a lot more to swallow still...")
ShowMessageFace("",0,0,2,53)
ShowMessage("\\n<Luka>S...Stop...\nAhhh!")
ShowMessageFace("inp_fc2",1,0,2,54)
ShowMessage("\\n<Remi>*Lick* *Suck*")
ShowMessageFace("inp_fc3",1,0,2,55)
ShowMessage("\\n<Rumi>*Lick*")
ShowMessageFace("",0,0,2,56)
ShowMessage("Without letting me rest, the two Imps continue teasing me.")
ShowMessage("If I try to pull out of Remi's mouth, then Rumi's tongue pushes me back in.")
ShowMessageFace("",0,0,2,57)
ShowMessage("Their warm saliva is covering both my penis and ass now, filling me with a strange warmth.")
ShowMessage("When Rumi's tongue darts into my ass itself, my waist jumps, bringing me deeper inside Remi's mouth.")
ShowMessageFace("",0,0,2,58)
ShowMessage("\\n<Luka>Ahh! Stop, stop!")
ShowMessageFace("inp_fc1",1,0,2,59)
ShowMessage("\\n<Rami>You're still saying that?")
ShowMessageFace("inp_fc1",1,0,2,60)
ShowMessage("\\n<Rami>Ok girls, finish him off in an instant!")
ShowMessageFace("inp_fc2",1,0,2,61)
ShowMessage("\\n<Remi>...*Suck* *Lick*")
ShowMessageFace("inp_fc3",1,0,2,62)
ShowMessage("\\n<Rumi>*Lick* *Lick* *Lick*")
ShowMessageFace("",0,0,2,63)
ShowMessage("\\n<Luka>Ahhh!")
245(bytes(0x04,0x08,0x6f,0x3a,0x0d,0x52,0x50,0x47,0x3a,0x3a,0x42,0x47,0x53,0x08,0x3a,0x0a,0x40,0x6e,0x61,0x6d,0x65,0x49,0x22,0x10,0x6d,0x6f,0x6e,0x5f,0x68,0x76,0x6f,0x69,0x63,0x65,0x34,0x06,0x3a,0x06,0x45,0x54,0x3a,0x0c,0x40,0x76,0x6f,0x6c,0x75,0x6d,0x65,0x69,0x55,0x3a,0x0b,0x40,0x70,0x69,0x74,0x63,0x68,0x69,0x69))
ShowMessageFace("",0,0,2,64)
ShowMessage("As their double attack suddenly increases in intensity, my eyes roll in the back of my head for a moment.")
ShowMessageFace("",0,0,2,65)
ShowMessage("Remi's vacuum-like mouth pulls even harder, causing my glans to rub against the back of her throat.")
ShowMessageFace("",0,0,2,66)
ShowMessage("At the same time, Rumi's tongue starts pushing in and out of my ass, the tiny thing acting almost like a piston raping me.")
ShowMessageFace("inp_fc2",1,0,2,68)
ShowMessage("\\n<Remi>*Suck* *Suck*")
ShowMessageFace("inp_fc3",1,0,2,69)
ShowMessage("\\n<Rumi>*Lick* *Lick* *Lick*")
ShowMessageFace("",0,0,2,70)
ShowMessage("\\n<Luka>Hyaaa! Stop!\nI'm going to come!")
ShowMessageFace("",0,0,2,71)
ShowMessage("I helplessly writhe between the two small girls, unable to stop my body from reacting.")
ShowMessageFace("",0,0,2,72)
ShowMessage("In only seconds of it, I'm already at the cliff of another orgasm.")
ShowMessageFace("inp_fc1",1,0,2,73)
ShowMessage("\\n<Rami>Ahaha, you really did finish him off in an instant.\nOk, finish him!")
ShowMessageFace("",0,0,2,74)
ShowMessage("At Rami's command, the two of them bring their torture of pleasure to the climax.")
ShowMessageFace("",0,0,2,75)
ShowMessage("Remi sucks me all the way in, and Rumi's tongue presses against my prostate...")
ShowMessageFace("",0,0,2,76)
ShowMessage("\\n<Luka>Aiiieee!!")
RunCommonEvent(104)
PictureDisplay(5,"ev_inp_hf3",0,0,0,0,100,100,255,0)
RunCommonEvent(105)
ShowMessageFace("inp_fc2",1,0,2,77)
ShowMessage("\\n<Remi>Nnn...")
ShowMessageFace("",0,0,2,78)
ShowMessage("Remi happily drinks the semen I spurt into her mouth, small droplets falling out of her tiny mouth as she gulps.")
ShowMessageFace("",0,0,2,79)
ShowMessage("\\n<Luka>Haa...")
ShowMessageFace("",0,0,2,80)
ShowMessage("I feel so weak... It's like she's drinking down my soul itself.")
ShowMessageFace("inp_fc2",1,0,2,81)
ShowMessage("\\n<Remi>Nnn... *Suck*")
ShowMessageFace("inp_fc3",1,0,2,82)
ShowMessage("\\n<Rumi>*Lick* *Lick*")
ShowMessageFace("",0,0,2,83)
ShowMessage("\\n<Luka>N...no... No more...\nStop... Ah...")
ShowMessageFace("",0,0,2,84)
ShowMessage("But the little Imps don't give me any time to breathe.")
ShowMessage("Their tongues, toying with me, don't stop for even a moment.")
ShowMessageFace("",0,0,2,85)
ShowMessage("My body is helplessly shaking between them, unable to do anything against their mouth's onslaught.")
ShowMessageFace("",0,0,2,86)
ShowMessage("\\n<Luka>Stop... No... Ahh...\nC...Coming...!")
RunCommonEvent(104)
PictureDisplay(5,"ev_inp_hf4",0,0,0,0,100,100,255,0)
RunCommonEvent(105)
ShowMessageFace("inp_fc2",1,0,2,87)
ShowMessage("\\n<Remi>Nnn... *Gulp* *Gulp*")
ShowMessageFace("",0,0,2,88)
ShowMessage("I erupt again inside her mouth.")
ShowMessage("Remi tries to drink it down as I spurt inside her, but some still drips out of the side of her mouth.")
ShowMessageFace("inp_fc3",1,0,2,89)
ShowMessage("\\n<Rumi>*Lick* *Lick*")
ShowMessageFace("",0,0,2,90)
ShowMessage("Some of the semen that splashed out of her mouth is eagerly licked up by Rumi.")
ShowMessage("The two little Imps are so happily feeding on my semen...")
ShowMessageFace("inp_fc1",1,0,2,91)
ShowMessage("\\n<Rami>Ahaha... You're just our prey now.\nWe're going to keep you and milk you like a cow. ♪")
ShowMessageFace("inp_fc2",1,0,2,92)
ShowMessage("\\n<Remi>*Suck* *Suck*")
ShowMessageFace("inp_fc3",1,0,2,93)
ShowMessage("\\n<Rumi>*Lick* *Lick*")
ShowMessageFace("",0,0,2,94)
ShowMessage("\\n<Luka>Ah...")
ShowMessageFace("",0,0,2,95)
ShowMessage("Thus, I'm now a simple sex slave for the imps...")
ShowMessage("They occasionally stop me in the hall and force me into a room to feed them my semen.")
ShowMessageFace("",0,0,2,96)
ShowMessage("The fact that these imps do with me as they please is a secret I could never tell my other companions--")
221()
PictureClear(5)
PictureClear(6)
246(2)
ShowMessageFace("",0,0,2,97)
ShowMessage("..............")
242(2)
Wait(120)
241(bytes(0x04,0x08,0x6f,0x3a,0x0d,0x52,0x50,0x47,0x3a,0x3a,0x42,0x47,0x4d,0x08,0x3a,0x0a,0x40,0x6e,0x61,0x6d,0x65,0x49,0x22,0x0c,0x63,0x61,0x73,0x74,0x6c,0x65,0x36,0x06,0x3a,0x06,0x45,0x54,0x3a,0x0c,0x40,0x76,0x6f,0x6c,0x75,0x6d,0x65,0x69,0x69,0x3a,0x0b,0x40,0x70,0x69,0x74,0x63,0x68,0x69,0x69))
0()
