﻿// EVENT 2292
Name "Seduction: Ribo-Ribo"

355("$game_troop.lose_event_id = 3292")
ChangeVariable(26,26,0,3,3,1,4)
ChangeVariable(26,26,4,0,10)
ShowMessageFace("libolibo_fc1",0,0,2,1)
ShowMessage("\\n<Ribo-Ribo>Combat situation, unfavorable.\nRestraining enemy immediately.")
355("battler_graphic_hide")
PictureDisplay(5,"ev_libolibo_h2",0,0,0,0,100,100,255,0)
PictureDisplay(6,"ev_libolibo_ct05",0,0,0,0,100,100,255,0)
ShowMessageFace("",0,0,2,2)
ShowMessage("Luka is restrained by Ribo-Ribo's capsule!\nAn extraction machine extends towards his crotch!")
ShowMessageFace("libolibo_fc1",0,0,2,3)
ShowMessage("\\n<Ribo-Ribo>Preparing to utilize specially-made semen extraction hole...")
ChangeSwitch(98,98,0)
ChangeSwitch(96,96,0)
ShowChoices(strings("Struggle","Let her continue"),1)
IfPlayerPicksChoice(0,null)
 ShowMessageFace("",0,0,2,4)
 ShowMessage("Luka struggles violently, and escapes from Ribo-Ribo's restraint!")
 RunCommonEvent(1999)
 EndEventProcessing()
 0()
IfPlayerPicksChoice(1,null)
 0()
404()
ShowMessageFace("libolibo_fc1",0,0,2,5)
ShowMessage("\\n<Ribo-Ribo>Extraction hole, commencing operation...")
ChangeVariable(26,26,3,0,4)
250(bytes(0x04,0x08,0x6f,0x3a,0x0c,0x52,0x50,0x47,0x3a,0x3a,0x53,0x45,0x08,0x3a,0x0a,0x40,0x6e,0x61,0x6d,0x65,0x49,0x22,0x12,0x6d,0x6f,0x6e,0x5f,0x65,0x72,0x6f,0x5f,0x76,0x61,0x63,0x75,0x6d,0x06,0x3a,0x06,0x45,0x54,0x3a,0x0b,0x40,0x70,0x69,0x74,0x63,0x68,0x69,0x69,0x3a,0x0c,0x40,0x76,0x6f,0x6c,0x75,0x6d,0x65,0x69,0x69))
PictureDisplay(6,"ev_libolibo_ct06",0,0,0,0,100,100,255,0)
311(0,1,1,1,26,true)
ShowMessageFace("",0,0,2,6)
ShowMessage("Ribo-Ribo's extraction hole vacuums Luka's penis!\nFrom the tip to his base, his penis is exposed to a powerful suction!\\D")
ShowMessage("Luka takes \\V[26] damage!")
ChangeVariable(27,27,0,3,3,1,2)
If(1,27,0,0,0)
 JumpToLabel("射精1")
 0()
EndIf()
ShowMessageFace("libolibo_fc1",0,0,2,7)
ShowMessage("\\n<Ribo-Ribo>Continuing vacuum...\nCombining use of vibration...")
250(bytes(0x04,0x08,0x6f,0x3a,0x0c,0x52,0x50,0x47,0x3a,0x3a,0x53,0x45,0x08,0x3a,0x0a,0x40,0x6e,0x61,0x6d,0x65,0x49,0x22,0x12,0x6d,0x6f,0x6e,0x5f,0x65,0x72,0x6f,0x5f,0x76,0x61,0x63,0x75,0x6d,0x06,0x3a,0x06,0x45,0x54,0x3a,0x0b,0x40,0x70,0x69,0x74,0x63,0x68,0x69,0x69,0x3a,0x0c,0x40,0x76,0x6f,0x6c,0x75,0x6d,0x65,0x69,0x69))
311(0,1,1,1,26,true)
ShowMessageFace("",0,0,2,8)
ShowMessage("The inside of Ribo-Ribo's hole shakes, exposing Luka's penis to vibrations! The simultaneous vibrations and suction pour a sweet numbness on his dick!\\D")
ShowMessage("Luka takes \\V[26] damage!")
ChangeVariable(27,27,0,3,3,1,2)
If(1,27,0,0,0)
 JumpToLabel("射精1")
 0()
EndIf()
ShowMessageFace("libolibo_fc1",0,0,2,9)
ShowMessage("\\n<Ribo-Ribo>Ejaculation imminent...\nContinuing vacuum and vibration...")
250(bytes(0x04,0x08,0x6f,0x3a,0x0c,0x52,0x50,0x47,0x3a,0x3a,0x53,0x45,0x08,0x3a,0x0a,0x40,0x6e,0x61,0x6d,0x65,0x49,0x22,0x12,0x6d,0x6f,0x6e,0x5f,0x65,0x72,0x6f,0x5f,0x76,0x61,0x63,0x75,0x6d,0x06,0x3a,0x06,0x45,0x54,0x3a,0x0b,0x40,0x70,0x69,0x74,0x63,0x68,0x69,0x69,0x3a,0x0c,0x40,0x76,0x6f,0x6c,0x75,0x6d,0x65,0x69,0x69))
311(0,1,1,1,26,true)
ShowMessageFace("",0,0,2,10)
ShowMessage("The inside of Ribo-Ribo's hole vibrates intensely, encouraging a feeling of ejaculation! Her vacuum stimulates his glans, leading him to a climax!\\D")
ShowMessage("Luka takes \\V[26] damage!")
ChangeVariable(27,27,0,3,3,1,2)
If(1,27,0,0,0)
 JumpToLabel("射精1")
 0()
EndIf()
DefineLabel("射精1")
ShowMessageFace("",0,0,2,11)
ShowMessage("\\n<Luka>No, I'm coming... Aaaah...")
RunCommonEvent(104)
PictureDisplay(5,"ev_libolibo_h3",0,0,0,0,100,100,255,0)
PictureDisplay(6,"ev_libolibo_ct07",0,0,0,0,100,100,255,0)
RunCommonEvent(105)
ShowMessageFace("",0,0,2,12)
ShowMessage("I release my semen into Ribo-Ribo's extraction hole.\nI tasted a stimulation similar to being sucked on as my semen was squeezed out.")
PictureDisplay(6,"ev_libolibo_ct08",0,0,0,0,100,100,255,0)
ShowMessageFace("libolibo_fc1",0,0,2,13)
ShowMessage("\\n<Ribo-Ribo>Sperm absorbed...\nCollecting as a sample...")
RunCommonEvent(2000)
EndEventProcessing()
0()
