// EVENT 3374
Name "S-2"

PictureDisplay(5,"80_c_s2_st02",0,0,0,0,100,100,0,0)
PictureMove(5,null,0,0,0,0,100,100,255,0,30,true)
241(bytes(0x04,0x08,0x6f,0x3a,0x0d,0x52,0x50,0x47,0x3a,0x3a,0x42,0x47,0x4d,0x08,0x3a,0x0a,0x40,0x6e,0x61,0x6d,0x65,0x49,0x22,0x09,0x65,0x72,0x6f,0x31,0x06,0x3a,0x06,0x45,0x54,0x3a,0x0c,0x40,0x76,0x6f,0x6c,0x75,0x6d,0x65,0x69,0x69,0x3a,0x0b,0x40,0x70,0x69,0x74,0x63,0x68,0x69,0x69))
ShowMessageFace("",0,0,2,1)
ShowMessage("\\n<Luka>")
ShowMessage("Unnngh...")
ShowMessageFace("c_s2_fc1",0,0,2,2)
ShowMessage("\\n<S-2>")
ShowMessage("I beat you...")
ShowMessage("I can't resist it any longer!")
ShowMessageFace("",0,0,2,3)
ShowMessage("The sticky mucus covers my lower body as I fall to the floor, exhausted.")
ShowMessage("Grabbing hold of me, she spreads open my legs wide in front of her eyes.")
ShowMessageFace("c_s2_fc1",0,0,2,4)
ShowMessage("\\n<S-2>")
ShowMessage("I'll play with your penis...")
ShowMessage("And let you spray out your baby juice until you're empty!")
250(bytes(0x04,0x08,0x6f,0x3a,0x0c,0x52,0x50,0x47,0x3a,0x3a,0x53,0x45,0x08,0x3a,0x0a,0x40,0x6e,0x61,0x6d,0x65,0x49,0x22,0x16,0x6d,0x6f,0x6e,0x5f,0x65,0x72,0x6f,0x5f,0x6d,0x61,0x6b,0x69,0x74,0x75,0x6b,0x69,0x33,0x06,0x3a,0x06,0x45,0x54,0x3a,0x0b,0x40,0x70,0x69,0x74,0x63,0x68,0x69,0x69,0x3a,0x0c,0x40,0x76,0x6f,0x6c,0x75,0x6d,0x65,0x69,0x69))
245(bytes(0x04,0x08,0x6f,0x3a,0x0d,0x52,0x50,0x47,0x3a,0x3a,0x42,0x47,0x53,0x08,0x3a,0x0a,0x40,0x6e,0x61,0x6d,0x65,0x49,0x22,0x1a,0x6d,0x6f,0x6e,0x5f,0x68,0x73,0x65,0x61,0x6e,0x32,0x30,0x5f,0x74,0x65,0x6e,0x74,0x61,0x63,0x6c,0x65,0x31,0x06,0x3a,0x06,0x45,0x54,0x3a,0x0c,0x40,0x76,0x6f,0x6c,0x75,0x6d,0x65,0x69,0x55,0x3a,0x0b,0x40,0x70,0x69,0x74,0x63,0x68,0x69,0x69))
PictureDisplay(5,"ev_c_s2_ha1",0,0,0,0,100,100,255,0)
ShowMessageFace("",0,0,2,5)
ShowMessage("The tentacle, covered in sticky mucus, clings to my penis.")
ShowMessage("Her tentacle is surprisingly soft and warm.")
ShowMessageFace("",0,0,2,6)
ShowMessage("The strange feeling makes me unconsciously shake my waist.")
ShowMessageFace("",0,0,2,7)
ShowMessage("\\n<Luka>")
ShowMessage("Ah... Ahhh!")
ShowMessageFace("c_s2_fc1",0,0,2,8)
ShowMessage("\\n<S-2>")
ShowMessage("...Is it good?")
ShowMessage("My tentacle can quickly make any man ejaculate...")
ShowMessageFace("",0,0,2,9)
ShowMessage("\\n<Luka>")
ShowMessage("I...It doesn't feel good... Ahhn!")
ShowMessageFace("",0,0,2,10)
ShowMessage("The touch of the tentacle winding around me cuts short my words of rejection.")
ShowMessage("While softly laughing, S-2's tentacle continues winding around my penis.")
ShowMessageFace("",0,0,2,11)
ShowMessage("It slowly coils up my penis, wrapping around and covering more and more of it.")
ShowMessage("Her skillful control makes it feel like she really is just playing with it...")
ShowMessageFace("",0,0,2,12)
ShowMessage("\\n<Luka>")
ShowMessage("Ah...!")
ShowMessage("S...Stop it!")
ShowMessageFace("c_s2_fc1",0,0,2,13)
ShowMessage("\\n<S-2>")
ShowMessage("You said it doesn't feel good?")
ShowMessage("But then why are you moaning like that?")
ShowMessageFace("",0,0,2,14)
ShowMessage("While smiling and laughing, she continues moving her tentacle up my penis.")
ShowMessage("Her movements make it obvious that she knows what she's doing...")
ShowMessageFace("",0,0,2,15)
ShowMessage("The tip of the tentacle plays with my urethral opening, as the rest of it rubs and squeezes my shaft and back muscle.")
ShowMessage("At times the tentacle entwines around my entire glans and squeezes it.")
ShowMessageFace("",0,0,2,16)
ShowMessage("In addition, the whole thing is slowly moving up and down underneath the neck of my penis.")
ShowMessage("Every movement is calculated to encourage a man to climax.")
ShowMessageFace("",0,0,2,17)
ShowMessage("\\n<Luka>")
ShowMessage("Ah, aaaah...!")
ShowMessageFace("",0,0,2,18)
ShowMessage("The gentle caress of the tentacle causes the energy to drain from my lower body.")
ShowMessage("My will to resist slowly fades as my body surrenders itself to her tentacle.")
ShowMessageFace("",0,0,2,19)
ShowMessage("The humiliation at being played with is already quickly fading.")
ShowMessage("Replacing it instead is a sweet, aching sensation from my lower body.")
ShowMessageFace("",0,0,2,20)
ShowMessage("As she diligently toys with my penis, the ability to stop my orgasm from coming is slowly being taken away.")
ShowMessageFace("",0,0,2,21)
ShowMessage("\\n<Luka>")
ShowMessage("Stop... I'm about to come...")
ShowMessageFace("c_s2_fc1",0,0,2,22)
ShowMessage("\\n<S-2>")
ShowMessage("Are you already going to shoot out your baby juice...?")
ShowMessageFace("",0,0,2,23)
ShowMessage("Laughing at my cry, S-2's tentacles get even more intense.")
ShowMessage("Her movements get rougher the closer I am to my limit.")
ShowMessageFace("",0,0,2,24)
ShowMessage("Her tentacles tighten around my penis as they stroke even harder.")
ShowMessage("As the tip of her tentacle rubs on my glans, my head goes blank.")
ShowMessageFace("",0,0,2,25)
ShowMessage("\\n<Luka>")
ShowMessage("Ah, aaaaaah!!")
RunCommonEvent(104)
PictureDisplay(5,"ev_c_s2_ha2",0,0,0,0,100,100,255,0)
RunCommonEvent(105)
ShowMessageFace("",0,0,2,26)
ShowMessage("S-2 looks at me with a satisfied look in her eye as I come, spraying semen all over her tentacle.")
ShowMessageFace("c_s2_fc1",0,0,2,27)
ShowMessage("\\n<S-2>")
ShowMessage("The baby juice leaked out...")
ShowMessage("You came from my tentacle...")
ShowMessageFace("",0,0,2,28)
ShowMessage("\\n<Luka>")
ShowMessage("Ah... Ahh...")
ShowMessageFace("c_s2_fc1",0,0,2,29)
ShowMessage("\\n<S-2>")
ShowMessage("I'll play with your penis even more...")
245(bytes(0x04,0x08,0x6f,0x3a,0x0d,0x52,0x50,0x47,0x3a,0x3a,0x42,0x47,0x53,0x08,0x3a,0x0a,0x40,0x6e,0x61,0x6d,0x65,0x49,0x22,0x17,0x6d,0x6f,0x6e,0x5f,0x68,0x73,0x65,0x61,0x6e,0x31,0x39,0x5f,0x73,0x6c,0x69,0x6d,0x65,0x32,0x06,0x3a,0x06,0x45,0x54,0x3a,0x0c,0x40,0x76,0x6f,0x6c,0x75,0x6d,0x65,0x69,0x55,0x3a,0x0b,0x40,0x70,0x69,0x74,0x63,0x68,0x69,0x69))
PictureDisplay(5,"ev_c_s2_ha3",0,0,0,0,100,100,255,0)
ShowMessageFace("",0,0,2,30)
ShowMessage("S-2 sprays a large amount of frothy mucus on my penis, quickly covering it.")
ShowMessageFace("",0,0,2,31)
ShowMessage("The strange, sticky sensation mixes with the caress of the tentacle, bringing about a much more intense sensation.")
ShowMessageFace("",0,0,2,32)
ShowMessage("\\n<Luka>")
ShowMessage("Hnnaaa...")
ShowMessageFace("",0,0,2,33)
ShowMessage("Even though it looks grotesque, the incredible sensation of her warm mucus makes me sigh.")
ShowMessage("Her amoeba-like mucus acts like it's devouring my penis but feels absolutely fantastic.")
ShowMessageFace("",0,0,2,34)
ShowMessage("Even though my mind feels miserable by being played with by such a monster, my body is rejoicing in the pleasure of a man.")
ShowMessageFace("c_s2_fc1",0,0,2,35)
ShowMessage("\\n<S-2>")
ShowMessage("A penis is supposed to go into a female when it ejaculates...")
ShowMessage("If you spray your baby juice all out here, you won't make a baby you know?")
ShowMessageFace("",0,0,2,36)
ShowMessage("\\n<Luka>")
ShowMessage("Ah, auuu...")
ShowMessageFace("",0,0,2,37)
ShowMessage("Even if it's horrifying, I can't fight against this pleasure...")
ShowMessage("I relax my body, giving myself over to the sensations of the mucus.")
ShowMessageFace("",0,0,2,38)
ShowMessage("The tentacle coiled around my penis starts to wriggle.")
ShowMessage("Lubricated by the bubble-like mucus, the stimulation is much more intense.")
ShowMessageFace("",0,0,2,39)
ShowMessage("\\n<Luka>")
ShowMessage("Ah... Ah...")
ShowMessageFace("",0,0,2,40)
ShowMessage("Gasping in surprise, I push up my waist toward it before I can stop myself.")
ShowMessage("Another dull ache fills my lower body, and takes over my brain.")
ShowMessageFace("",0,0,2,41)
ShowMessage("\\n<Luka>")
ShowMessage("N...no... Ahhh!")
RunCommonEvent(104)
PictureDisplay(5,"ev_c_s2_ha4",0,0,0,0,100,100,255,0)
RunCommonEvent(105)
ShowMessageFace("",0,0,2,42)
ShowMessage("Surprisingly fast, I come again.")
ShowMessage("It came on so quickly, it felt more like an accidental ejaculation than a real orgasm.")
ShowMessageFace("",0,0,2,43)
ShowMessage("\\n<Luka>")
ShowMessage("Unnngh...")
ShowMessageFace("c_s2_fc1",0,0,2,44)
ShowMessage("\\n<S-2>")
ShowMessage("You came again...")
ShowMessage("I need to punish this little, quick coming penis.")
ShowMessageFace("",0,0,2,45)
ShowMessage("The tentacles and bubbles start to squirm far more intensely.")
ShowMessage("Sensitive right after my orgasm, the stimulation is way beyond any from before.")
ShowMessageFace("",0,0,2,46)
ShowMessage("\\n<Luka>")
ShowMessage("Ah, aaaaaah!!")
ShowMessageFace("",0,0,2,47)
ShowMessage("My body bends, as the agonizing pleasure takes hold of my every sense.")
ShowMessage("It feels like she's intensely scrubbing my penis clean inside her bubble-like mucus.")
ShowMessageFace("",0,0,2,48)
ShowMessage("Her tight tentacle goes up and down my shaft, while the warm mucus makes it feel hot and sticky.")
ShowMessage("The combination of sensations is far too much for me.")
ShowMessageFace("",0,0,2,49)
ShowMessage("\\n<Luka>")
ShowMessage("Ah...! Hyaaaa!")
RunCommonEvent(104)
PictureDisplay(5,"ev_c_s2_ha5",0,0,0,0,100,100,255,0)
RunCommonEvent(105)
ShowMessageFace("",0,0,2,50)
ShowMessage("I'm quickly forced to another height from the unrelenting pleasure.")
ShowMessage("But even after I came again, S-2 doesn't stop the torture.")
ShowMessageFace("c_s2_fc1",0,0,2,51)
ShowMessage("\\n<S-2>")
ShowMessage("Let out more baby juice...")
ShowMessageFace("",0,0,2,52)
ShowMessage("\\n<Luka>")
ShowMessage("Hyaaaa!!")
RunCommonEvent(104)
RunCommonEvent(105)
ShowMessageFace("",0,0,2,53)
ShowMessage("The compounded stimulations force me to orgasm after orgasm.")
ShowMessage("All the while, S-2 is more and more amused by everything.")
ShowMessageFace("",0,0,2,54)
ShowMessage("It's a hell of continual ejaculations...")
ShowMessageFace("c_s2_fc1",0,0,2,55)
ShowMessage("\\n<S-2>")
ShowMessage("Come again!")
ShowMessageFace("",0,0,2,56)
ShowMessage("\\n<Luka>")
ShowMessage("Stop it already! Ahhh!")
RunCommonEvent(104)
RunCommonEvent(105)
ShowMessageFace("",0,0,2,57)
ShowMessage("Like that, I'm forced to come over and over until my heart and soul are in tatters.")
ShowMessageFace("",0,0,2,58)
ShowMessage("\\n<Luka>")
ShowMessage("Ah...ah...")
RunCommonEvent(104)
RunCommonEvent(105)
ShowMessageFace("c_s2_fc1",0,0,2,59)
ShowMessage("\\n<S-2>")
ShowMessage("The baby juice isn't coming out anymore...")
ShowMessage("Your penis is still twitching, but it's empty...")
ShowMessageFace("",0,0,2,60)
ShowMessage("I feel the orgasms, but no semen is coming out.")
ShowMessage("I don't know if I'm truly empty, or if something broke...")
ShowMessageFace("",0,0,2,61)
ShowMessage("\\n<Luka>")
ShowMessage("Ah...Aa...")
ShowMessageFace("c_s2_fc1",0,0,2,62)
ShowMessage("\\n<S-2>")
ShowMessage("But I won't let you escape...")
ShowMessage("As soon as more semen is produced, I'll squeeze it out right away.")
ShowMessageFace("",0,0,2,63)
ShowMessage("\\n<Luka>")
ShowMessage("N...no...")
ShowMessageFace("",0,0,2,64)
ShowMessage("As the despair washes over me, I feel myself fainting.")
ShowMessage("The pleasure and fear mix together, making me black out.")
221()
PictureClear(5)
PictureClear(6)
246(2)
ShowMessageFace("",0,0,2,65)
ShowMessage("Thus, defeated by the experimental organism, I became its prey.")
ShowMessage("As I let out tears of frustration, she squeezes me completely dry every day.")
ShowMessageFace("",0,0,2,66)
ShowMessage("......")
221()
242(1)
Wait(120)
355("memory_interruption")
ShowMessageFace("",0,0,2,67)
ShowMessage("You hear Ilias' voice calling out to you...")
ShowMessage("Receive her evaluation?")
ShowChoices(strings("Receive Evaluation","Change Difficulty","Reincarnate"),3)
IfPlayerPicksChoice(0,"Receive Evaluation")
 241(bytes(0x04,0x08,0x6f,0x3a,0x0d,0x52,0x50,0x47,0x3a,0x3a,0x42,0x47,0x4d,0x08,0x3a,0x0a,0x40,0x6e,0x61,0x6d,0x65,0x49,0x22,0x0a,0x69,0x72,0x69,0x61,0x73,0x06,0x3a,0x06,0x45,0x54,0x3a,0x0c,0x40,0x76,0x6f,0x6c,0x75,0x6d,0x65,0x69,0x5f,0x3a,0x0b,0x40,0x70,0x69,0x74,0x63,0x68,0x69,0x6e))
 PictureDisplay(1,"bg001",0,0,0,0,100,100,255,0)
 222()
 PictureDisplay(5,"80_iriasu_st04",0,0,0,0,100,100,0,0)
 PictureMove(5,null,0,0,0,0,100,100,255,0,30,true)
 ShowMessageFace("iriasu_fc1",3,0,2,68)
 ShowMessage("\\n<Ilias>")
 ShowMessage("Prey of an experimental animal this time...")
 ShowMessage("I know you love both tentacles and mucus, so you must be very happy with yourself.")
 PictureDisplay(5,"80_iriasu_st01",0,0,0,0,100,100,255,0)
 ShowMessageFace("iriasu_fc1",0,0,2,69)
 ShowMessage("\\n<Ilias>")
 ShowMessage("S-2 is an experimental organism that combines Slime and Tentacle skills.")
 ShowMessage("She's also very strong against physical attacks so it will be hard to defeat her that way.")
 ShowMessageFace("iriasu_fc1",0,0,2,70)
 ShowMessage("\\n<Ilias>")
 ShowMessage("However she is weak to Lightning so use it to your advantage.")
 ShowMessage("Status ailments are not effective against her so do not rely on those.")
 PictureDisplay(5,"80_iriasu_st02",0,0,0,0,100,100,255,0)
 ShowMessageFace("iriasu_fc1",1,0,2,71)
 ShowMessage("\\n<Ilias>")
 ShowMessage("Now go, oh Brave Luka.")
 ShowMessage("Hurry up and dispose of that failure of an organism.")
 242(1)
 221()
 PictureClear(5)
 PictureClear(1)
 Wait(60)
 0()
IfPlayerPicksChoice(1,"Change Difficulty")
 ShowMessageFace("",0,0,2,72)
 ShowMessage("Please choose a difficulty level.")
 RunCommonEvent(110)
 0()
IfPlayerPicksChoice(2,"Reincarnate")
 0()
404()
RunCommonEvent(3000)
0()
