﻿


EVENT   1
 PAGE   1
  281(0)
  250(bytes(0x04,0x08,0x6f,0x3a,0x0c,0x52,0x50,0x47,0x3a,0x3a,0x53,0x45,0x08,0x3a,0x0a,0x40,0x6e,0x61,0x6d,0x65,0x49,0x22,0x09,0x4d,0x6f,0x76,0x65,0x06,0x3a,0x06,0x45,0x54,0x3a,0x0b,0x40,0x70,0x69,0x74,0x63,0x68,0x69,0x69,0x3a,0x0c,0x40,0x76,0x6f,0x6c,0x75,0x6d,0x65,0x69,0x55))
  TeleportPlayer(0,183,39,27,0,0)
  0()



EVENT   2
 PAGE   1
  281(0)
  250(bytes(0x04,0x08,0x6f,0x3a,0x0c,0x52,0x50,0x47,0x3a,0x3a,0x53,0x45,0x08,0x3a,0x0a,0x40,0x6e,0x61,0x6d,0x65,0x49,0x22,0x09,0x4d,0x6f,0x76,0x65,0x06,0x3a,0x06,0x45,0x54,0x3a,0x0b,0x40,0x70,0x69,0x74,0x63,0x68,0x69,0x69,0x3a,0x0c,0x40,0x76,0x6f,0x6c,0x75,0x6d,0x65,0x69,0x55))
  TeleportPlayer(0,183,39,27,0,0)
  0()



EVENT   3
 PAGE   1
  281(0)
  250(bytes(0x04,0x08,0x6f,0x3a,0x0c,0x52,0x50,0x47,0x3a,0x3a,0x53,0x45,0x08,0x3a,0x0a,0x40,0x6e,0x61,0x6d,0x65,0x49,0x22,0x09,0x4d,0x6f,0x76,0x65,0x06,0x3a,0x06,0x45,0x54,0x3a,0x0b,0x40,0x70,0x69,0x74,0x63,0x68,0x69,0x69,0x3a,0x0c,0x40,0x76,0x6f,0x6c,0x75,0x6d,0x65,0x69,0x55))
  TeleportPlayer(0,183,39,27,0,0)
  0()



EVENT   4
 PAGE   1
  281(0)
  250(bytes(0x04,0x08,0x6f,0x3a,0x0c,0x52,0x50,0x47,0x3a,0x3a,0x53,0x45,0x08,0x3a,0x0a,0x40,0x6e,0x61,0x6d,0x65,0x49,0x22,0x09,0x4d,0x6f,0x76,0x65,0x06,0x3a,0x06,0x45,0x54,0x3a,0x0b,0x40,0x70,0x69,0x74,0x63,0x68,0x69,0x69,0x3a,0x0c,0x40,0x76,0x6f,0x6c,0x75,0x6d,0x65,0x69,0x55))
  TeleportPlayer(0,183,39,7,0,0)
  0()



EVENT   5
 PAGE   1
  281(0)
  250(bytes(0x04,0x08,0x6f,0x3a,0x0c,0x52,0x50,0x47,0x3a,0x3a,0x53,0x45,0x08,0x3a,0x0a,0x40,0x6e,0x61,0x6d,0x65,0x49,0x22,0x09,0x4d,0x6f,0x76,0x65,0x06,0x3a,0x06,0x45,0x54,0x3a,0x0b,0x40,0x70,0x69,0x74,0x63,0x68,0x69,0x69,0x3a,0x0c,0x40,0x76,0x6f,0x6c,0x75,0x6d,0x65,0x69,0x55))
  TeleportPlayer(0,183,39,7,0,0)
  0()



EVENT   6
 PAGE   1
  281(0)
  250(bytes(0x04,0x08,0x6f,0x3a,0x0c,0x52,0x50,0x47,0x3a,0x3a,0x53,0x45,0x08,0x3a,0x0a,0x40,0x6e,0x61,0x6d,0x65,0x49,0x22,0x09,0x4d,0x6f,0x76,0x65,0x06,0x3a,0x06,0x45,0x54,0x3a,0x0b,0x40,0x70,0x69,0x74,0x63,0x68,0x69,0x69,0x3a,0x0c,0x40,0x76,0x6f,0x6c,0x75,0x6d,0x65,0x69,0x55))
  TeleportPlayer(0,183,39,7,0,0)
  0()



EVENT   7
 PAGE   1
  281(0)
  250(bytes(0x04,0x08,0x6f,0x3a,0x0c,0x52,0x50,0x47,0x3a,0x3a,0x53,0x45,0x08,0x3a,0x0a,0x40,0x6e,0x61,0x6d,0x65,0x49,0x22,0x09,0x4d,0x6f,0x76,0x65,0x06,0x3a,0x06,0x45,0x54,0x3a,0x0b,0x40,0x70,0x69,0x74,0x63,0x68,0x69,0x69,0x3a,0x0c,0x40,0x76,0x6f,0x6c,0x75,0x6d,0x65,0x69,0x55))
  TeleportPlayer(0,183,39,7,0,0)
  0()



EVENT   8
 PAGE   1
  281(0)
  250(bytes(0x04,0x08,0x6f,0x3a,0x0c,0x52,0x50,0x47,0x3a,0x3a,0x53,0x45,0x08,0x3a,0x0a,0x40,0x6e,0x61,0x6d,0x65,0x49,0x22,0x09,0x4d,0x6f,0x76,0x65,0x06,0x3a,0x06,0x45,0x54,0x3a,0x0b,0x40,0x70,0x69,0x74,0x63,0x68,0x69,0x69,0x3a,0x0c,0x40,0x76,0x6f,0x6c,0x75,0x6d,0x65,0x69,0x55))
  TeleportPlayer(0,183,39,7,0,0)
  0()



EVENT   9
 PAGE   1
  250(bytes(0x04,0x08,0x6f,0x3a,0x0c,0x52,0x50,0x47,0x3a,0x3a,0x53,0x45,0x08,0x3a,0x0a,0x40,0x6e,0x61,0x6d,0x65,0x49,0x22,0x09,0x4d,0x6f,0x76,0x65,0x06,0x3a,0x06,0x45,0x54,0x3a,0x0b,0x40,0x70,0x69,0x74,0x63,0x68,0x69,0x69,0x3a,0x0c,0x40,0x76,0x6f,0x6c,0x75,0x6d,0x65,0x69,0x55))
  TeleportPlayer(0,222,123,69,0,0)
  0()



EVENT   10
 PAGE   1
  0()



EVENT   11
 PAGE   1
  0()



EVENT   12
 PAGE   1
  0()



EVENT   13
 PAGE   1
  0()



EVENT   14
 PAGE   1
  0()



EVENT   15
 PAGE   1
  0()



EVENT   16
 PAGE   1
  0()



EVENT   17
 PAGE   1
  0()



EVENT   18
 PAGE   1
  0()



EVENT   19
 PAGE   1
  0()



EVENT   20
 PAGE   1
  250(bytes(0x04,0x08,0x6f,0x3a,0x0c,0x52,0x50,0x47,0x3a,0x3a,0x53,0x45,0x08,0x3a,0x0a,0x40,0x6e,0x61,0x6d,0x65,0x49,0x22,0x09,0x4d,0x6f,0x76,0x65,0x06,0x3a,0x06,0x45,0x54,0x3a,0x0b,0x40,0x70,0x69,0x74,0x63,0x68,0x69,0x69,0x3a,0x0c,0x40,0x76,0x6f,0x6c,0x75,0x6d,0x65,0x69,0x55))
  TeleportPlayer(0,222,103,16,0,0)
  0()



EVENT   21
 PAGE   1
  250(bytes(0x04,0x08,0x6f,0x3a,0x0c,0x52,0x50,0x47,0x3a,0x3a,0x53,0x45,0x08,0x3a,0x0a,0x40,0x6e,0x61,0x6d,0x65,0x49,0x22,0x09,0x4d,0x6f,0x76,0x65,0x06,0x3a,0x06,0x45,0x54,0x3a,0x0b,0x40,0x70,0x69,0x74,0x63,0x68,0x69,0x69,0x3a,0x0c,0x40,0x76,0x6f,0x6c,0x75,0x6d,0x65,0x69,0x55))
  TeleportPlayer(0,222,134,21,0,0)
  0()



EVENT   22
 PAGE   1
  250(bytes(0x04,0x08,0x6f,0x3a,0x0c,0x52,0x50,0x47,0x3a,0x3a,0x53,0x45,0x08,0x3a,0x0a,0x40,0x6e,0x61,0x6d,0x65,0x49,0x22,0x09,0x4d,0x6f,0x76,0x65,0x06,0x3a,0x06,0x45,0x54,0x3a,0x0b,0x40,0x70,0x69,0x74,0x63,0x68,0x69,0x69,0x3a,0x0c,0x40,0x76,0x6f,0x6c,0x75,0x6d,0x65,0x69,0x55))
  TeleportPlayer(0,222,93,45,0,0)
  0()



EVENT   23
 PAGE   1
  281(0)
  250(bytes(0x04,0x08,0x6f,0x3a,0x0c,0x52,0x50,0x47,0x3a,0x3a,0x53,0x45,0x08,0x3a,0x0a,0x40,0x6e,0x61,0x6d,0x65,0x49,0x22,0x09,0x4d,0x6f,0x76,0x65,0x06,0x3a,0x06,0x45,0x54,0x3a,0x0b,0x40,0x70,0x69,0x74,0x63,0x68,0x69,0x69,0x3a,0x0c,0x40,0x76,0x6f,0x6c,0x75,0x6d,0x65,0x69,0x55))
  TeleportPlayer(0,183,39,27,0,0)
  0()



EVENT   24
 PAGE   1
  ShowMessageFace("zyakotuonna_fc1",0,0,2,1)
  ShowMessage("\\n<Jakotsu-Onna>With the exception of the First, Black Alice is the strongest Monster Lord yet. As if a human hero would even stand a chance against her...")
  355("actor_label_jump")
  EndEventProcessing()
  DefineLabel("538")
  ShowMessageFace("heinrich_fc1",3,0,2,2)
  ShowMessage("\\n<Heinrich>Nevertheless, I cannot afford to lose!")
  EndEventProcessing()
  0()



EVENT   25
 PAGE   1
  ShowMessageFace("kirin_fc1",0,0,2,1)
  ShowMessage("\\n<Kirin>There are two pubs in this town...\nThis is the pub for monsters.")
  ShowMessageFace("kirin_fc1",0,0,2,2)
  ShowMessage("\\n<Kirin>Having two separate pubs isn't exactly discriminatory... If I accidentally enter the pub for humans, they would make me eat beans.")
  ShowMessageFace("kirin_fc1",2,0,2,3)
  ShowMessage("\\n<Kirin>...I hate beans...")
  355("actor_label_jump")
  EndEventProcessing()
  DefineLabel("111")
  ShowMessageFace("suika_fc1",0,0,2,4)
  ShowMessage("\\n<Melon>Do you like watermelon?")
  EndEventProcessing()
  0()



EVENT   26
 PAGE   1
  ShowMessageFace("",0,0,2,1)
  ShowMessage("\\n<Fish-selling Woman>We have fresh fish!\nEating fish makes you smarter!")
  Shop(0,322,0,0,false)
  605(0,323,0,0)
  605(0,324,0,0)
  605(0,325,0,0)
  605(0,326,0,0)
  605(0,327,0,0)
  605(0,328,0,0)
  605(0,334,0,0)
  605(0,335,0,0)
  0()



EVENT   27
 PAGE   1
  ShowMessageFace("",0,0,2,1)
  ShowMessage("\\n<Old Woman>Would you like to buy some delicious vegetables harvested from Iliasville...?")
  If(0,6,0)
   ShowMessageFace("sonia_fc2",2,0,2,2)
   ShowMessage("\\n<Sonya>They've been growing vegetables in Iliasville for five-hundred years... I'm certain after five-hundred years pass from our time, we'll still be growing vegetables.")
   ShowMessageFace("sonia_fc4",0,0,2,3)
   ShowMessage("\\n<Sonya>Save the world, no matter what you do...\nIliasville will always be growing vegetables...")
   ShowMessageFace("ruka_fc1",0,0,2,4)
   ShowMessage("\\n<Luka>Don't say that, it kind of makes me sad...")
   0()
  EndIf()
  Shop(0,306,0,0,true)
  605(0,307,0,0)
  605(0,309,0,0)
  605(0,310,0,0)
  605(0,316,0,0)
  605(0,321,0,0)
  0()



EVENT   28
 PAGE   1
  ShowMessageFace("",0,0,2,1)
  ShowMessage("\\n<Potato-selling Old Man>Potatoes♪ Potatoes♪\nThey're nutritious, they preserve well, and they're delicious! ♪")
  Shop(0,319,0,0,false)
  605(0,413,0,0)
  0()



EVENT   29
 PAGE   1
  ShowMessageFace("",0,0,2,1)
  ShowMessage("\\n<Merchant>How about some meat? You can cook it or eat it raw!")
  Shop(0,329,0,0,false)
  605(0,330,0,0)
  605(0,331,0,0)
  605(0,340,0,0)
  605(0,341,0,0)
  605(0,342,0,0)
  0()



EVENT   30
 PAGE   1
  ShowMessageFace("succubuses_fc3",0,0,2,1)
  ShowMessage("\\n<Succubus>It's nutritious and can be preserved for a long time... Should I introduce the potato as a reserve crop to the mayor?")
  355("actor_label_jump")
  EndEventProcessing()
  DefineLabel("143")
  ShowMessageFace("eva_fc1",2,0,2,2)
  ShowMessage("\\n<Eva>We have to stop her!")
  EndEventProcessing()
  0()



EVENT   31
 PAGE   1
  ShowMessageFace("nekomata_fc1",0,0,2,1)
  ShowMessage("\\n<Nekomata>............")
  ShowMessageFace("",0,0,2,2)
  ShowMessage("The nekomata is eyeing the fish...")
  0()



EVENT   32
 PAGE   1
  ShowMessageFace("dog_fc1",4,0,2,1)
  ShowMessage("\\n<Dog Girl>............")
  ShowMessageFace("",0,0,2,2)
  ShowMessage("The dog girl is eyeing the meaty bones...")
  0()



EVENT   33
 PAGE   1
  ShowMessageFace("",0,0,2,1)
  ShowMessage("\\n<Old Man>The hero Heinrich and his allies defeated the Queen Succubi. All that's left is for him to defeat the Monster Lord.")
  355("actor_label_jump")
  EndEventProcessing()
  DefineLabel("538")
  ShowMessageFace("heinrich_fc1",7,0,2,2)
  ShowMessage("\\n<Heinrich>It would be great if that happened...")
  EndEventProcessing()
  0()



EVENT   34
 PAGE   1
  ShowMessageFace("",0,0,2,1)
  ShowMessage("\\n<Monk>How obscene...")
  0()



EVENT   35
 PAGE   1
  ShowMessageFace("",0,0,2,1)
  ShowMessage("\\n<Adventurer>Impossible, an instant defeat...")
  0()



EVENT   36
 PAGE   1
  ShowMessageFace("",0,0,2,1)
  ShowMessage("\\n<Traveling Hero>My adventure ends here...")
  0()



EVENT   37
 PAGE   1
  ShowMessageFace("",0,0,2,1)
  ShowMessage("\\n<Youth>Why aren't the members of the church accepting of technology? All of the world's problems will eventually be solved by science.")
  0()



EVENT   38
 PAGE   1
  ShowMessageFace("",0,0,2,1)
  ShowMessage("\\n<Guard>These are turbulent times...\nNo doubt it's thanks to the many monsters living here that Remina hasn't been attacked.")
  ShowMessageFace("",0,0,2,2)
  ShowMessage("\\n<Guard>If not for them, the Monster Lord would've long since been destroyed this town. When you think of it that way, there's no way the monster expulsion movement would grow.")
  0()



EVENT   39
 PAGE   1
  ShowMessageFace("",0,0,2,1)
  ShowMessage("\\n<Traveling Hero>Uuunh, I'm starving...\nI should buy something to eat on the way back.")
  355("actor_label_jump")
  EndEventProcessing()
  DefineLabel("111")
  ShowMessageFace("suika_fc1",0,0,2,2)
  ShowMessage("\\n<Melon>Do you eat watermelons?")
  ShowMessageFace("",0,0,2,3)
  ShowMessage("\\n<Traveling Hero>In that case, I'll have have one.")
  EndEventProcessing()
  0()



EVENT   40
 PAGE   1
  ShowMessageFace("tora_fc1",0,0,2,1)
  ShowMessage("\\n<Tiger Girl>The blacksmith here does excellent work.\nIf you're going to continue your adventure, be sure to take good care of your weapons.")
  355("actor_label_jump")
  EndEventProcessing()
  DefineLabel("68")
  ShowMessageFace("dragonp_fc1",0,0,2,2)
  ShowMessage("\\n<Papi>Of course!")
  EndEventProcessing()
  0()



EVENT   41
 PAGE   1
  ShowMessageFace("",0,0,2,1)
  ShowMessage("\\n<Thug>I used to be a hero too...\nThen I realized just how hard it was, and now I'm a sorry sight...")
  355("actor_label_jump")
  EndEventProcessing()
  DefineLabel("538")
  ShowMessageFace("heinrich_fc1",5,0,2,2)
  ShowMessage("\\n<Heinrich>I understand the burden of being a hero...\nI'm not going to say something as careless as \"You can do it!\" or anything.")
  EndEventProcessing()
  0()



EVENT   42
 PAGE   1
  ShowMessageFace("conquista_fc1",0,0,2,1)
  ShowMessage("\\n<Conquista>I hear the hero Heinrich managed to defeat the Three Nobles of Black... Among Black Alice's subordinates, those three are particularly infamous.")
  ShowMessageFace("conquista_fc1",0,0,2,2)
  ShowMessage("\\n<Conquista>I'd love to get a taste of Heinrich's blood... Though he would likely turn the tables on me.")
  355("actor_label_jump")
  EndEventProcessing()
  DefineLabel("538")
  ShowMessageFace("heinrich_fc1",7,0,2,3)
  ShowMessage("\\n<Heinrich>Sorry, but you'd be paying for the sparks.")
  EndEventProcessing()
  0()



EVENT   43
 PAGE   1
  ShowMessageFace("",0,0,2,1)
  ShowMessage("\\n<Old Man>King Remina has extended his aid to various charitable causes. He has also invested funds into the Research Institute.")
  0()



EVENT   44
 PAGE   1
  250(bytes(0x04,0x08,0x6f,0x3a,0x0c,0x52,0x50,0x47,0x3a,0x3a,0x53,0x45,0x08,0x3a,0x0a,0x40,0x6e,0x61,0x6d,0x65,0x49,0x22,0x0a,0x49,0x74,0x65,0x6d,0x31,0x06,0x3a,0x06,0x45,0x54,0x3a,0x0b,0x40,0x70,0x69,0x74,0x63,0x68,0x69,0x69,0x3a,0x0c,0x40,0x76,0x6f,0x6c,0x75,0x6d,0x65,0x69,0x55))
  ChangeSelfSwitch("A",0)
  ChangeInventory_Item(65,0,0,1)
  0()
 PAGE   2
  // condition: self-switch A is ON
  0()



EVENT   45
 PAGE   1
  250(bytes(0x04,0x08,0x6f,0x3a,0x0c,0x52,0x50,0x47,0x3a,0x3a,0x53,0x45,0x08,0x3a,0x0a,0x40,0x6e,0x61,0x6d,0x65,0x49,0x22,0x0a,0x49,0x74,0x65,0x6d,0x31,0x06,0x3a,0x06,0x45,0x54,0x3a,0x0b,0x40,0x70,0x69,0x74,0x63,0x68,0x69,0x69,0x3a,0x0c,0x40,0x76,0x6f,0x6c,0x75,0x6d,0x65,0x69,0x55))
  ChangeSelfSwitch("A",0)
  ChangeInventory_Item(2,0,0,1)
  0()
 PAGE   2
  // condition: self-switch A is ON
  0()



EVENT   46
 PAGE   1
  250(bytes(0x04,0x08,0x6f,0x3a,0x0c,0x52,0x50,0x47,0x3a,0x3a,0x53,0x45,0x08,0x3a,0x0a,0x40,0x6e,0x61,0x6d,0x65,0x49,0x22,0x0a,0x49,0x74,0x65,0x6d,0x31,0x06,0x3a,0x06,0x45,0x54,0x3a,0x0b,0x40,0x70,0x69,0x74,0x63,0x68,0x69,0x69,0x3a,0x0c,0x40,0x76,0x6f,0x6c,0x75,0x6d,0x65,0x69,0x55))
  ChangeSelfSwitch("A",0)
  ChangeInventory_Item(35,0,0,1)
  0()
 PAGE   2
  // condition: self-switch A is ON
  0()



EVENT   47
 PAGE   1
  250(bytes(0x04,0x08,0x6f,0x3a,0x0c,0x52,0x50,0x47,0x3a,0x3a,0x53,0x45,0x08,0x3a,0x0a,0x40,0x6e,0x61,0x6d,0x65,0x49,0x22,0x0a,0x49,0x74,0x65,0x6d,0x31,0x06,0x3a,0x06,0x45,0x54,0x3a,0x0b,0x40,0x70,0x69,0x74,0x63,0x68,0x69,0x69,0x3a,0x0c,0x40,0x76,0x6f,0x6c,0x75,0x6d,0x65,0x69,0x55))
  ChangeSelfSwitch("A",0)
  ChangeInventory_Item(23,0,0,1)
  0()
 PAGE   2
  // condition: self-switch A is ON
  0()



EVENT   48
 PAGE   1
  250(bytes(0x04,0x08,0x6f,0x3a,0x0c,0x52,0x50,0x47,0x3a,0x3a,0x53,0x45,0x08,0x3a,0x0a,0x40,0x6e,0x61,0x6d,0x65,0x49,0x22,0x0a,0x49,0x74,0x65,0x6d,0x31,0x06,0x3a,0x06,0x45,0x54,0x3a,0x0b,0x40,0x70,0x69,0x74,0x63,0x68,0x69,0x69,0x3a,0x0c,0x40,0x76,0x6f,0x6c,0x75,0x6d,0x65,0x69,0x55))
  ChangeSelfSwitch("A",0)
  ChangeInventory_Item(402,0,0,1)
  0()
 PAGE   2
  // condition: self-switch A is ON
  0()



EVENT   49
 PAGE   1
  250(bytes(0x04,0x08,0x6f,0x3a,0x0c,0x52,0x50,0x47,0x3a,0x3a,0x53,0x45,0x08,0x3a,0x0a,0x40,0x6e,0x61,0x6d,0x65,0x49,0x22,0x0a,0x49,0x74,0x65,0x6d,0x31,0x06,0x3a,0x06,0x45,0x54,0x3a,0x0b,0x40,0x70,0x69,0x74,0x63,0x68,0x69,0x69,0x3a,0x0c,0x40,0x76,0x6f,0x6c,0x75,0x6d,0x65,0x69,0x55))
  ChangeSelfSwitch("A",0)
  ChangeInventory_Item(427,0,0,1)
  0()
 PAGE   2
  // condition: self-switch A is ON
  0()



EVENT   50
 PAGE   1
  ShowMessageFace("",0,0,2,1)
  ShowMessage("\\n<Traveling Hero>Many advanced jobs have Mastery as a job ability.\nThese abilities will greatly enhance the performance of the weapons the job specializes in.")
  ShowMessageFace("",0,0,2,2)
  ShowMessage("\\n<Traveling Hero>Of course, there are some advanced jobs which don't have Mastery. Be sure to check your abilities when you're changing jobs.")
  0()
