﻿


EVENT   1
 PAGE   1
  281(1)
  250(bytes(0x04,0x08,0x6f,0x3a,0x0c,0x52,0x50,0x47,0x3a,0x3a,0x53,0x45,0x08,0x3a,0x0a,0x40,0x6e,0x61,0x6d,0x65,0x49,0x22,0x09,0x4d,0x6f,0x76,0x65,0x06,0x3a,0x06,0x45,0x54,0x3a,0x0b,0x40,0x70,0x69,0x74,0x63,0x68,0x69,0x69,0x3a,0x0c,0x40,0x76,0x6f,0x6c,0x75,0x6d,0x65,0x69,0x55))
  TeleportPlayer(0,235,16,8,0,0)
  0()



EVENT   2
 PAGE   1
  281(1)
  250(bytes(0x04,0x08,0x6f,0x3a,0x0c,0x52,0x50,0x47,0x3a,0x3a,0x53,0x45,0x08,0x3a,0x0a,0x40,0x6e,0x61,0x6d,0x65,0x49,0x22,0x09,0x4d,0x6f,0x76,0x65,0x06,0x3a,0x06,0x45,0x54,0x3a,0x0b,0x40,0x70,0x69,0x74,0x63,0x68,0x69,0x69,0x3a,0x0c,0x40,0x76,0x6f,0x6c,0x75,0x6d,0x65,0x69,0x55))
  TeleportPlayer(0,235,9,11,0,0)
  0()



EVENT   3
 PAGE   1
  281(1)
  250(bytes(0x04,0x08,0x6f,0x3a,0x0c,0x52,0x50,0x47,0x3a,0x3a,0x53,0x45,0x08,0x3a,0x0a,0x40,0x6e,0x61,0x6d,0x65,0x49,0x22,0x09,0x4d,0x6f,0x76,0x65,0x06,0x3a,0x06,0x45,0x54,0x3a,0x0b,0x40,0x70,0x69,0x74,0x63,0x68,0x69,0x69,0x3a,0x0c,0x40,0x76,0x6f,0x6c,0x75,0x6d,0x65,0x69,0x55))
  TeleportPlayer(0,235,14,12,0,0)
  216(0)
  If(1,1004,0,3,0)
   If(2,"A",1)
    ChangeSelfSwitch("A",0)
    If(0,6,0)
     ShowMessageFace("sonia_fc4",0,0,2,1)
     ShowMessage("\\n<Sonya>Our undercover spy mission has gone terribly wrong...")
     0()
    Else()
     ShowMessageFace("ruka_fc1",0,0,2,2)
     ShowMessage("\\n<Luka>She saw right through us... What a disaster!")
     0()
    EndIf()
    If(4,66,0)
     ShowMessageFace("vgirl_fc1",2,0,2,3)
     ShowMessage("\\n<Vanilla>She was super scary... I can't compete with her at all.")
     0()
    EndIf()
    If(0,4,0)
     ShowMessageFace("alice_fc5",2,0,2,4)
     ShowMessage("\\n<Alice>She's definitely getting the tails herself, but we need to collect more information.")
     ShowMessageFace("alice_fc5",0,0,2,5)
     ShowMessage("\\n<Alice>Let's carefully check any suspicious areas, especially any buildings that are out of place.")
     EndEventProcessing()
     0()
    EndIf()
    If(0,5,0)
     ChangeVariable(1004,1004,0,0,5)
     ShowMessageFace("iriasu_fc4",0,0,2,6)
     ShowMessage("\\n<Ilias>Not so. I took the opportunity to filch this from her.")
     250(bytes(0x04,0x08,0x6f,0x3a,0x0c,0x52,0x50,0x47,0x3a,0x3a,0x53,0x45,0x08,0x3a,0x0a,0x40,0x6e,0x61,0x6d,0x65,0x49,0x22,0x0a,0x49,0x74,0x65,0x6d,0x31,0x06,0x3a,0x06,0x45,0x54,0x3a,0x0b,0x40,0x70,0x69,0x74,0x63,0x68,0x69,0x69,0x3a,0x0c,0x40,0x76,0x6f,0x6c,0x75,0x6d,0x65,0x69,0x55))
     ChangeInventory_Item(506,0,0,1)
     ShowMessageFace("iriasu_fc4",0,0,2,7)
     ShowMessage("\\n<Ilias>Let's search around for a door that this key fits. I bet we'll find the evidence we need there.")
     If(4,62,0)
      ShowMessageFace("gob_fc1",4,0,2,8)
      ShowMessage("\\n<Gob>(She's more of a kleptomaniac than I am, and I used to be a bandit...)")
      0()
     EndIf()
     EndEventProcessing()
     0()
    EndIf()
    0()
   EndIf()
   0()
  EndIf()
  0()



EVENT   4
 PAGE   1
  281(1)
  250(bytes(0x04,0x08,0x6f,0x3a,0x0c,0x52,0x50,0x47,0x3a,0x3a,0x53,0x45,0x08,0x3a,0x0a,0x40,0x6e,0x61,0x6d,0x65,0x49,0x22,0x09,0x4d,0x6f,0x76,0x65,0x06,0x3a,0x06,0x45,0x54,0x3a,0x0b,0x40,0x70,0x69,0x74,0x63,0x68,0x69,0x69,0x3a,0x0c,0x40,0x76,0x6f,0x6c,0x75,0x6d,0x65,0x69,0x55))
  TeleportPlayer(0,235,31,11,0,0)
  0()



EVENT   5
 PAGE   1
  281(1)
  250(bytes(0x04,0x08,0x6f,0x3a,0x0c,0x52,0x50,0x47,0x3a,0x3a,0x53,0x45,0x08,0x3a,0x0a,0x40,0x6e,0x61,0x6d,0x65,0x49,0x22,0x09,0x4d,0x6f,0x76,0x65,0x06,0x3a,0x06,0x45,0x54,0x3a,0x0b,0x40,0x70,0x69,0x74,0x63,0x68,0x69,0x69,0x3a,0x0c,0x40,0x76,0x6f,0x6c,0x75,0x6d,0x65,0x69,0x55))
  TeleportPlayer(0,235,15,26,0,0)
  216(0)
  0()



EVENT   6
 PAGE   1
  281(1)
  250(bytes(0x04,0x08,0x6f,0x3a,0x0c,0x52,0x50,0x47,0x3a,0x3a,0x53,0x45,0x08,0x3a,0x0a,0x40,0x6e,0x61,0x6d,0x65,0x49,0x22,0x09,0x4d,0x6f,0x76,0x65,0x06,0x3a,0x06,0x45,0x54,0x3a,0x0b,0x40,0x70,0x69,0x74,0x63,0x68,0x69,0x69,0x3a,0x0c,0x40,0x76,0x6f,0x6c,0x75,0x6d,0x65,0x69,0x55))
  TeleportPlayer(0,235,5,27,0,0)
  0()



EVENT   7
 PAGE   1
  281(1)
  250(bytes(0x04,0x08,0x6f,0x3a,0x0c,0x52,0x50,0x47,0x3a,0x3a,0x53,0x45,0x08,0x3a,0x0a,0x40,0x6e,0x61,0x6d,0x65,0x49,0x22,0x09,0x4d,0x6f,0x76,0x65,0x06,0x3a,0x06,0x45,0x54,0x3a,0x0b,0x40,0x70,0x69,0x74,0x63,0x68,0x69,0x69,0x3a,0x0c,0x40,0x76,0x6f,0x6c,0x75,0x6d,0x65,0x69,0x55))
  TeleportPlayer(0,235,8,36,0,0)
  0()



EVENT   8
 PAGE   1
  281(1)
  250(bytes(0x04,0x08,0x6f,0x3a,0x0c,0x52,0x50,0x47,0x3a,0x3a,0x53,0x45,0x08,0x3a,0x0a,0x40,0x6e,0x61,0x6d,0x65,0x49,0x22,0x09,0x4d,0x6f,0x76,0x65,0x06,0x3a,0x06,0x45,0x54,0x3a,0x0b,0x40,0x70,0x69,0x74,0x63,0x68,0x69,0x69,0x3a,0x0c,0x40,0x76,0x6f,0x6c,0x75,0x6d,0x65,0x69,0x55))
  TeleportPlayer(0,235,35,8,0,0)
  ChangeSwitch(31,31,1)
  0()



EVENT   9
 PAGE   1
  281(1)
  250(bytes(0x04,0x08,0x6f,0x3a,0x0c,0x52,0x50,0x47,0x3a,0x3a,0x53,0x45,0x08,0x3a,0x0a,0x40,0x6e,0x61,0x6d,0x65,0x49,0x22,0x09,0x4d,0x6f,0x76,0x65,0x06,0x3a,0x06,0x45,0x54,0x3a,0x0b,0x40,0x70,0x69,0x74,0x63,0x68,0x69,0x69,0x3a,0x0c,0x40,0x76,0x6f,0x6c,0x75,0x6d,0x65,0x69,0x55))
  TeleportPlayer(0,235,45,34,0,0)
  0()



EVENT   10
 PAGE   1
  281(1)
  If(1,1004,0,1,1)
   If(1,1004,0,5,2)
    If(2,"A",1)
     ChangeSelfSwitch("A",0)
     If(0,4,0)
      ShowMessageFace("alice_fc5",3,0,2,1)
      ShowMessage("\\n<Alice>So we couldn't find anything in her house. Not surprising considering that it was completely unguarded.")
      0()
     EndIf()
     If(0,5,0)
      ShowMessageFace("iriasu_fc4",2,0,2,2)
      ShowMessage("\\n<Ilias>Nothing interesting at all in there. Well, I suppose it'd be guarded better if there were.")
      0()
     EndIf()
     If(0,6,0)
      ShowMessageFace("sonia_fc1",0,0,2,3)
      ShowMessage("\\n<Sonya>Our best course of action is to ask around then. Leave it up to Sonya the super spy!")
      0()
     Else()
      ShowMessageFace("ruka_fc1",0,0,2,4)
      ShowMessage("\\n<Luka>Looks like we'll have to ask around after all.")
      0()
     EndIf()
     If(4,53,0)
      ShowMessageFace("slime_fc1",0,0,2,5)
      ShowMessage("\\n<Lime>I'll help too! ♪")
      0()
     EndIf()
     0()
    EndIf()
    0()
   EndIf()
   0()
  EndIf()
  250(bytes(0x04,0x08,0x6f,0x3a,0x0c,0x52,0x50,0x47,0x3a,0x3a,0x53,0x45,0x08,0x3a,0x0a,0x40,0x6e,0x61,0x6d,0x65,0x49,0x22,0x09,0x4d,0x6f,0x76,0x65,0x06,0x3a,0x06,0x45,0x54,0x3a,0x0b,0x40,0x70,0x69,0x74,0x63,0x68,0x69,0x69,0x3a,0x0c,0x40,0x76,0x6f,0x6c,0x75,0x6d,0x65,0x69,0x55))
  TeleportPlayer(0,235,36,38,0,0)
  0()



EVENT   11
 PAGE   1
  ShowMessageFace("",0,0,2,1)
  ShowMessage("\\n<Shopkeeper>I carry an assortment of weapons, armor, and items. Take a look and buy whatever strikes your fancy.")
  Shop(1,1,0,0,false)
  605(1,46,0,0)
  605(1,190,0,0)
  605(1,290,0,0)
  605(2,3,0,0)
  605(2,53,0,0)
  605(2,177,0,0)
  605(2,272,0,0)
  605(0,1,0,0)
  605(0,13,0,0)
  605(0,17,0,0)
  605(0,23,0,0)
  355("actor_label_jump")
  EndEventProcessing()
  DefineLabel("66")
  ShowMessageFace("vgirl_fc1",0,0,2,2)
  ShowMessage("\\n<Vanilla>Shops that sell lots of random items are possible, too? That's cool!")
  EndEventProcessing()
  0()



EVENT   12
 PAGE   1
  ShowMessageFace("",0,0,2,1)
  ShowMessage("\\n<Old Timer>What'll ya have? Ask around all ya like, but have a drink while doin' it.")
  Shop(0,428,0,0,true)
  ShowMessageFace("",0,0,2,2)
  ShowMessage("\\n<Old Timer>Not that it matters, but why are all my customers seated in a perfect line with the same space between them? Are they trying not to stick out?")
  0()



EVENT   13
 PAGE   1
  PictureDisplay(5,"80_dondaria_st01",0,0,0,0,100,100,0,0)
  PictureMove(5,null,0,0,0,0,100,100,255,0,30,true)
  If(1,1004,0,0,0)
   ShowMessageFace("dondaria_fc1",0,0,2,1)
   ShowMessage("\\n<Outlaw Woman>...eh? Whaddya doin' in my tent?")
   ShowMessageFace("",0,0,2,2)
   ShowMessage("\\n<Luka>Uhh, I don't know...")
   ShowMessageFace("dondaria_fc1",0,0,2,3)
   ShowMessage("\\n<Outlaw Woman>Then scram. You're messin' with my business.")
   PictureMove(5,null,0,0,0,0,100,100,0,0,30,true)
   PictureClear(5)
   EndEventProcessing()
   0()
  EndIf()
  If(1,1004,0,2,2)
   ShowMessageFace("dondaria_fc1",0,0,2,4)
   ShowMessage("\\n<Outlaw Woman>...eh? Whaddya doin' in my tent?")
   If(0,6,0)
    ShowMessageFace("sonia_fc2",2,0,2,5)
    ShowMessage("\\n<Sonya>Whoa, she's scary...")
    0()
   EndIf()
   ShowMessageFace("dondaria_fc1",0,0,2,6)
   ShowMessage("\\n<Outlaw Woman>Hey, out with it. I don't have all day.")
   If(1,1004,0,1,2)
    ShowChoices(strings("I'd like to buy some Phoenix Tails","I want to know more about Don Dahlia","Never mind"),3)
    IfPlayerPicksChoice(0,null)
     JumpToLabel("1")
     0()
    IfPlayerPicksChoice(1,null)
     JumpToLabel("2")
     0()
    IfPlayerPicksChoice(2,null)
     JumpToLabel("3")
     0()
    404()
    0()
   Else()
    ShowChoices(strings("I'd like to buy some Phoenix Tails","I want to know more about Don Dahlia","Let me grope your tits","Never mind"),2)
    IfPlayerPicksChoice(0,null)
     JumpToLabel("1")
     0()
    IfPlayerPicksChoice(1,null)
     JumpToLabel("2")
     0()
    IfPlayerPicksChoice(2,null)
     JumpToLabel("4")
     0()
    IfPlayerPicksChoice(3,null)
     JumpToLabel("3")
     0()
    404()
    0()
   EndIf()
   DefineLabel("1")
   ShowMessageFace("dondaria_fc1",0,0,2,7)
   ShowMessage("\\n<Outlaw Woman>What the hell are you talking about? Get out of here, kid.")
   PictureMove(5,null,0,0,0,0,100,100,0,0,30,true)
   PictureClear(5)
   EndEventProcessing()
   DefineLabel("2")
   ShowMessageFace("dondaria_fc1",0,0,2,8)
   ShowMessage("\\n<Outlaw Woman>What are you asking me for? Get out of here, kid.")
   PictureMove(5,null,0,0,0,0,100,100,0,0,30,true)
   PictureClear(5)
   EndEventProcessing()
   DefineLabel("3")
   ShowMessageFace("dondaria_fc1",0,0,2,9)
   ShowMessage("\\n<Outlaw Woman>Then get out of here.")
   PictureMove(5,null,0,0,0,0,100,100,0,0,30,true)
   PictureClear(5)
   EndEventProcessing()
   DefineLabel("4")
   ChangeVariable(1004,1004,0,0,3)
   ShowMessageFace("dondaria_fc1",0,0,2,10)
   ShowMessage("\\n<Outlaw Woman>Oh, a customer?")
   ShowMessageFace("",0,0,2,11)
   ShowMessage("The Outlaw Woman exposes her breasts!")
   ShowMessageFace("dondaria_fc1",0,0,2,12)
   ShowMessage("\\n<Outlaw Woman>Here you go. Touch 'em all you want.\nWhat's wrong? You wanted to cop a feel, didn't you?")
   ShowChoices(strings("Grope her","Decline"),2)
   IfPlayerPicksChoice(0,null)
    ShowMessageFace("",0,0,2,13)
    ShowMessage("Luka fondles the woman's tits!")
    ShowMessageFace("ruka_fc1",0,0,2,14)
    ShowMessage("\\n<Luka>Oooh, they're so tender...")
    If(0,6,0)
     ShowMessageFace("sonia_fc2",7,0,2,15)
     ShowMessage("\\n<Sonya>Luka! What the hell!?")
     0()
    EndIf()
    ShowMessageFace("dondaria_fc1",0,0,2,16)
    ShowMessage("\\n<Outlaw Woman>Haha, you're quite the horndog. After you've had enough, let's talk business.")
    JumpToLabel("5")
    0()
   IfPlayerPicksChoice(1,null)
    ShowMessageFace("dondaria_fc1",0,0,2,17)
    ShowMessage("\\n<Outlaw Woman>Hahaha, I was just screwin' with you.")
    DefineLabel("5")
    ShowMessageFace("dondaria_fc1",0,0,2,18)
    ShowMessage("\\n<Don Dahlia>All right. I'm Don Dahlia. You're here for Phoenix Tails, right?")
    If(0,6,0)
     ShowMessageFace("sonia_fc3",7,0,2,19)
     ShowMessage("\\n<Sonya>Wow, you're selling them alone in this dirty tent?")
     0()
    Else()
     ShowMessageFace("ruka_fc1",0,0,2,20)
     ShowMessage("\\n<Luka>No way, you're actually Don Dahlia? You sell the tails personally?")
     0()
    EndIf()
    ShowMessageFace("dondaria_fc1",0,0,2,21)
    ShowMessage("\\n<Don Dahlia>Yeah, I felt like getting by on my own for awhile. Got tired of dealing with flunkies.")
    ShowMessageFace("dondaria_fc1",0,0,2,22)
    ShowMessage("\\n<Don Dahlia>That's enough about me, though. Phoenix Tails are 60G for a set of three.")
    ShowChoices(strings("Pay 60G","Ask about illicit sales"),0)
    IfPlayerPicksChoice(0,null)
     If(7,60,0)
      250(bytes(0x04,0x08,0x6f,0x3a,0x0c,0x52,0x50,0x47,0x3a,0x3a,0x53,0x45,0x08,0x3a,0x0a,0x40,0x6e,0x61,0x6d,0x65,0x49,0x22,0x0a,0x49,0x74,0x65,0x6d,0x31,0x06,0x3a,0x06,0x45,0x54,0x3a,0x0b,0x40,0x70,0x69,0x74,0x63,0x68,0x69,0x69,0x3a,0x0c,0x40,0x76,0x6f,0x6c,0x75,0x6d,0x65,0x69,0x55))
      125(1,0,60)
      ChangeInventory_Item(11,0,0,3)
      ShowMessageFace("dondaria_fc1",0,0,2,23)
      ShowMessage("\\n<Don Dahlia>Haha, thanks for shopping. Come back for more anytime.")
      ShowMessageFace("dondaria_fc1",0,0,2,24)
      ShowMessage("\\n<Don Dahlia>...actually, no. I'm not selling you any more. You're way too fishy.")
      ShowMessageFace("dondaria_fc1",0,0,2,25)
      ShowMessage("\\n<Don Dahlia>Spies from the merchant's guild? City officials? Whatever you are, get lost.")
      PictureMove(5,null,0,0,0,0,100,100,0,0,30,true)
      PictureClear(5)
      EndEventProcessing()
      0()
     Else()
      ShowMessageFace("dondaria_fc1",0,0,2,26)
      ShowMessage("\\n<Don Dahlia>Hey now, this isn't 60G. Come back when you have enough money.")
      ShowMessageFace("dondaria_fc1",0,0,2,27)
      ShowMessage("\\n<Don Dahlia>...actually, no. I'm not selling to you. You're way too fishy.")
      ShowMessageFace("dondaria_fc1",0,0,2,28)
      ShowMessage("\\n<Don Dahlia>Spies from the merchant's guild? City officials? Whatever you are, get lost.")
      PictureMove(5,null,0,0,0,0,100,100,0,0,30,true)
      PictureClear(5)
      EndEventProcessing()
      0()
     EndIf()
     0()
    IfPlayerPicksChoice(1,null)
     ShowMessageFace("dondaria_fc1",0,0,2,29)
     ShowMessage("\\n<Don Dahlia>Huh? What are you talking about? You know what? You're way too fishy.")
     ShowMessageFace("dondaria_fc1",0,0,2,30)
     ShowMessage("\\n<Don Dahlia>Spies from the merchant's guild? City officials? Whatever you are, get lost.")
     PictureMove(5,null,0,0,0,0,100,100,0,0,30,true)
     PictureClear(5)
     EndEventProcessing()
     0()
    404()
    0()
   404()
   0()
  EndIf()
  If(1,1004,0,5,2)
   ShowMessageFace("dondaria_fc1",0,0,2,31)
   ShowMessage("\\n<Don Dahlia>I thought I told you to get lost. I'm not selling you anything or talking to you.")
   PictureMove(5,null,0,0,0,0,100,100,0,0,30,true)
   PictureClear(5)
   EndEventProcessing()
   0()
  EndIf()
  If(1,1004,0,6,0)
   If(4,72,0)
    ShowMessageFace("phoenix_fc1",3,0,2,32)
    ShowMessage("\\n<Mini>Don...")
    ShowMessageFace("dondaria_fc1",0,0,2,33)
    ShowMessage("\\n<Don Dahlia>Hey, Mini. Looks like you've got a new owner. You better be real thankful for him.")
    0()
   EndIf()
   If(8,507)
    If(1,804,0,2,1)
     If(0,1547,1)
      ShowMessageFace("dondaria_fc1",0,0,2,34)
      ShowMessage("\\n<Don Dahlia>Hey, I bet you guys have some great connections. How 'bout letting me in on the party?")
      ShowChoices(strings("Let her join","Decline for now"),0)
      IfPlayerPicksChoice(0,null)
       ShowMessageFace("dondaria_fc1",0,0,2,35)
       ShowMessage("\\n<Don Dahlia>I'm lookin' forward to making lots of profit with you, heheh...")
       PictureClear(5)
       205(0,bytes(0x04,0x08,0x6f,0x3a,0x13,0x52,0x50,0x47,0x3a,0x3a,0x4d,0x6f,0x76,0x65,0x52,0x6f,0x75,0x74,0x65,0x09,0x3a,0x0c,0x40,0x72,0x65,0x70,0x65,0x61,0x74,0x46,0x3a,0x0f,0x40,0x73,0x6b,0x69,0x70,0x70,0x61,0x62,0x6c,0x65,0x46,0x3a,0x0a,0x40,0x77,0x61,0x69,0x74,0x54,0x3a,0x0a,0x40,0x6c,0x69,0x73,0x74,0x5b,0x09,0x6f,0x3a,0x15,0x52,0x50,0x47,0x3a,0x3a,0x4d,0x6f,0x76,0x65,0x43,0x6f,0x6d,0x6d,0x61,0x6e,0x64,0x07,0x3a,0x0a,0x40,0x63,0x6f,0x64,0x65,0x69,0x2a,0x3a,0x10,0x40,0x70,0x61,0x72,0x61,0x6d,0x65,0x74,0x65,0x72,0x73,0x5b,0x00,0x6f,0x3b,0x0a,0x07,0x3b,0x0b,0x69,0x0f,0x3b,0x0c,0x5b,0x00,0x6f,0x3b,0x0a,0x07,0x3b,0x0b,0x69,0x2c,0x3b,0x0c,0x5b,0x00,0x6f,0x3b,0x0a,0x07,0x3b,0x0b,0x69,0x00,0x3b,0x0c,0x5b,0x00))
       355("add_actor_ex(547)")
       249(bytes(0x04,0x08,0x6f,0x3a,0x0c,0x52,0x50,0x47,0x3a,0x3a,0x4d,0x45,0x08,0x3a,0x0a,0x40,0x6e,0x61,0x6d,0x65,0x49,0x22,0x0c,0x66,0x61,0x6e,0x66,0x61,0x6c,0x65,0x06,0x3a,0x06,0x45,0x54,0x3a,0x0b,0x40,0x70,0x69,0x74,0x63,0x68,0x69,0x69,0x3a,0x0c,0x40,0x76,0x6f,0x6c,0x75,0x6d,0x65,0x69,0x69))
       ShowMessageFace("",0,0,2,36)
       ShowMessage("Don Dahlia has joined the party!")
       Wait(60)
       EndEventProcessing()
       0()
      IfPlayerPicksChoice(1,null)
       ShowMessageFace("dondaria_fc1",0,0,2,37)
       ShowMessage("\\n<Don Dahlia>That so? I can't force ya to.")
       0()
      404()
      0()
     EndIf()
     0()
    EndIf()
    RunCommonEvent(7031)
    EndEventProcessing()
    0()
   EndIf()
   ShowMessageFace("dondaria_fc1",0,0,2,38)
   ShowMessage("\\n<Don Dahlia>What, you guys again? Sorry to disappoint, but I don't sell anything illegal anymore.")
   DefineLabel("店")
   Shop(0,1,0,0,true)
   605(0,11,0,0)
   605(0,507,1,1500)
   PictureMove(5,null,0,0,0,0,100,100,0,0,30,true)
   PictureClear(5)
   EndEventProcessing()
   0()
  EndIf()
  0()
 PAGE   2
  // condition: party contains actor #547
  0()



EVENT   14
 PAGE   1
  If(1,1004,0,0,0)
   ShowMessageFace("",0,0,2,1)
   ShowMessage("\\n<Shady Fellow>It doesn't look like you have a referral. Ah, never mind, just talking to myself. Come back when the time is right.")
   EndEventProcessing()
   0()
  EndIf()
  If(1,1004,0,1,0)
   ShowMessageFace("",0,0,2,2)
   ShowMessage("\\n<Shady Fellow>You're travelers, right? It's good to have lots of Phoenix Tails on you, isn't it?")
   ShowChoices(strings("Yes","No"),2)
   IfPlayerPicksChoice(0,null)
    ShowMessageFace("",0,0,2,3)
    ShowMessage("\\n<Shady Fellow>Well then, let me tell you an interesting story. In that tent over there by the weapon store, you can get Phoenix Tails dirt cheap.")
    ShowMessageFace("",0,0,2,4)
    ShowMessage("\\n<Shady Fellow>But not just anyone can buy them. If you want to get in on the deal, you have to know the password.")
    ShowMessageFace("",0,0,2,5)
    ShowMessage("\\n<Shady Fellow>It just so happens that I know the password, and I'll share it for a mere 20G. Sound good?")
    ShowChoices(strings("Pay 20G","Refuse"),2)
    IfPlayerPicksChoice(0,null)
     If(7,20,0)
      125(1,0,20)
      ShowMessageFace("",0,0,2,6)
      ShowMessage("\\n<Shady Fellow>Thank you very much. As promised, the password is \"Let me grope your tits.\"")
      ShowMessageFace("",0,0,2,7)
      ShowMessage("\\n<Shady Fellow>Don't look at me like that! I'm serious! The Don takes her jokes too far sometimes.")
      ChangeVariable(1004,1004,0,0,2)
      EndEventProcessing()
      0()
     Else()
      ShowMessageFace("",0,0,2,8)
      ShowMessage("\\n<Shady Fellow>Hey now, you don't have that much on you. Save up and come back later.")
      EndEventProcessing()
      0()
     EndIf()
     0()
    IfPlayerPicksChoice(1,null)
     ShowMessageFace("",0,0,2,9)
     ShowMessage("\\n<Shady Fellow>Oh, that's a shame. If you change your mind, you know where I am.")
     EndEventProcessing()
     0()
    404()
    0()
   IfPlayerPicksChoice(1,null)
    ShowMessageFace("",0,0,2,10)
    ShowMessage("\\n<Shady Fellow>Yeah? I suppose if you're confident enough in your own abilities you can get by without them. If things change, come talk to me again.")
    EndEventProcessing()
    0()
   404()
   0()
  EndIf()
  If(1,1004,0,5,2)
   ShowMessageFace("",0,0,2,11)
   ShowMessage("\\n<Shady Fellow>The password is \"Let me grope your tits.\"")
   ShowMessageFace("",0,0,2,12)
   ShowMessage("\\n<Shady Fellow>Don't look at me like that! I'm serious! The Don takes her jokes too far sometimes.")
   EndEventProcessing()
   0()
  EndIf()
  If(1,1004,0,6,0)
   ShowMessageFace("",0,0,2,13)
   ShowMessage("\\n<Shady Fellow>I'm sure the Don will start another promising enterprise. It's her chance to show that she can be successful more than once.")
   EndEventProcessing()
   0()
  EndIf()
  0()



EVENT   15
 PAGE   1
  If(1,1004,0,5,1)
   ShowMessageFace("",0,0,2,1)
   ShowMessage("\\n<Thief>I've had enough of this town. Maybe it's time to leave it behind...")
   EndEventProcessing()
   0()
  EndIf()
  ShowMessageFace("",0,0,2,2)
  ShowMessage("\\n<Thief>I'm a thief for hire. Need anything stolen? I'm pretty good at it.")
  If(1,1004,0,3,2)
   ShowMessageFace("ruka_fc1",0,0,2,3)
   ShowMessage("\\n<Luka>Um, no. There isn't anything I want stolen...")
   EndEventProcessing()
   0()
  EndIf()
  If(1,1004,0,4,0)
   ShowChoices(strings("I'd like you to steal Don Dahlia's key","No, nothing"),2)
   IfPlayerPicksChoice(0,null)
    ShowMessageFace("",0,0,2,4)
    ShowMessage("\\n<Thief>Whoa now, are you trying to make a move on the Don?\nHmm, getting caught and being tortured by her breasts would be a reward in itself...")
    ShowMessageFace("",0,0,2,5)
    ShowMessage("\\n<Thief>Sounds like a win-win situation to me! All right, I'm in. Wait right here and I'll be right back.")
    221()
    Wait(30)
    222()
    ShowMessageFace("",0,0,2,6)
    ShowMessage("\\n<Thief>Ta-da! Just what you wanted.")
    ChangeVariable(1004,1004,0,0,5)
    250(bytes(0x04,0x08,0x6f,0x3a,0x0c,0x52,0x50,0x47,0x3a,0x3a,0x53,0x45,0x08,0x3a,0x0a,0x40,0x6e,0x61,0x6d,0x65,0x49,0x22,0x0a,0x49,0x74,0x65,0x6d,0x31,0x06,0x3a,0x06,0x45,0x54,0x3a,0x0b,0x40,0x70,0x69,0x74,0x63,0x68,0x69,0x69,0x3a,0x0c,0x40,0x76,0x6f,0x6c,0x75,0x6d,0x65,0x69,0x55))
    ChangeInventory_Item(506,0,0,1)
    ShowMessageFace("",0,0,2,7)
    ShowMessage("\\n<Thief>I was kinda looking forward to getting caught and tortured though... Who am I kidding? I was really looking forward to it.")
    ShowMessageFace("",0,0,2,8)
    ShowMessage("\\n<Thief>I was prepared to get caught, but it looks like my skills were too good, even for Don Dahlia.")
    EndEventProcessing()
    0()
   IfPlayerPicksChoice(1,null)
    EndEventProcessing()
    0()
   404()
   0()
  EndIf()
  0()



EVENT   16
 PAGE   1
  205(0,bytes(0x04,0x08,0x6f,0x3a,0x13,0x52,0x50,0x47,0x3a,0x3a,0x4d,0x6f,0x76,0x65,0x52,0x6f,0x75,0x74,0x65,0x09,0x3a,0x0c,0x40,0x72,0x65,0x70,0x65,0x61,0x74,0x46,0x3a,0x0f,0x40,0x73,0x6b,0x69,0x70,0x70,0x61,0x62,0x6c,0x65,0x46,0x3a,0x0a,0x40,0x77,0x61,0x69,0x74,0x54,0x3a,0x0a,0x40,0x6c,0x69,0x73,0x74,0x5b,0x07,0x6f,0x3a,0x15,0x52,0x50,0x47,0x3a,0x3a,0x4d,0x6f,0x76,0x65,0x43,0x6f,0x6d,0x6d,0x61,0x6e,0x64,0x07,0x3a,0x0a,0x40,0x63,0x6f,0x64,0x65,0x69,0x2e,0x3a,0x10,0x40,0x70,0x61,0x72,0x61,0x6d,0x65,0x74,0x65,0x72,0x73,0x5b,0x07,0x49,0x22,0x00,0x06,0x3a,0x06,0x45,0x54,0x69,0x00,0x6f,0x3b,0x0a,0x07,0x3b,0x0b,0x69,0x00,0x3b,0x0c,0x5b,0x00))
  ShowSpeechBalloon(0,8,true)
  ShowMessageFace("ruka_fc1",0,0,2,1)
  ShowMessage("\\n<Luka>Weird, this pot is nice and warm.")
  ScrollMap(2,4,5)
  250(bytes(0x04,0x08,0x6f,0x3a,0x0c,0x52,0x50,0x47,0x3a,0x3a,0x53,0x45,0x08,0x3a,0x0a,0x40,0x6e,0x61,0x6d,0x65,0x49,0x22,0x09,0x4d,0x6f,0x76,0x65,0x06,0x3a,0x06,0x45,0x54,0x3a,0x0b,0x40,0x70,0x69,0x74,0x63,0x68,0x69,0x69,0x3a,0x0c,0x40,0x76,0x6f,0x6c,0x75,0x6d,0x65,0x69,0x55))
  ChangeSwitch(2026,2026,0)
  ShowMessageFace("ruka_fc1",0,0,2,2)
  ShowMessage("\\n<Luka>Uh oh!")
  If(4,62,0)
   ShowMessageFace("gob_fc1",3,0,2,3)
   ShowMessage("\\n<Gob>Run for it!")
   0()
  EndIf()
  ScrollMap(8,4,5)
  217()
  216(1)
  205(-1,bytes(0x04,0x08,0x6f,0x3a,0x13,0x52,0x50,0x47,0x3a,0x3a,0x4d,0x6f,0x76,0x65,0x52,0x6f,0x75,0x74,0x65,0x09,0x3a,0x0c,0x40,0x72,0x65,0x70,0x65,0x61,0x74,0x46,0x3a,0x0f,0x40,0x73,0x6b,0x69,0x70,0x70,0x61,0x62,0x6c,0x65,0x46,0x3a,0x0a,0x40,0x77,0x61,0x69,0x74,0x46,0x3a,0x0a,0x40,0x6c,0x69,0x73,0x74,0x5b,0x09,0x6f,0x3a,0x15,0x52,0x50,0x47,0x3a,0x3a,0x4d,0x6f,0x76,0x65,0x43,0x6f,0x6d,0x6d,0x61,0x6e,0x64,0x07,0x3a,0x0a,0x40,0x63,0x6f,0x64,0x65,0x69,0x08,0x3a,0x10,0x40,0x70,0x61,0x72,0x61,0x6d,0x65,0x74,0x65,0x72,0x73,0x5b,0x00,0x6f,0x3b,0x0a,0x07,0x3b,0x0b,0x69,0x08,0x3b,0x0c,0x5b,0x00,0x6f,0x3b,0x0a,0x07,0x3b,0x0b,0x69,0x09,0x3b,0x0c,0x5b,0x00,0x6f,0x3b,0x0a,0x07,0x3b,0x0b,0x69,0x00,0x3b,0x0c,0x5b,0x00))
  205(17,bytes(0x04,0x08,0x6f,0x3a,0x13,0x52,0x50,0x47,0x3a,0x3a,0x4d,0x6f,0x76,0x65,0x52,0x6f,0x75,0x74,0x65,0x09,0x3a,0x0c,0x40,0x72,0x65,0x70,0x65,0x61,0x74,0x46,0x3a,0x0f,0x40,0x73,0x6b,0x69,0x70,0x70,0x61,0x62,0x6c,0x65,0x46,0x3a,0x0a,0x40,0x77,0x61,0x69,0x74,0x54,0x3a,0x0a,0x40,0x6c,0x69,0x73,0x74,0x5b,0x0e,0x6f,0x3a,0x15,0x52,0x50,0x47,0x3a,0x3a,0x4d,0x6f,0x76,0x65,0x43,0x6f,0x6d,0x6d,0x61,0x6e,0x64,0x07,0x3a,0x0a,0x40,0x63,0x6f,0x64,0x65,0x69,0x09,0x3a,0x10,0x40,0x70,0x61,0x72,0x61,0x6d,0x65,0x74,0x65,0x72,0x73,0x5b,0x00,0x6f,0x3b,0x0a,0x07,0x3b,0x0b,0x69,0x09,0x3b,0x0c,0x5b,0x00,0x6f,0x3b,0x0a,0x07,0x3b,0x0b,0x69,0x09,0x3b,0x0c,0x5b,0x00,0x6f,0x3b,0x0a,0x07,0x3b,0x0b,0x69,0x09,0x3b,0x0c,0x5b,0x00,0x6f,0x3b,0x0a,0x07,0x3b,0x0b,0x69,0x09,0x3b,0x0c,0x5b,0x00,0x6f,0x3b,0x0a,0x07,0x3b,0x0b,0x69,0x09,0x3b,0x0c,0x5b,0x00,0x6f,0x3b,0x0a,0x07,0x3b,0x0b,0x69,0x09,0x3b,0x0c,0x5b,0x00,0x6f,0x3b,0x0a,0x07,0x3b,0x0b,0x69,0x17,0x3b,0x0c,0x5b,0x00,0x6f,0x3b,0x0a,0x07,0x3b,0x0b,0x69,0x00,0x3b,0x0c,0x5b,0x00))
  ScrollMap(4,2,4)
  Wait(60)
  PictureDisplay(5,"80_dondaria_st01",0,0,0,0,100,100,0,0)
  PictureMove(5,null,0,0,0,0,100,100,255,0,30,true)
  ShowMessageFace("dondaria_fc1",0,0,2,4)
  ShowMessage("\\n<Don Dahlia>Mini, you can come out now.")
  PictureClear(5)
  ShowSpeechBalloon(0,8,true)
  TeleportEvent(18,0,53,24,0)
  ChangeSwitch(2025,2025,0)
  205(18,bytes(0x04,0x08,0x6f,0x3a,0x13,0x52,0x50,0x47,0x3a,0x3a,0x4d,0x6f,0x76,0x65,0x52,0x6f,0x75,0x74,0x65,0x09,0x3a,0x0c,0x40,0x72,0x65,0x70,0x65,0x61,0x74,0x46,0x3a,0x0f,0x40,0x73,0x6b,0x69,0x70,0x70,0x61,0x62,0x6c,0x65,0x46,0x3a,0x0a,0x40,0x77,0x61,0x69,0x74,0x54,0x3a,0x0a,0x40,0x6c,0x69,0x73,0x74,0x5b,0x11,0x6f,0x3a,0x15,0x52,0x50,0x47,0x3a,0x3a,0x4d,0x6f,0x76,0x65,0x43,0x6f,0x6d,0x6d,0x61,0x6e,0x64,0x07,0x3a,0x0a,0x40,0x63,0x6f,0x64,0x65,0x69,0x31,0x3a,0x10,0x40,0x70,0x61,0x72,0x61,0x6d,0x65,0x74,0x65,0x72,0x73,0x5b,0x06,0x6f,0x3a,0x0c,0x52,0x50,0x47,0x3a,0x3a,0x53,0x45,0x08,0x3a,0x0a,0x40,0x6e,0x61,0x6d,0x65,0x49,0x22,0x10,0x6d,0x6f,0x6e,0x5f,0x74,0x61,0x6d,0x61,0x6d,0x6f,0x32,0x06,0x3a,0x06,0x45,0x54,0x3a,0x0b,0x40,0x70,0x69,0x74,0x63,0x68,0x69,0x69,0x3a,0x0c,0x40,0x76,0x6f,0x6c,0x75,0x6d,0x65,0x69,0x69,0x6f,0x3b,0x0a,0x07,0x3b,0x0b,0x69,0x13,0x3b,0x0c,0x5b,0x07,0x69,0x00,0x69,0x06,0x6f,0x3b,0x0a,0x07,0x3b,0x0b,0x69,0x16,0x3b,0x0c,0x5b,0x00,0x6f,0x3b,0x0a,0x07,0x3b,0x0b,0x69,0x14,0x3b,0x0c,0x5b,0x06,0x69,0x0f,0x6f,0x3b,0x0a,0x07,0x3b,0x0b,0x69,0x15,0x3b,0x0c,0x5b,0x00,0x6f,0x3b,0x0a,0x07,0x3b,0x0b,0x69,0x14,0x3b,0x0c,0x5b,0x06,0x69,0x0f,0x6f,0x3b,0x0a,0x07,0x3b,0x0b,0x69,0x17,0x3b,0x0c,0x5b,0x00,0x6f,0x3b,0x0a,0x07,0x3b,0x0b,0x69,0x14,0x3b,0x0c,0x5b,0x06,0x69,0x0f,0x6f,0x3b,0x0a,0x07,0x3b,0x0b,0x69,0x18,0x3b,0x0c,0x5b,0x00,0x6f,0x3b,0x0a,0x07,0x3b,0x0b,0x69,0x14,0x3b,0x0c,0x5b,0x06,0x69,0x0f,0x6f,0x3b,0x0a,0x07,0x3b,0x0b,0x69,0x16,0x3b,0x0c,0x5b,0x00,0x6f,0x3b,0x0a,0x07,0x3b,0x0b,0x69,0x00,0x3b,0x0c,0x5b,0x00))
  PictureDisplay(5,"80_dondaria_st01",0,0,-150,0,100,100,0,0)
  PictureDisplay(6,"80_phoenix_st04",0,0,150,0,100,100,0,0)
  PictureMove(5,null,0,0,-150,0,100,100,255,0,30,false)
  PictureMove(6,null,0,0,150,0,100,100,255,0,30,true)
  ShowMessageFace("phoenix_fc1",3,0,2,5)
  ShowMessage("\\n<Mini>This pot is really stuffy, Don.")
  ShowMessageFace("dondaria_fc1",0,0,2,6)
  ShowMessage("\\n<Don Dahlia>Gotta deal with it. I've told ya before, but the bad guys are after you.")
  ShowMessageFace("phoenix_fc1",3,0,2,7)
  ShowMessage("\\n<Mini>The bad guys sound really scary...\nBut you're a good human for protecting me!")
  ShowMessageFace("dondaria_fc1",0,0,2,8)
  ShowMessage("\\n<Don Dahlia>That's right. I'm a good human. All right Mini, let's do it like usual.")
  ShowMessageFace("dondaria_fc1",0,0,2,9)
  ShowMessage("\\n<Don Dahlia>Hahaha, look at all these tail feathers. Stay still, let me get 'em all.")
  PictureDisplay(6,"80_phoenix_st01",0,0,150,0,100,100,255,0)
  ShowMessageFace("phoenix_fc1",0,0,2,10)
  ShowMessage("\\n<Mini>I won't become an adult phoenix unless you pull them out, right? It hurts, but I can take it.")
  ShowMessageFace("dondaria_fc1",0,0,2,11)
  ShowMessage("\\n<Don Dahlia>Good girl, heheheh...")
  PictureClear(5)
  PictureClear(6)
  ScrollMap(6,2,4)
  Wait(60)
  If(0,4,0)
   ShowMessageFace("alice_fc5",0,0,2,12)
   ShowMessage("\\n<Alice>I see, that explains things. That lowlife has complete control over her.")
   0()
  EndIf()
  If(0,5,0)
   ShowMessageFace("iriasu_fc4",0,0,2,13)
   ShowMessage("\\n<Ilias>A stupid phoenix being tricked by a human into giving up her feathers. As amusing as I find this, we'll have to put an end to it.")
   0()
  EndIf()
  If(0,6,0)
   ShowMessageFace("sonia_fc1",5,0,2,14)
   ShowMessage("\\n<Sonya>Tricking her and pulling out her feathers is so mean! Let's get her, Luka!")
   ShowMessageFace("ruka_fc1",0,0,2,15)
   ShowMessage("\\n<Luka>Haa!")
   0()
  EndIf()
  205(-1,bytes(0x04,0x08,0x6f,0x3a,0x13,0x52,0x50,0x47,0x3a,0x3a,0x4d,0x6f,0x76,0x65,0x52,0x6f,0x75,0x74,0x65,0x09,0x3a,0x0c,0x40,0x72,0x65,0x70,0x65,0x61,0x74,0x46,0x3a,0x0f,0x40,0x73,0x6b,0x69,0x70,0x70,0x61,0x62,0x6c,0x65,0x46,0x3a,0x0a,0x40,0x77,0x61,0x69,0x74,0x54,0x3a,0x0a,0x40,0x6c,0x69,0x73,0x74,0x5b,0x08,0x6f,0x3a,0x15,0x52,0x50,0x47,0x3a,0x3a,0x4d,0x6f,0x76,0x65,0x43,0x6f,0x6d,0x6d,0x61,0x6e,0x64,0x07,0x3a,0x0a,0x40,0x63,0x6f,0x64,0x65,0x69,0x06,0x3a,0x10,0x40,0x70,0x61,0x72,0x61,0x6d,0x65,0x74,0x65,0x72,0x73,0x5b,0x00,0x6f,0x3b,0x0a,0x07,0x3b,0x0b,0x69,0x16,0x3b,0x0c,0x5b,0x00,0x6f,0x3b,0x0a,0x07,0x3b,0x0b,0x69,0x00,0x3b,0x0c,0x5b,0x00))
  205(18,bytes(0x04,0x08,0x6f,0x3a,0x13,0x52,0x50,0x47,0x3a,0x3a,0x4d,0x6f,0x76,0x65,0x52,0x6f,0x75,0x74,0x65,0x09,0x3a,0x0c,0x40,0x72,0x65,0x70,0x65,0x61,0x74,0x46,0x3a,0x0f,0x40,0x73,0x6b,0x69,0x70,0x70,0x61,0x62,0x6c,0x65,0x46,0x3a,0x0a,0x40,0x77,0x61,0x69,0x74,0x54,0x3a,0x0a,0x40,0x6c,0x69,0x73,0x74,0x5b,0x07,0x6f,0x3a,0x15,0x52,0x50,0x47,0x3a,0x3a,0x4d,0x6f,0x76,0x65,0x43,0x6f,0x6d,0x6d,0x61,0x6e,0x64,0x07,0x3a,0x0a,0x40,0x63,0x6f,0x64,0x65,0x69,0x17,0x3a,0x10,0x40,0x70,0x61,0x72,0x61,0x6d,0x65,0x74,0x65,0x72,0x73,0x5b,0x00,0x6f,0x3b,0x0a,0x07,0x3b,0x0b,0x69,0x00,0x3b,0x0c,0x5b,0x00))
  ShowMessageFace("ruka_fc1",0,0,2,16)
  ShowMessage("\\n<Luka>We've got you now, Don Dahlia! Let the kid go!")
  PictureDisplay(5,"80_dondaria_st01",0,0,-150,0,100,100,0,0)
  PictureDisplay(6,"80_phoenix_st04",0,0,150,0,100,100,0,0)
  PictureMove(5,null,0,0,-150,0,100,100,255,0,30,false)
  PictureMove(6,null,0,0,150,0,100,100,255,0,30,true)
  ShowMessageFace("dondaria_fc1",0,0,2,17)
  ShowMessage("\\n<Don Dahlia>Hey now, what are ya doing hiding back there...\nYo, Mini, these are the bad guys I was telling ya about.")
  ShowMessageFace("phoenix_fc1",3,0,2,18)
  ShowMessage("\\n<Mini>They're the ones trying to kidnap and sell me!?")
  ShowMessageFace("dondaria_fc1",0,0,2,19)
  ShowMessage("\\n<Don Dahlia>Yep, that's right. Get 'em, Mini!")
  PictureDisplay(6,"80_phoenix_st05",0,0,150,0,100,100,255,0)
  ShowMessageFace("phoenix_fc1",4,0,2,20)
  ShowMessage("\\n<Mini>Okay! I'll take care of them!")
  ShowMessageFace("ruka_fc1",0,0,2,21)
  ShowMessage("\\n<Luka>No, she's lying to you!\nCrap, she's not listening...")
  If(0,4,0)
   ShowMessageFace("alice_fc5",2,0,2,22)
   ShowMessage("\\n<Alice>It looks like we'll have to teach this birdbrain a lesson. Luka, take her out but don't hurt her!")
   0()
  EndIf()
  If(0,5,0)
   ShowMessageFace("iriasu_fc4",1,0,2,23)
   ShowMessage("\\n<Ilias>We shall have to knock some sense into this little phoenix then. Let us battle, Luka.")
   0()
  EndIf()
  If(4,66,0)
   ShowMessageFace("vgirl_fc1",2,0,2,24)
   ShowMessage("\\n<Vanilla>Whoa hold on, that's a fire monster! Can I go hide over there until you're done?")
   0()
  EndIf()
  If(4,72,0)
   ShowMessageFace("phoenix_fc1",3,0,2,25)
   ShowMessage("\\n<Mini>Huh? You look just like me. Are you my long-lost sister or something?")
   ShowMessageFace("phoenix_fc1",0,0,2,26)
   ShowMessage("\\n<Mini'>I am you, and you are me.")
   ShowMessageFace("phoenix_fc1",4,0,2,27)
   ShowMessage("\\n<Mini>Oh... Well I am a phoenix so I guess I can multiply too.")
   0()
  EndIf()
  PictureClear(5)
  PictureClear(6)
  SetBattleBGM(bytes(0x04,0x08,0x6f,0x3a,0x0d,0x52,0x50,0x47,0x3a,0x3a,0x42,0x47,0x4d,0x08,0x3a,0x0a,0x40,0x6e,0x61,0x6d,0x65,0x49,0x22,0x0a,0x62,0x6f,0x73,0x73,0x31,0x06,0x3a,0x06,0x45,0x54,0x3a,0x0c,0x40,0x76,0x6f,0x6c,0x75,0x6d,0x65,0x69,0x69,0x3a,0x0b,0x40,0x70,0x69,0x74,0x63,0x68,0x69,0x69))
  283("Dirt2","Stone2")
  ChangeSwitch(22,22,0)
  Battle(0,37,false,false)
  ChangeSwitch(22,22,1)
  SetBattleBGM(bytes(0x04,0x08,0x6f,0x3a,0x0d,0x52,0x50,0x47,0x3a,0x3a,0x42,0x47,0x4d,0x08,0x3a,0x0a,0x40,0x6e,0x61,0x6d,0x65,0x49,0x22,0x0b,0x62,0x61,0x74,0x74,0x6c,0x65,0x06,0x3a,0x06,0x45,0x54,0x3a,0x0c,0x40,0x76,0x6f,0x6c,0x75,0x6d,0x65,0x69,0x69,0x3a,0x0b,0x40,0x70,0x69,0x74,0x63,0x68,0x69,0x69))
  205(18,bytes(0x04,0x08,0x6f,0x3a,0x13,0x52,0x50,0x47,0x3a,0x3a,0x4d,0x6f,0x76,0x65,0x52,0x6f,0x75,0x74,0x65,0x09,0x3a,0x0c,0x40,0x72,0x65,0x70,0x65,0x61,0x74,0x46,0x3a,0x0f,0x40,0x73,0x6b,0x69,0x70,0x70,0x61,0x62,0x6c,0x65,0x46,0x3a,0x0a,0x40,0x77,0x61,0x69,0x74,0x46,0x3a,0x0a,0x40,0x6c,0x69,0x73,0x74,0x5b,0x07,0x6f,0x3a,0x15,0x52,0x50,0x47,0x3a,0x3a,0x4d,0x6f,0x76,0x65,0x43,0x6f,0x6d,0x6d,0x61,0x6e,0x64,0x07,0x3a,0x0a,0x40,0x63,0x6f,0x64,0x65,0x69,0x15,0x3a,0x10,0x40,0x70,0x61,0x72,0x61,0x6d,0x65,0x74,0x65,0x72,0x73,0x5b,0x00,0x6f,0x3b,0x0a,0x07,0x3b,0x0b,0x69,0x00,0x3b,0x0c,0x5b,0x00))
  ShowMessageFace("phoenix_fc1",2,0,2,28)
  ShowMessage("\\n<Mini>I surrender!")
  If(4,62,0)
   ShowMessageFace("gob_fc1",0,0,2,29)
   ShowMessage("\\n<Gob>We won!")
   0()
  EndIf()
  ShowMessageFace("dondaria_fc1",0,0,2,30)
  ShowMessage("\\n<Don Dahlia>Tch, what now...\n...you can have her!")
  PictureMove(5,null,0,0,-150,0,100,100,0,0,30,false)
  PictureMove(6,null,0,0,150,0,100,100,0,0,30,true)
  PictureClear(5)
  Wait(15)
  205(17,bytes(0x04,0x08,0x6f,0x3a,0x13,0x52,0x50,0x47,0x3a,0x3a,0x4d,0x6f,0x76,0x65,0x52,0x6f,0x75,0x74,0x65,0x09,0x3a,0x0c,0x40,0x72,0x65,0x70,0x65,0x61,0x74,0x46,0x3a,0x0f,0x40,0x73,0x6b,0x69,0x70,0x70,0x61,0x62,0x6c,0x65,0x46,0x3a,0x0a,0x40,0x77,0x61,0x69,0x74,0x54,0x3a,0x0a,0x40,0x6c,0x69,0x73,0x74,0x5b,0x11,0x6f,0x3a,0x15,0x52,0x50,0x47,0x3a,0x3a,0x4d,0x6f,0x76,0x65,0x43,0x6f,0x6d,0x6d,0x61,0x6e,0x64,0x07,0x3a,0x0a,0x40,0x63,0x6f,0x64,0x65,0x69,0x2a,0x3a,0x10,0x40,0x70,0x61,0x72,0x61,0x6d,0x65,0x74,0x65,0x72,0x73,0x5b,0x00,0x6f,0x3b,0x0a,0x07,0x3b,0x0b,0x69,0x22,0x3b,0x0c,0x5b,0x06,0x69,0x0a,0x6f,0x3b,0x0a,0x07,0x3b,0x0b,0x69,0x23,0x3b,0x0c,0x5b,0x06,0x69,0x09,0x6f,0x3b,0x0a,0x07,0x3b,0x0b,0x69,0x06,0x3b,0x0c,0x5b,0x00,0x6f,0x3b,0x0a,0x07,0x3b,0x0b,0x69,0x06,0x3b,0x0c,0x5b,0x00,0x6f,0x3b,0x0a,0x07,0x3b,0x0b,0x69,0x06,0x3b,0x0c,0x5b,0x00,0x6f,0x3b,0x0a,0x07,0x3b,0x0b,0x69,0x06,0x3b,0x0c,0x5b,0x00,0x6f,0x3b,0x0a,0x07,0x3b,0x0b,0x69,0x06,0x3b,0x0c,0x5b,0x00,0x6f,0x3b,0x0a,0x07,0x3b,0x0b,0x69,0x06,0x3b,0x0c,0x5b,0x00,0x6f,0x3b,0x0a,0x07,0x3b,0x0b,0x69,0x06,0x3b,0x0c,0x5b,0x00,0x6f,0x3b,0x0a,0x07,0x3b,0x0b,0x69,0x06,0x3b,0x0c,0x5b,0x00,0x6f,0x3b,0x0a,0x07,0x3b,0x0b,0x69,0x00,0x3b,0x0c,0x5b,0x00))
  ChangeSwitch(2026,2026,1)
  PictureDisplay(6,"80_phoenix_st04",0,0,0,0,100,100,0,0)
  PictureMove(6,null,0,0,0,0,100,100,255,0,30,true)
  ShowMessageFace("phoenix_fc1",3,0,2,31)
  ShowMessage("\\n<Mini>Don, wait! You're abandoning me!?")
  ShowMessageFace("phoenix_fc1",3,0,2,32)
  ShowMessage("\\n<Mini>Don...")
  ShowMessageFace("ruka_fc1",0,0,2,33)
  ShowMessage("\\n<Luka>Mini, she was deceiving you all along. Don Dahlia just wanted your tails.")
  205(18,bytes(0x04,0x08,0x6f,0x3a,0x13,0x52,0x50,0x47,0x3a,0x3a,0x4d,0x6f,0x76,0x65,0x52,0x6f,0x75,0x74,0x65,0x09,0x3a,0x0c,0x40,0x72,0x65,0x70,0x65,0x61,0x74,0x46,0x3a,0x0f,0x40,0x73,0x6b,0x69,0x70,0x70,0x61,0x62,0x6c,0x65,0x46,0x3a,0x0a,0x40,0x77,0x61,0x69,0x74,0x46,0x3a,0x0a,0x40,0x6c,0x69,0x73,0x74,0x5b,0x07,0x6f,0x3a,0x15,0x52,0x50,0x47,0x3a,0x3a,0x4d,0x6f,0x76,0x65,0x43,0x6f,0x6d,0x6d,0x61,0x6e,0x64,0x07,0x3a,0x0a,0x40,0x63,0x6f,0x64,0x65,0x69,0x17,0x3a,0x10,0x40,0x70,0x61,0x72,0x61,0x6d,0x65,0x74,0x65,0x72,0x73,0x5b,0x00,0x6f,0x3b,0x0a,0x07,0x3b,0x0b,0x69,0x00,0x3b,0x0c,0x5b,0x00))
  ShowMessageFace("phoenix_fc1",3,0,2,34)
  ShowMessage("\\n<Mini>That can't be...\nYou're lying...")
  PictureDisplay(6,"80_phoenix_st06",0,0,0,0,100,100,255,0)
  ShowMessageFace("phoenix_fc1",5,0,2,35)
  ShowMessage("\\n<Mini>......")
  If(0,3,1)
   ShowMessageFace("",0,0,2,36)
   ShowMessage("Invite Mini to the party?")
   ShowChoices(strings("Yes","No"),2)
   IfPlayerPicksChoice(0,null)
    If(0,6,0)
     ShowMessageFace("sonia_fc1",0,0,2,37)
     ShowMessage("\\n<Sonya>Hey Mini, why don't you come along with us? We'll help you make lots of friends.")
     0()
    Else()
     ShowMessageFace("ruka_fc1",0,0,2,38)
     ShowMessage("\\n<Luka>How about joining up with us?")
     0()
    EndIf()
    PictureDisplay(6,"80_phoenix_st04",0,0,0,0,100,100,255,0)
    ShowMessageFace("phoenix_fc1",3,0,2,39)
    ShowMessage("\\n<Mini>You won't make me live in a pot?\nYou won't trick me and pluck my tails?")
    ShowMessageFace("ruka_fc1",0,0,2,40)
    ShowMessage("\\n<Luka>Don't worry, we won't do anything like that.")
    PictureDisplay(6,"80_phoenix_st01",0,0,0,0,100,100,255,0)
    ShowMessageFace("phoenix_fc1",0,0,2,41)
    ShowMessage("\\n<Mini>Okay, I like the sound of that. Umm, I don't know a whole lot, but I'll try to be useful.")
    PictureMove(6,null,0,0,0,0,100,100,0,0,30,true)
    PictureClear(6)
    205(18,bytes(0x04,0x08,0x6f,0x3a,0x13,0x52,0x50,0x47,0x3a,0x3a,0x4d,0x6f,0x76,0x65,0x52,0x6f,0x75,0x74,0x65,0x09,0x3a,0x0c,0x40,0x72,0x65,0x70,0x65,0x61,0x74,0x46,0x3a,0x0f,0x40,0x73,0x6b,0x69,0x70,0x70,0x61,0x62,0x6c,0x65,0x46,0x3a,0x0a,0x40,0x77,0x61,0x69,0x74,0x54,0x3a,0x0a,0x40,0x6c,0x69,0x73,0x74,0x5b,0x09,0x6f,0x3a,0x15,0x52,0x50,0x47,0x3a,0x3a,0x4d,0x6f,0x76,0x65,0x43,0x6f,0x6d,0x6d,0x61,0x6e,0x64,0x07,0x3a,0x0a,0x40,0x63,0x6f,0x64,0x65,0x69,0x2a,0x3a,0x10,0x40,0x70,0x61,0x72,0x61,0x6d,0x65,0x74,0x65,0x72,0x73,0x5b,0x00,0x6f,0x3b,0x0a,0x07,0x3b,0x0b,0x69,0x0f,0x3b,0x0c,0x5b,0x00,0x6f,0x3b,0x0a,0x07,0x3b,0x0b,0x69,0x0f,0x3b,0x0c,0x5b,0x00,0x6f,0x3b,0x0a,0x07,0x3b,0x0b,0x69,0x00,0x3b,0x0c,0x5b,0x00))
    ChangeSwitch(2025,2025,1)
    216(0)
    355("add_actor_ex(72)")
    249(bytes(0x04,0x08,0x6f,0x3a,0x0c,0x52,0x50,0x47,0x3a,0x3a,0x4d,0x45,0x08,0x3a,0x0a,0x40,0x6e,0x61,0x6d,0x65,0x49,0x22,0x0c,0x66,0x61,0x6e,0x66,0x61,0x6c,0x65,0x06,0x3a,0x06,0x45,0x54,0x3a,0x0b,0x40,0x70,0x69,0x74,0x63,0x68,0x69,0x69,0x3a,0x0c,0x40,0x76,0x6f,0x6c,0x75,0x6d,0x65,0x69,0x69))
    ShowMessageFace("",0,0,2,42)
    ShowMessage("Mini joined the party!")
    Wait(60)
    If(0,6,0)
     ShowMessageFace("sonia_fc3",6,0,2,43)
     ShowMessage("\\n<Sonya>Sexy undercover spy mission complete! Now let's hurry back and report to Amira!")
     0()
    Else()
     ShowMessageFace("ruka_fc1",0,0,2,44)
     ShowMessage("\\n<Luka>It looks like that's settled then. Should we go tell Amira now?")
     0()
    EndIf()
    355("gain_medal(9)")
    ChangeVariable(1004,1004,0,0,6)
    EndEventProcessing()
    0()
   IfPlayerPicksChoice(1,null)
    0()
   404()
   0()
  Else()
   ShowMessageFace("",0,0,2,45)
   ShowMessage("It's a shame there isn't anything we can do...")
   0()
  EndIf()
  PictureDisplay(6,"80_phoenix_st06",0,0,0,0,100,100,255,0)
  ShowMessageFace("phoenix_fc1",5,0,2,46)
  ShowMessage("\\n<Mini>......")
  PictureMove(6,null,0,0,0,0,100,100,0,0,30,true)
  PictureClear(6)
  205(18,bytes(0x04,0x08,0x6f,0x3a,0x13,0x52,0x50,0x47,0x3a,0x3a,0x4d,0x6f,0x76,0x65,0x52,0x6f,0x75,0x74,0x65,0x09,0x3a,0x0c,0x40,0x72,0x65,0x70,0x65,0x61,0x74,0x46,0x3a,0x0f,0x40,0x73,0x6b,0x69,0x70,0x70,0x61,0x62,0x6c,0x65,0x46,0x3a,0x0a,0x40,0x77,0x61,0x69,0x74,0x54,0x3a,0x0a,0x40,0x6c,0x69,0x73,0x74,0x5b,0x08,0x6f,0x3a,0x15,0x52,0x50,0x47,0x3a,0x3a,0x4d,0x6f,0x76,0x65,0x43,0x6f,0x6d,0x6d,0x61,0x6e,0x64,0x07,0x3a,0x0a,0x40,0x63,0x6f,0x64,0x65,0x69,0x2a,0x3a,0x10,0x40,0x70,0x61,0x72,0x61,0x6d,0x65,0x74,0x65,0x72,0x73,0x5b,0x00,0x6f,0x3b,0x0a,0x07,0x3b,0x0b,0x69,0x09,0x3b,0x0c,0x5b,0x00,0x6f,0x3b,0x0a,0x07,0x3b,0x0b,0x69,0x00,0x3b,0x0c,0x5b,0x00))
  ChangeSwitch(2025,2025,1)
  ShowMessageFace("",0,0,2,47)
  ShowMessage("Mini slinks back into the pot...")
  If(0,6,0)
   ShowMessageFace("sonia_fc2",2,0,2,48)
   ShowMessage("\\n<Sonya>I know that's all we came here for, but surely we can do more before returning to Amira?")
   0()
  Else()
   ShowMessageFace("ruka_fc1",0,0,2,49)
   ShowMessage("\\n<Luka>I guess we completed what we came here for. We need to report back to Amira...")
   0()
  EndIf()
  216(0)
  355("gain_medal(9)")
  ChangeVariable(1004,1004,0,0,6)
  EndEventProcessing()
  0()
 PAGE   2
  // condition: variable 1004 >= 6
  ShowMessageFace("phoenix_fc1",5,0,2,1)
  ShowMessage("\\n<Mini>......")
  ShowMessageFace("",0,0,2,2)
  ShowMessage("It looks like Mini is crammed inside the pot...")
  If(0,3,1)
   ShowMessageFace("",0,0,2,3)
   ShowMessage("Invite Mini to the party?")
   ShowChoices(strings("Yes","No"),2)
   IfPlayerPicksChoice(0,null)
    If(0,6,0)
     ShowMessageFace("sonia_fc1",0,0,2,4)
     ShowMessage("\\n<Sonya>Hey Mini, why don't you come along with us? We'll help you make lots of friends.")
     0()
    Else()
     ShowMessageFace("ruka_fc1",0,0,2,5)
     ShowMessage("\\n<Luka>How about joining up with us?")
     0()
    EndIf()
    ShowMessageFace("phoenix_fc1",3,0,2,6)
    ShowMessage("\\n<Mini>You won't make me live in a pot?\nYou won't trick me and pluck my tails?")
    ShowMessageFace("ruka_fc1",0,0,2,7)
    ShowMessage("\\n<Luka>Don't worry, we won't do anything like that.")
    ShowMessageFace("phoenix_fc1",0,0,2,8)
    ShowMessage("\\n<Mini>Okay, I like the sound of that. Umm, I don't know a whole lot, but I'll try to be useful.")
    PictureMove(6,null,0,0,0,0,100,100,0,0,30,true)
    PictureClear(6)
    355("add_actor_ex(72)")
    249(bytes(0x04,0x08,0x6f,0x3a,0x0c,0x52,0x50,0x47,0x3a,0x3a,0x4d,0x45,0x08,0x3a,0x0a,0x40,0x6e,0x61,0x6d,0x65,0x49,0x22,0x0c,0x66,0x61,0x6e,0x66,0x61,0x6c,0x65,0x06,0x3a,0x06,0x45,0x54,0x3a,0x0b,0x40,0x70,0x69,0x74,0x63,0x68,0x69,0x69,0x3a,0x0c,0x40,0x76,0x6f,0x6c,0x75,0x6d,0x65,0x69,0x69))
    ShowMessageFace("",0,0,2,9)
    ShowMessage("Mini joined the party!")
    Wait(60)
    EndEventProcessing()
    0()
   IfPlayerPicksChoice(1,null)
    ShowMessageFace("phoenix_fc1",5,0,2,10)
    ShowMessage("\\n<Mini>......")
    ShowMessageFace("",0,0,2,11)
    ShowMessage("Mini sulks inside the pot...")
    EndEventProcessing()
    0()
   404()
   0()
  Else()
   ShowMessageFace("",0,0,2,12)
   ShowMessage("It's a shame there isn't anything we can do...")
   0()
  EndIf()
  0()
 PAGE   3
  // condition: switch 1072 is ON
  // condition: variable 1004 >= 6
  0()


EVENT   17
 PAGE   1
  // condition: switch 2026 is ON
  0()



EVENT   18
 PAGE   1
  // condition: switch 2025 is ON
  0()



EVENT   19
 PAGE   1
  ShowMessageFace("",0,0,2,1)
  ShowMessage("\\n<Adventurer>I tried checking out the abandoned castle to the south, but it's just a ruin. There wasn't anything of value there at all.")
  ShowMessageFace("",0,0,2,2)
  ShowMessage("\\n<Adventurer>I have no idea why such a large castle would be in a remote place like this though. All the pedestals lined up inside are a mystery too.")
  ShowMessageFace("",0,0,2,3)
  ShowMessage("\\n<Adventurer>They have things inscribed on them, but I have no idea what any of it means. There's no good treasure, but go take a look if you're into ruins or history or whatever.")
  355("actor_label_jump")
  EndEventProcessing()
  DefineLabel("55")
  ShowMessageFace("name_fc1",0,0,2,4)
  ShowMessage("\\n<Melk>If it's damp inside, I'd like to go there...")
  EndEventProcessing()
  0()



EVENT   20
 PAGE   1
  ShowMessageFace("",0,0,2,1)
  ShowMessage("\\n<Ruffian>I operate an inn of sorts here. You wanna stay for 10G?")
  ShowChoices(strings("Yes","No"),2)
  IfPlayerPicksChoice(0,null)
   If(7,10,0)
    125(1,0,10)
    221()
    249(bytes(0x04,0x08,0x6f,0x3a,0x0c,0x52,0x50,0x47,0x3a,0x3a,0x4d,0x45,0x08,0x3a,0x0a,0x40,0x6e,0x61,0x6d,0x65,0x49,0x22,0x08,0x49,0x6e,0x6e,0x06,0x3a,0x06,0x45,0x54,0x3a,0x0b,0x40,0x70,0x69,0x74,0x63,0x68,0x69,0x69,0x3a,0x0c,0x40,0x76,0x6f,0x6c,0x75,0x6d,0x65,0x69,0x69))
    Wait(150)
    314(0,0)
    222()
    0()
   Else()
    ShowMessageFace("",0,0,2,2)
    ShowMessage("\\n<Ruffian>You don't even have 10G.")
    0()
   EndIf()
   0()
  IfPlayerPicksChoice(1,null)
   0()
  404()
  0()



EVENT   21
 PAGE   1
  ShowMessageFace("",0,0,2,1)
  ShowMessage("\\n<Dog>*Whimper* *whimper*")
  355("actor_label_jump")
  EndEventProcessing()
  DefineLabel("60")
  ShowMessageFace("dog_fc1",4,0,2,2)
  ShowMessage("\\n<Pochi>Woof! Woof!")
  ShowMessageFace("",0,0,2,3)
  ShowMessage("\\n<Dog>*Whimper*...")
  EndEventProcessing()
  0()



EVENT   22
 PAGE   1
  ShowMessageFace("",0,0,2,1)
  ShowMessage("\\n<Elderly Man>Not from around here, are you? When you came, perhaps you noticed the strange abandoned castle to the south?")
  ShowMessageFace("",0,0,2,2)
  ShowMessage("\\n<Elderly Man>It sprang up out of nowhere on the same day as the Great Disaster. It's always been a ruin, as if a great battle took place there.")
  ShowMessageFace("",0,0,2,3)
  ShowMessage("\\n<Elderly Man>It looks like something used to be placed on the pedestals inside, but they were all empty when the castle appeared.")
  ShowMessageFace("",0,0,2,4)
  ShowMessage("\\n<Elderly Man>Nobody has a clue what that place is all about. It just sits there looking eerie...")
  355("actor_label_jump")
  EndEventProcessing()
  DefineLabel("5")
  ShowMessageFace("alice_fc5",0,0,2,5)
  ShowMessage("\\n<Alice>An abandoned castle with pedestals inside? I seem to remember Tamamo mentioning something like that...")
  EndEventProcessing()
  DefineLabel("26")
  ShowMessageFace("iriasu_fc4",2,0,2,6)
  ShowMessage("\\n<Ilias>Could that really be Mithra castle? It was sealed, though. How could it reappear...")
  EndEventProcessing()
  DefineLabel("70")
  ShowMessageFace("nezumi_fc1",0,0,2,7)
  ShowMessage("\\n<Ratty>Sounds scary. Let's stay far away from there.")
  EndEventProcessing()
  DefineLabel("71")
  ShowMessageFace("okami_fc1",0,0,2,8)
  ShowMessage("\\n<Amara>Cool! Let's go search it for treasure!")
  EndEventProcessing()
  0()



EVENT   23
 PAGE   1
  ShowMessageFace("",0,0,2,1)
  ShowMessage("\\n<Elderly Woman>What are youngsters like you doing in a dump like this? Go home, I'm sure your parents are worried sick about you.")
  If(0,6,0)
   ShowMessageFace("sonia_fc2",2,0,2,2)
   ShowMessage("\\n<Sonya>Is it really safe for you to be living in such a dangerous place yourselves? This doesn't seem like a good town for old people...")
   ShowMessageFace("",0,0,2,3)
   ShowMessage("\\n<Elderly Woman>We've been living in this town for so long, no one will mess with us. Isn't that right, old man? Hehe.")
   ShowMessageFace("",0,0,2,4)
   ShowMessage("\\n<Elderly Man>That's right, old lady... Haha!")
   0()
  EndIf()
  0()



EVENT   24
 PAGE   1
  ShowMessageFace("",0,0,2,1)
  ShowMessage("\\n<Mature Woman>Sigh... My husband is out getting drunk in the middle of the day! What a worthless, good-for-nothing lout!")
  355("actor_label_jump")
  EndEventProcessing()
  DefineLabel("74")
  ShowMessageFace("usagi_fc1",2,0,2,2)
  ShowMessage("\\n<Barbun>He sounds just like all the sheep girls I've ever known...")
  EndEventProcessing()
  DefineLabel("83")
  ShowMessageFace("hapy_a_fc1",0,0,2,3)
  ShowMessage("\\n<Reina>A husband's job is supposed to be mating. If he has time to go drinking, you aren't mating with him enough. ♪")
  ShowMessageFace("",0,0,2,4)
  ShowMessage("\\n<Mature Woman>Wh-what kind of advice is that?!")
  EndEventProcessing()
  DefineLabel("525")
  ShowMessageFace("",0,0,2,5)
  ShowMessage("\\n<Mature Woman>Keep that in mind, young lady. Don't let your husband play around. Useless drunkards will ruin you.")
  ShowMessageFace("sonia_fc2",2,0,2,6)
  ShowMessage("\\n<Sonya>S-sure... I'll keep it in mind.")
  EndEventProcessing()
  0()



EVENT   25
 PAGE   1
  ShowMessageFace("",0,0,2,1)
  ShowMessage("\\n<Old Man>Damn that woman! She does nothing but nag and nag and nag!")
  ShowMessageFace("",0,0,2,2)
  ShowMessage("\\n<Old Man>Pay attention, son! Be careful who you get involved with. Stay far away from any woman who will nag you to death!")
  ShowMessageFace("ruka_fc1",0,0,2,3)
  ShowMessage("\\n<Luka>Uhh, okay... I'll keep that in mind.")
  0()



EVENT   26
 PAGE   1
  ShowMessageFace("",0,0,2,1)
  ShowMessage("\\n<Youth>Don! Oh, Don!\nHaaa, haaa...")
  355("actor_label_jump")
  EndEventProcessing()
  DefineLabel("96")
  ShowMessageFace("delh_b_fc1",0,0,2,2)
  ShowMessage("\\n<Marion>Would you like some help relieving yourself?")
  EndEventProcessing()
  0()



EVENT   27
 PAGE   1
  ShowMessageFace("",0,0,2,1)
  ShowMessage("\\n<Merchant>Travelers? I've just got what you're looking for. Take a look.")
  ShowMessageFace("",0,0,2,2)
  ShowMessage("\\n<Merchant>A bag full of Phoenix Tails, see?\nHow does 30G sound?")
  ShowChoices(strings("Pay 30G","Refuse"),2)
  IfPlayerPicksChoice(0,null)
   If(7,30,0)
    125(1,0,30)
    ShowMessageFace("",0,0,2,3)
    ShowMessage("\\n<Merchant>Thank you for your patronage.")
    205(0,bytes(0x04,0x08,0x6f,0x3a,0x13,0x52,0x50,0x47,0x3a,0x3a,0x4d,0x6f,0x76,0x65,0x52,0x6f,0x75,0x74,0x65,0x09,0x3a,0x0c,0x40,0x72,0x65,0x70,0x65,0x61,0x74,0x46,0x3a,0x0f,0x40,0x73,0x6b,0x69,0x70,0x70,0x61,0x62,0x6c,0x65,0x46,0x3a,0x0a,0x40,0x77,0x61,0x69,0x74,0x54,0x3a,0x0a,0x40,0x6c,0x69,0x73,0x74,0x5b,0x10,0x6f,0x3a,0x15,0x52,0x50,0x47,0x3a,0x3a,0x4d,0x6f,0x76,0x65,0x43,0x6f,0x6d,0x6d,0x61,0x6e,0x64,0x07,0x3a,0x0a,0x40,0x63,0x6f,0x64,0x65,0x69,0x2a,0x3a,0x10,0x40,0x70,0x61,0x72,0x61,0x6d,0x65,0x74,0x65,0x72,0x73,0x5b,0x00,0x6f,0x3b,0x0a,0x07,0x3b,0x0b,0x69,0x22,0x3b,0x0c,0x5b,0x06,0x69,0x0a,0x6f,0x3b,0x0a,0x07,0x3b,0x0b,0x69,0x23,0x3b,0x0c,0x5b,0x06,0x69,0x09,0x6f,0x3b,0x0a,0x07,0x3b,0x0b,0x69,0x07,0x3b,0x0c,0x5b,0x00,0x6f,0x3b,0x0a,0x07,0x3b,0x0b,0x69,0x07,0x3b,0x0c,0x5b,0x00,0x6f,0x3b,0x0a,0x07,0x3b,0x0b,0x69,0x06,0x3b,0x0c,0x5b,0x00,0x6f,0x3b,0x0a,0x07,0x3b,0x0b,0x69,0x06,0x3b,0x0c,0x5b,0x00,0x6f,0x3b,0x0a,0x07,0x3b,0x0b,0x69,0x06,0x3b,0x0c,0x5b,0x00,0x6f,0x3b,0x0a,0x07,0x3b,0x0b,0x69,0x06,0x3b,0x0c,0x5b,0x00,0x6f,0x3b,0x0a,0x07,0x3b,0x0b,0x69,0x2c,0x3b,0x0c,0x5b,0x00,0x6f,0x3b,0x0a,0x07,0x3b,0x0b,0x69,0x00,0x3b,0x0c,0x5b,0x00))
    TeleportEvent(0,0,52,10,0)
    ShowMessageFace("",0,0,2,4)
    ShowMessage("You open the bag and pull out of a handful of weeds.")
    ChangeInventory_Item(445,0,0,1)
    If(0,6,0)
     ShowMessageFace("sonia_fc2",5,0,2,5)
     ShowMessage("\\n<Sonya>He ripped me off!")
     0()
    Else()
     ShowMessageFace("ruka_fc1",0,0,2,6)
     ShowMessage("\\n<Luka>He ripped me off!")
     0()
    EndIf()
    TemporaryRemoveEvent()
    0()
   Else()
    ShowMessageFace("",0,0,2,7)
    ShowMessage("\\n<Merchant>You don't have enough money.")
    EndEventProcessing()
    0()
   EndIf()
   0()
  IfPlayerPicksChoice(1,null)
   ShowMessageFace("",0,0,2,8)
   ShowMessage("\\n<Merchant>Oh well.")
   EndEventProcessing()
   0()
  404()
  0()



EVENT   28
 PAGE   1
  ShowMessageFace("",0,0,2,1)
  ShowMessage("\\n<Youth>Don Dahlia apparently prefers to operate alone. If she needs help, she just hires a few workers part-time.")
  ShowMessageFace("",0,0,2,2)
  ShowMessage("\\n<Youth>I wonder if she's trying to save money by being a lone wolf? Or maybe she simply doesn't trust anyone else...")
  355("actor_label_jump")
  EndEventProcessing()
  DefineLabel("62")
  ShowMessageFace("gob_fc1",3,0,2,3)
  ShowMessage("\\n<Gob>She must be really lonely if she can't trust anyone.")
  EndEventProcessing()
  DefineLabel("72")
  ShowMessageFace("phoenix_fc1",3,0,2,4)
  ShowMessage("\\n<Mini>Don...")
  EndEventProcessing()
  0()



EVENT   29
 PAGE   1
  250(bytes(0x04,0x08,0x6f,0x3a,0x0c,0x52,0x50,0x47,0x3a,0x3a,0x53,0x45,0x08,0x3a,0x0a,0x40,0x6e,0x61,0x6d,0x65,0x49,0x22,0x0a,0x49,0x74,0x65,0x6d,0x31,0x06,0x3a,0x06,0x45,0x54,0x3a,0x0b,0x40,0x70,0x69,0x74,0x63,0x68,0x69,0x69,0x3a,0x0c,0x40,0x76,0x6f,0x6c,0x75,0x6d,0x65,0x69,0x55))
  ChangeSelfSwitch("A",0)
  ChangeInventory_Item(32,0,0,1)
  0()
 PAGE   2
  // condition: self-switch A is ON
  0()



EVENT   30
 PAGE   1
  250(bytes(0x04,0x08,0x6f,0x3a,0x0c,0x52,0x50,0x47,0x3a,0x3a,0x53,0x45,0x08,0x3a,0x0a,0x40,0x6e,0x61,0x6d,0x65,0x49,0x22,0x0a,0x49,0x74,0x65,0x6d,0x31,0x06,0x3a,0x06,0x45,0x54,0x3a,0x0b,0x40,0x70,0x69,0x74,0x63,0x68,0x69,0x69,0x3a,0x0c,0x40,0x76,0x6f,0x6c,0x75,0x6d,0x65,0x69,0x55))
  ChangeSelfSwitch("A",0)
  ChangeInventory_Item(26,0,0,1)
  0()
 PAGE   2
  // condition: self-switch A is ON
  0()



EVENT   31
 PAGE   1
  250(bytes(0x04,0x08,0x6f,0x3a,0x0c,0x52,0x50,0x47,0x3a,0x3a,0x53,0x45,0x08,0x3a,0x0a,0x40,0x6e,0x61,0x6d,0x65,0x49,0x22,0x0a,0x49,0x74,0x65,0x6d,0x31,0x06,0x3a,0x06,0x45,0x54,0x3a,0x0b,0x40,0x70,0x69,0x74,0x63,0x68,0x69,0x69,0x3a,0x0c,0x40,0x76,0x6f,0x6c,0x75,0x6d,0x65,0x69,0x55))
  ChangeSelfSwitch("A",0)
  ChangeInventoryArmor(163,0,0,1,false)
  0()
 PAGE   2
  // condition: self-switch A is ON
  0()



EVENT   32
 PAGE   1
  250(bytes(0x04,0x08,0x6f,0x3a,0x0c,0x52,0x50,0x47,0x3a,0x3a,0x53,0x45,0x08,0x3a,0x0a,0x40,0x6e,0x61,0x6d,0x65,0x49,0x22,0x0a,0x49,0x74,0x65,0x6d,0x31,0x06,0x3a,0x06,0x45,0x54,0x3a,0x0b,0x40,0x70,0x69,0x74,0x63,0x68,0x69,0x69,0x3a,0x0c,0x40,0x76,0x6f,0x6c,0x75,0x6d,0x65,0x69,0x55))
  ChangeSelfSwitch("A",0)
  ChangeInventoryWeapon(590,0,0,1,false)
  0()
 PAGE   2
  // condition: self-switch A is ON
  0()



EVENT   33
 PAGE   1
  250(bytes(0x04,0x08,0x6f,0x3a,0x0c,0x52,0x50,0x47,0x3a,0x3a,0x53,0x45,0x08,0x3a,0x0a,0x40,0x6e,0x61,0x6d,0x65,0x49,0x22,0x0a,0x49,0x74,0x65,0x6d,0x31,0x06,0x3a,0x06,0x45,0x54,0x3a,0x0b,0x40,0x70,0x69,0x74,0x63,0x68,0x69,0x69,0x3a,0x0c,0x40,0x76,0x6f,0x6c,0x75,0x6d,0x65,0x69,0x55))
  ChangeSelfSwitch("A",0)
  ChangeInventory_Item(305,0,0,1)
  0()
 PAGE   2
  // condition: self-switch A is ON
  0()



EVENT   34
 PAGE   1
  250(bytes(0x04,0x08,0x6f,0x3a,0x0c,0x52,0x50,0x47,0x3a,0x3a,0x53,0x45,0x08,0x3a,0x0a,0x40,0x6e,0x61,0x6d,0x65,0x49,0x22,0x0a,0x49,0x74,0x65,0x6d,0x31,0x06,0x3a,0x06,0x45,0x54,0x3a,0x0b,0x40,0x70,0x69,0x74,0x63,0x68,0x69,0x69,0x3a,0x0c,0x40,0x76,0x6f,0x6c,0x75,0x6d,0x65,0x69,0x55))
  ChangeSelfSwitch("A",0)
  ChangeInventory_Item(342,0,0,1)
  0()
 PAGE   2
  // condition: self-switch A is ON
  0()



EVENT   35
 PAGE   1
  250(bytes(0x04,0x08,0x6f,0x3a,0x0c,0x52,0x50,0x47,0x3a,0x3a,0x53,0x45,0x08,0x3a,0x0a,0x40,0x6e,0x61,0x6d,0x65,0x49,0x22,0x0a,0x49,0x74,0x65,0x6d,0x31,0x06,0x3a,0x06,0x45,0x54,0x3a,0x0b,0x40,0x70,0x69,0x74,0x63,0x68,0x69,0x69,0x3a,0x0c,0x40,0x76,0x6f,0x6c,0x75,0x6d,0x65,0x69,0x55))
  ChangeSelfSwitch("A",0)
  ChangeInventoryWeapon(363,0,0,1,false)
  0()
 PAGE   2
  // condition: self-switch A is ON
  0()



EVENT   36
 PAGE   1
  ShowMessageFace("",0,0,2,1)
  ShowMessage("\\n<Man>Don Dahlia has her fingers in the black market underworld, and she's in constant competition with the boss of the south Sentora Elka Company.")
  ShowMessageFace("",0,0,2,2)
  ShowMessage("\\n<Man>Don Father is the real power behind the underworld, though. No one knows his real name or what he looks like, but his influence is huge.")
  ShowMessageFace("",0,0,2,3)
  ShowMessage("\\n<Man>Even Kings and Queens don't dare treat him lightly. What with his control over the world's mafia, he's practically a shadow Emperor.")
  355("actor_label_jump")
  EndEventProcessing()
  DefineLabel("5")
  ShowMessageFace("alice_fc5",0,0,2,4)
  ShowMessage("\\n<Alice>Interesting. Even human society has those who rule in the light and in the shadows.")
  EndEventProcessing()
  DefineLabel("26")
  ShowMessageFace("iriasu_fc4",2,0,2,5)
  ShowMessage("\\n<Ilias>How dare scum like that act as if they own the world while I'm gone! I see I have even more to do once I've recovered.")
  EndEventProcessing()
  DefineLabel("531")
  ShowMessageFace("saniria_fc2",0,0,2,6)
  ShowMessage("\\n<King of San Ilia>......")
  EndEventProcessing()
  0()



EVENT   37
 PAGE   1
  250(bytes(0x04,0x08,0x6f,0x3a,0x0c,0x52,0x50,0x47,0x3a,0x3a,0x53,0x45,0x08,0x3a,0x0a,0x40,0x6e,0x61,0x6d,0x65,0x49,0x22,0x0a,0x49,0x74,0x65,0x6d,0x31,0x06,0x3a,0x06,0x45,0x54,0x3a,0x0b,0x40,0x70,0x69,0x74,0x63,0x68,0x69,0x69,0x3a,0x0c,0x40,0x76,0x6f,0x6c,0x75,0x6d,0x65,0x69,0x55))
  ChangeSelfSwitch("A",0)
  ChangeInventory_Item(341,0,0,1)
  0()
 PAGE   2
  // condition: self-switch A is ON
  0()



EVENT   38
 PAGE   1
  250(bytes(0x04,0x08,0x6f,0x3a,0x0c,0x52,0x50,0x47,0x3a,0x3a,0x53,0x45,0x08,0x3a,0x0a,0x40,0x6e,0x61,0x6d,0x65,0x49,0x22,0x0a,0x49,0x74,0x65,0x6d,0x31,0x06,0x3a,0x06,0x45,0x54,0x3a,0x0b,0x40,0x70,0x69,0x74,0x63,0x68,0x69,0x69,0x3a,0x0c,0x40,0x76,0x6f,0x6c,0x75,0x6d,0x65,0x69,0x55))
  ChangeSelfSwitch("A",0)
  ChangeInventory_Item(428,0,0,1)
  0()
 PAGE   2
  // condition: self-switch A is ON
  0()



EVENT   39
 PAGE   1
  ShowMessageFace("",0,0,2,1)
  ShowMessage("These are some gaudy clothes.")
  0()



EVENT   40
 PAGE   1
  ShowMessageFace("",0,0,2,1)
  ShowMessage("These are some strange clothes.")
  0()



EVENT   41
 PAGE   1
  ShowMessageFace("",0,0,2,1)
  ShowMessage("Pretty stylish hat.")
  0()



EVENT   42
 PAGE   1
  ShowMessageFace("",0,0,2,1)
  ShowMessage("A map of the Ilias Continent. It has a few scattered marks and notes on it.")
  0()



EVENT   43
 PAGE   1
  ShowMessageFace("",0,0,2,1)
  ShowMessage("The book has been left open...")
  If(0,6,0)
   ShowMessageFace("sonia_fc1",0,0,2,2)
   ShowMessage("\\n<Sonya>Oh, it's \"Romeo and Juliet.\"\nI've always wanted to read this one.")
   ShowMessageFace("ruka_fc1",0,0,2,3)
   ShowMessage("\\n<Luka>A romantic play? That's surprisingly feminine of her...")
   0()
  EndIf()
  0()



EVENT   44
 PAGE   1
  ShowMessageFace("",0,0,2,1)
  ShowMessage("There's nothing of worth in the bag.")
  0()



EVENT   45
 PAGE   1
  ShowMessageFace("",0,0,2,1)
  ShowMessage("The kitchen is spotless.")
  ShowMessageFace("ruka_fc1",0,0,2,2)
  ShowMessage("\\n<Luka>It doesn't look like the kitchen gets used much. I wonder if she can't cook.")
  0()



EVENT   46
 PAGE   1
  ShowMessageFace("",0,0,2,1)
  ShowMessage("Average household items. Nothing suspicious.")
  0()



EVENT   47
 PAGE   1
  ShowMessageFace("",0,0,2,1)
  ShowMessage("Average household items. Nothing suspicious.")
  0()



EVENT   48
 PAGE   1
  ShowMessageFace("",0,0,2,1)
  ShowMessage("There's nothing on the bed.")
  0()



EVENT   49
 PAGE   1
  ShowMessageFace("",0,0,2,1)
  ShowMessage("There's nothing on the bed.")
  0()



EVENT   50
 PAGE   1
  250(bytes(0x04,0x08,0x6f,0x3a,0x0c,0x52,0x50,0x47,0x3a,0x3a,0x53,0x45,0x08,0x3a,0x0a,0x40,0x6e,0x61,0x6d,0x65,0x49,0x22,0x0a,0x49,0x74,0x65,0x6d,0x31,0x06,0x3a,0x06,0x45,0x54,0x3a,0x0b,0x40,0x70,0x69,0x74,0x63,0x68,0x69,0x69,0x3a,0x0c,0x40,0x76,0x6f,0x6c,0x75,0x6d,0x65,0x69,0x55))
  ChangeSelfSwitch("A",0)
  ChangeInventory_Item(4,0,0,1)
  0()
 PAGE   2
  // condition: self-switch A is ON
  0()



EVENT   51
 PAGE   1
  // condition: switch 1075 is ON
  // condition: switch 1074 is ON
  If(2,"A",1)
   ChangeSelfSwitch("A",0)
   ChangeVariable(1037,1037,1,0,1)
   0()
  EndIf()
  ShowMessageFace("hituzi_fc1",3,0,2,1)
  ShowMessage("\\n<Mary>Bartender! More boooooze!")
  ShowMessageFace("",0,0,2,2)
  ShowMessage("This is our sheep girl...")
  ShowMessageFace("hituzi_fc1",3,0,2,3)
  ShowMessage("\\n<Mary>Wheehehehe!")
  ShowMessageFace("hituzi_fc1",7,0,2,4)
  ShowMessage("\\n<Mary>*Glug* *glug* *glug*")
  ShowMessageFace("hituzi_fc1",3,0,2,5)
  ShowMessage("\\n<Mary>Wheehehehe!")
  250(bytes(0x04,0x08,0x6f,0x3a,0x0c,0x52,0x50,0x47,0x3a,0x3a,0x53,0x45,0x08,0x3a,0x0a,0x40,0x6e,0x61,0x6d,0x65,0x49,0x22,0x09,0x4d,0x6f,0x76,0x65,0x06,0x3a,0x06,0x45,0x54,0x3a,0x0b,0x40,0x70,0x69,0x74,0x63,0x68,0x69,0x69,0x3a,0x0c,0x40,0x76,0x6f,0x6c,0x75,0x6d,0x65,0x69,0x55))
  ChangeSwitch(31,31,0)
  If(6,-1,8)
   205(-1,bytes(0x04,0x08,0x6f,0x3a,0x13,0x52,0x50,0x47,0x3a,0x3a,0x4d,0x6f,0x76,0x65,0x52,0x6f,0x75,0x74,0x65,0x09,0x3a,0x0c,0x40,0x72,0x65,0x70,0x65,0x61,0x74,0x46,0x3a,0x0f,0x40,0x73,0x6b,0x69,0x70,0x70,0x61,0x62,0x6c,0x65,0x46,0x3a,0x0a,0x40,0x77,0x61,0x69,0x74,0x46,0x3a,0x0a,0x40,0x6c,0x69,0x73,0x74,0x5b,0x08,0x6f,0x3a,0x15,0x52,0x50,0x47,0x3a,0x3a,0x4d,0x6f,0x76,0x65,0x43,0x6f,0x6d,0x6d,0x61,0x6e,0x64,0x07,0x3a,0x0a,0x40,0x63,0x6f,0x64,0x65,0x69,0x08,0x3a,0x10,0x40,0x70,0x61,0x72,0x61,0x6d,0x65,0x74,0x65,0x72,0x73,0x5b,0x00,0x6f,0x3b,0x0a,0x07,0x3b,0x0b,0x69,0x16,0x3b,0x0c,0x5b,0x00,0x6f,0x3b,0x0a,0x07,0x3b,0x0b,0x69,0x00,0x3b,0x0c,0x5b,0x00))
   0()
  EndIf()
  217()
  205(53,bytes(0x04,0x08,0x6f,0x3a,0x13,0x52,0x50,0x47,0x3a,0x3a,0x4d,0x6f,0x76,0x65,0x52,0x6f,0x75,0x74,0x65,0x09,0x3a,0x0c,0x40,0x72,0x65,0x70,0x65,0x61,0x74,0x46,0x3a,0x0f,0x40,0x73,0x6b,0x69,0x70,0x70,0x61,0x62,0x6c,0x65,0x46,0x3a,0x0a,0x40,0x77,0x61,0x69,0x74,0x54,0x3a,0x0a,0x40,0x6c,0x69,0x73,0x74,0x5b,0x0e,0x6f,0x3a,0x15,0x52,0x50,0x47,0x3a,0x3a,0x4d,0x6f,0x76,0x65,0x43,0x6f,0x6d,0x6d,0x61,0x6e,0x64,0x07,0x3a,0x0a,0x40,0x63,0x6f,0x64,0x65,0x69,0x2a,0x3a,0x10,0x40,0x70,0x61,0x72,0x61,0x6d,0x65,0x74,0x65,0x72,0x73,0x5b,0x00,0x6f,0x3b,0x0a,0x07,0x3b,0x0b,0x69,0x09,0x3b,0x0c,0x5b,0x00,0x6f,0x3b,0x0a,0x07,0x3b,0x0b,0x69,0x09,0x3b,0x0c,0x5b,0x00,0x6f,0x3b,0x0a,0x07,0x3b,0x0b,0x69,0x08,0x3b,0x0c,0x5b,0x00,0x6f,0x3b,0x0a,0x07,0x3b,0x0b,0x69,0x08,0x3b,0x0c,0x5b,0x00,0x6f,0x3b,0x0a,0x07,0x3b,0x0b,0x69,0x08,0x3b,0x0c,0x5b,0x00,0x6f,0x3b,0x0a,0x07,0x3b,0x0b,0x69,0x08,0x3b,0x0c,0x5b,0x00,0x6f,0x3b,0x0a,0x07,0x3b,0x0b,0x69,0x18,0x3b,0x0c,0x5b,0x00,0x6f,0x3b,0x0a,0x07,0x3b,0x0b,0x69,0x00,0x3b,0x0c,0x5b,0x00))
  205(0,bytes(0x04,0x08,0x6f,0x3a,0x13,0x52,0x50,0x47,0x3a,0x3a,0x4d,0x6f,0x76,0x65,0x52,0x6f,0x75,0x74,0x65,0x09,0x3a,0x0c,0x40,0x72,0x65,0x70,0x65,0x61,0x74,0x46,0x3a,0x0f,0x40,0x73,0x6b,0x69,0x70,0x70,0x61,0x62,0x6c,0x65,0x46,0x3a,0x0a,0x40,0x77,0x61,0x69,0x74,0x54,0x3a,0x0a,0x40,0x6c,0x69,0x73,0x74,0x5b,0x08,0x6f,0x3a,0x15,0x52,0x50,0x47,0x3a,0x3a,0x4d,0x6f,0x76,0x65,0x43,0x6f,0x6d,0x6d,0x61,0x6e,0x64,0x07,0x3a,0x0a,0x40,0x63,0x6f,0x64,0x65,0x69,0x29,0x3a,0x10,0x40,0x70,0x61,0x72,0x61,0x6d,0x65,0x74,0x65,0x72,0x73,0x5b,0x00,0x6f,0x3b,0x0a,0x07,0x3b,0x0b,0x69,0x15,0x3b,0x0c,0x5b,0x00,0x6f,0x3b,0x0a,0x07,0x3b,0x0b,0x69,0x00,0x3b,0x0c,0x5b,0x00))
  RunCommonEvent(312)
  205(53,bytes(0x04,0x08,0x6f,0x3a,0x13,0x52,0x50,0x47,0x3a,0x3a,0x4d,0x6f,0x76,0x65,0x52,0x6f,0x75,0x74,0x65,0x09,0x3a,0x0c,0x40,0x72,0x65,0x70,0x65,0x61,0x74,0x46,0x3a,0x0f,0x40,0x73,0x6b,0x69,0x70,0x70,0x61,0x62,0x6c,0x65,0x46,0x3a,0x0a,0x40,0x77,0x61,0x69,0x74,0x46,0x3a,0x0a,0x40,0x6c,0x69,0x73,0x74,0x5b,0x0f,0x6f,0x3a,0x15,0x52,0x50,0x47,0x3a,0x3a,0x4d,0x6f,0x76,0x65,0x43,0x6f,0x6d,0x6d,0x61,0x6e,0x64,0x07,0x3a,0x0a,0x40,0x63,0x6f,0x64,0x65,0x69,0x07,0x3a,0x10,0x40,0x70,0x61,0x72,0x61,0x6d,0x65,0x74,0x65,0x72,0x73,0x5b,0x00,0x6f,0x3b,0x0a,0x07,0x3b,0x0b,0x69,0x07,0x3b,0x0c,0x5b,0x00,0x6f,0x3b,0x0a,0x07,0x3b,0x0b,0x69,0x07,0x3b,0x0c,0x5b,0x00,0x6f,0x3b,0x0a,0x07,0x3b,0x0b,0x69,0x07,0x3b,0x0c,0x5b,0x00,0x6f,0x3b,0x0a,0x07,0x3b,0x0b,0x69,0x06,0x3b,0x0c,0x5b,0x00,0x6f,0x3b,0x0a,0x07,0x3b,0x0b,0x69,0x06,0x3b,0x0c,0x5b,0x00,0x6f,0x3b,0x0a,0x07,0x3b,0x0b,0x69,0x06,0x3b,0x0c,0x5b,0x00,0x6f,0x3b,0x0a,0x07,0x3b,0x0b,0x69,0x31,0x3b,0x0c,0x5b,0x06,0x6f,0x3a,0x0c,0x52,0x50,0x47,0x3a,0x3a,0x53,0x45,0x08,0x3a,0x0a,0x40,0x6e,0x61,0x6d,0x65,0x49,0x22,0x09,0x4d,0x6f,0x76,0x65,0x06,0x3a,0x06,0x45,0x54,0x3a,0x0b,0x40,0x70,0x69,0x74,0x63,0x68,0x69,0x69,0x3a,0x0c,0x40,0x76,0x6f,0x6c,0x75,0x6d,0x65,0x69,0x55,0x6f,0x3b,0x0a,0x07,0x3b,0x0b,0x69,0x21,0x3b,0x0c,0x5b,0x06,0x69,0x24,0x6f,0x3b,0x0a,0x07,0x3b,0x0b,0x69,0x00,0x3b,0x0c,0x5b,0x00))
  205(0,bytes(0x04,0x08,0x6f,0x3a,0x13,0x52,0x50,0x47,0x3a,0x3a,0x4d,0x6f,0x76,0x65,0x52,0x6f,0x75,0x74,0x65,0x09,0x3a,0x0c,0x40,0x72,0x65,0x70,0x65,0x61,0x74,0x46,0x3a,0x0f,0x40,0x73,0x6b,0x69,0x70,0x70,0x61,0x62,0x6c,0x65,0x46,0x3a,0x0a,0x40,0x77,0x61,0x69,0x74,0x46,0x3a,0x0a,0x40,0x6c,0x69,0x73,0x74,0x5b,0x10,0x6f,0x3a,0x15,0x52,0x50,0x47,0x3a,0x3a,0x4d,0x6f,0x76,0x65,0x43,0x6f,0x6d,0x6d,0x61,0x6e,0x64,0x07,0x3a,0x0a,0x40,0x63,0x6f,0x64,0x65,0x69,0x2a,0x3a,0x10,0x40,0x70,0x61,0x72,0x61,0x6d,0x65,0x74,0x65,0x72,0x73,0x5b,0x00,0x6f,0x3b,0x0a,0x07,0x3b,0x0b,0x69,0x06,0x3b,0x0c,0x5b,0x00,0x6f,0x3b,0x0a,0x07,0x3b,0x0b,0x69,0x07,0x3b,0x0c,0x5b,0x00,0x6f,0x3b,0x0a,0x07,0x3b,0x0b,0x69,0x07,0x3b,0x0c,0x5b,0x00,0x6f,0x3b,0x0a,0x07,0x3b,0x0b,0x69,0x07,0x3b,0x0c,0x5b,0x00,0x6f,0x3b,0x0a,0x07,0x3b,0x0b,0x69,0x07,0x3b,0x0c,0x5b,0x00,0x6f,0x3b,0x0a,0x07,0x3b,0x0b,0x69,0x06,0x3b,0x0c,0x5b,0x00,0x6f,0x3b,0x0a,0x07,0x3b,0x0b,0x69,0x06,0x3b,0x0c,0x5b,0x00,0x6f,0x3b,0x0a,0x07,0x3b,0x0b,0x69,0x06,0x3b,0x0c,0x5b,0x00,0x6f,0x3b,0x0a,0x07,0x3b,0x0b,0x69,0x2c,0x3b,0x0c,0x5b,0x00,0x6f,0x3b,0x0a,0x07,0x3b,0x0b,0x69,0x00,0x3b,0x0c,0x5b,0x00))
  RunCommonEvent(313)
  0()
 PAGE   2
  // condition: party contains actor #74
  0()
 PAGE   3
  // condition: party contains actor #75
  0()



EVENT   52
 PAGE   1
  If(1,803,0,2,1)
   If(0,1546,1)
    ShowMessageFace("mob_hurou_fc1",0,0,2,1)
    ShowMessage("\\n<Stella>Hey, take me with you...")
    ShowChoices(strings("Let her join","Decline for now"),0)
    IfPlayerPicksChoice(0,null)
     ShowMessageFace("mob_hurou_fc1",0,0,2,2)
     ShowMessage("\\n<Stella>No more being poor for me... I hope.")
     PictureClear(5)
     205(0,bytes(0x04,0x08,0x6f,0x3a,0x13,0x52,0x50,0x47,0x3a,0x3a,0x4d,0x6f,0x76,0x65,0x52,0x6f,0x75,0x74,0x65,0x09,0x3a,0x0c,0x40,0x72,0x65,0x70,0x65,0x61,0x74,0x46,0x3a,0x0f,0x40,0x73,0x6b,0x69,0x70,0x70,0x61,0x62,0x6c,0x65,0x46,0x3a,0x0a,0x40,0x77,0x61,0x69,0x74,0x54,0x3a,0x0a,0x40,0x6c,0x69,0x73,0x74,0x5b,0x09,0x6f,0x3a,0x15,0x52,0x50,0x47,0x3a,0x3a,0x4d,0x6f,0x76,0x65,0x43,0x6f,0x6d,0x6d,0x61,0x6e,0x64,0x07,0x3a,0x0a,0x40,0x63,0x6f,0x64,0x65,0x69,0x2a,0x3a,0x10,0x40,0x70,0x61,0x72,0x61,0x6d,0x65,0x74,0x65,0x72,0x73,0x5b,0x00,0x6f,0x3b,0x0a,0x07,0x3b,0x0b,0x69,0x0f,0x3b,0x0c,0x5b,0x00,0x6f,0x3b,0x0a,0x07,0x3b,0x0b,0x69,0x2c,0x3b,0x0c,0x5b,0x00,0x6f,0x3b,0x0a,0x07,0x3b,0x0b,0x69,0x00,0x3b,0x0c,0x5b,0x00))
     355("add_actor_ex(546)")
     249(bytes(0x04,0x08,0x6f,0x3a,0x0c,0x52,0x50,0x47,0x3a,0x3a,0x4d,0x45,0x08,0x3a,0x0a,0x40,0x6e,0x61,0x6d,0x65,0x49,0x22,0x0c,0x66,0x61,0x6e,0x66,0x61,0x6c,0x65,0x06,0x3a,0x06,0x45,0x54,0x3a,0x0b,0x40,0x70,0x69,0x74,0x63,0x68,0x69,0x69,0x3a,0x0c,0x40,0x76,0x6f,0x6c,0x75,0x6d,0x65,0x69,0x69))
     ShowMessageFace("",0,0,2,3)
     ShowMessage("Stella joined the party!")
     Wait(60)
     EndEventProcessing()
     0()
    IfPlayerPicksChoice(1,null)
     ShowMessageFace("mob_hurou_fc1",0,0,2,4)
     ShowMessage("\\n<Stella>......")
     0()
    404()
    0()
   EndIf()
   0()
  EndIf()
  RunCommonEvent(7021)
  0()
 PAGE   2
  // condition: party contains actor #546
  0()



EVENT   53
 PAGE   1
  // condition: switch 31 is ON
  0()
