﻿


EVENT   1
 PAGE   1
  250(bytes(0x04,0x08,0x6f,0x3a,0x0c,0x52,0x50,0x47,0x3a,0x3a,0x53,0x45,0x08,0x3a,0x0a,0x40,0x6e,0x61,0x6d,0x65,0x49,0x22,0x09,0x4d,0x6f,0x76,0x65,0x06,0x3a,0x06,0x45,0x54,0x3a,0x0b,0x40,0x70,0x69,0x74,0x63,0x68,0x69,0x69,0x3a,0x0c,0x40,0x76,0x6f,0x6c,0x75,0x6d,0x65,0x69,0x55))
  TeleportPlayer(0,874,10,10,0,0)
  0()



EVENT   4
 PAGE   1
  If(1,1208,0,10,0)
   ShowMessageFace("kazuya_fc2",3,0,2,1)
   ShowMessage("\\n<Kazuya>")
   ShowMessage("戻るのは危険だ！")
   205(-1,bytes(0x04,0x08,0x6f,0x3a,0x13,0x52,0x50,0x47,0x3a,0x3a,0x4d,0x6f,0x76,0x65,0x52,0x6f,0x75,0x74,0x65,0x09,0x3a,0x0c,0x40,0x72,0x65,0x70,0x65,0x61,0x74,0x46,0x3a,0x0f,0x40,0x73,0x6b,0x69,0x70,0x70,0x61,0x62,0x6c,0x65,0x46,0x3a,0x0a,0x40,0x77,0x61,0x69,0x74,0x54,0x3a,0x0a,0x40,0x6c,0x69,0x73,0x74,0x5b,0x07,0x6f,0x3a,0x15,0x52,0x50,0x47,0x3a,0x3a,0x4d,0x6f,0x76,0x65,0x43,0x6f,0x6d,0x6d,0x61,0x6e,0x64,0x07,0x3a,0x0a,0x40,0x63,0x6f,0x64,0x65,0x69,0x06,0x3a,0x10,0x40,0x70,0x61,0x72,0x61,0x6d,0x65,0x74,0x65,0x72,0x73,0x5b,0x00,0x6f,0x3b,0x0a,0x07,0x3b,0x0b,0x69,0x00,0x3b,0x0c,0x5b,0x00))
   EndEventProcessing()
   0()
  EndIf()
  250(bytes(0x04,0x08,0x6f,0x3a,0x0c,0x52,0x50,0x47,0x3a,0x3a,0x53,0x45,0x08,0x3a,0x0a,0x40,0x6e,0x61,0x6d,0x65,0x49,0x22,0x09,0x4d,0x6f,0x76,0x65,0x06,0x3a,0x06,0x45,0x54,0x3a,0x0b,0x40,0x70,0x69,0x74,0x63,0x68,0x69,0x69,0x3a,0x0c,0x40,0x76,0x6f,0x6c,0x75,0x6d,0x65,0x69,0x55))
  TeleportPlayer(0,875,11,27,0,0)
  0()



EVENT   9
 PAGE   1
  250(bytes(0x04,0x08,0x6f,0x3a,0x0c,0x52,0x50,0x47,0x3a,0x3a,0x53,0x45,0x08,0x3a,0x0a,0x40,0x6e,0x61,0x6d,0x65,0x49,0x22,0x09,0x4d,0x6f,0x76,0x65,0x06,0x3a,0x06,0x45,0x54,0x3a,0x0b,0x40,0x70,0x69,0x74,0x63,0x68,0x69,0x69,0x3a,0x0c,0x40,0x76,0x6f,0x6c,0x75,0x6d,0x65,0x69,0x55))
  TeleportPlayer(0,881,33,39,0,0)
  0()



EVENT   2
 PAGE   1
  250(bytes(0x04,0x08,0x6f,0x3a,0x0c,0x52,0x50,0x47,0x3a,0x3a,0x53,0x45,0x08,0x3a,0x0a,0x40,0x6e,0x61,0x6d,0x65,0x49,0x22,0x09,0x4d,0x6f,0x76,0x65,0x06,0x3a,0x06,0x45,0x54,0x3a,0x0b,0x40,0x70,0x69,0x74,0x63,0x68,0x69,0x69,0x3a,0x0c,0x40,0x76,0x6f,0x6c,0x75,0x6d,0x65,0x69,0x55))
  TeleportPlayer(0,874,10,10,0,0)
  0()



EVENT   3
 PAGE   1
  250(bytes(0x04,0x08,0x6f,0x3a,0x0c,0x52,0x50,0x47,0x3a,0x3a,0x53,0x45,0x08,0x3a,0x0a,0x40,0x6e,0x61,0x6d,0x65,0x49,0x22,0x09,0x4d,0x6f,0x76,0x65,0x06,0x3a,0x06,0x45,0x54,0x3a,0x0b,0x40,0x70,0x69,0x74,0x63,0x68,0x69,0x69,0x3a,0x0c,0x40,0x76,0x6f,0x6c,0x75,0x6d,0x65,0x69,0x55))
  TeleportPlayer(0,874,10,10,0,0)
  0()



EVENT   10
 PAGE   1
  ChangeSwitch(31,31,1)
  ChangeSwitch(32,32,1)
  ChangeSwitch(33,33,1)
  ChangeSwitch(34,34,1)
  ChangeSwitch(35,35,1)
  250(bytes(0x04,0x08,0x6f,0x3a,0x0c,0x52,0x50,0x47,0x3a,0x3a,0x53,0x45,0x08,0x3a,0x0a,0x40,0x6e,0x61,0x6d,0x65,0x49,0x22,0x09,0x4d,0x6f,0x76,0x65,0x06,0x3a,0x06,0x45,0x54,0x3a,0x0b,0x40,0x70,0x69,0x74,0x63,0x68,0x69,0x69,0x3a,0x0c,0x40,0x76,0x6f,0x6c,0x75,0x6d,0x65,0x69,0x55))
  TeleportPlayer(0,881,44,39,0,0)
  0()



EVENT   5
 PAGE   1
  If(1,1208,0,10,0)
   ShowMessageFace("kazuya_fc2",3,0,2,1)
   ShowMessage("\\n<Kazuya>")
   ShowMessage("戻るのは危険だ！")
   205(-1,bytes(0x04,0x08,0x6f,0x3a,0x13,0x52,0x50,0x47,0x3a,0x3a,0x4d,0x6f,0x76,0x65,0x52,0x6f,0x75,0x74,0x65,0x09,0x3a,0x0c,0x40,0x72,0x65,0x70,0x65,0x61,0x74,0x46,0x3a,0x0f,0x40,0x73,0x6b,0x69,0x70,0x70,0x61,0x62,0x6c,0x65,0x46,0x3a,0x0a,0x40,0x77,0x61,0x69,0x74,0x54,0x3a,0x0a,0x40,0x6c,0x69,0x73,0x74,0x5b,0x07,0x6f,0x3a,0x15,0x52,0x50,0x47,0x3a,0x3a,0x4d,0x6f,0x76,0x65,0x43,0x6f,0x6d,0x6d,0x61,0x6e,0x64,0x07,0x3a,0x0a,0x40,0x63,0x6f,0x64,0x65,0x69,0x06,0x3a,0x10,0x40,0x70,0x61,0x72,0x61,0x6d,0x65,0x74,0x65,0x72,0x73,0x5b,0x00,0x6f,0x3b,0x0a,0x07,0x3b,0x0b,0x69,0x00,0x3b,0x0c,0x5b,0x00))
   EndEventProcessing()
   0()
  EndIf()
  250(bytes(0x04,0x08,0x6f,0x3a,0x0c,0x52,0x50,0x47,0x3a,0x3a,0x53,0x45,0x08,0x3a,0x0a,0x40,0x6e,0x61,0x6d,0x65,0x49,0x22,0x09,0x4d,0x6f,0x76,0x65,0x06,0x3a,0x06,0x45,0x54,0x3a,0x0b,0x40,0x70,0x69,0x74,0x63,0x68,0x69,0x69,0x3a,0x0c,0x40,0x76,0x6f,0x6c,0x75,0x6d,0x65,0x69,0x55))
  TeleportPlayer(0,875,11,27,0,0)
  0()



EVENT   6
 PAGE   1
  If(1,1208,0,10,0)
   ShowMessageFace("kazuya_fc2",3,0,2,1)
   ShowMessage("\\n<Kazuya>")
   ShowMessage("戻るのは危険だ！")
   205(-1,bytes(0x04,0x08,0x6f,0x3a,0x13,0x52,0x50,0x47,0x3a,0x3a,0x4d,0x6f,0x76,0x65,0x52,0x6f,0x75,0x74,0x65,0x09,0x3a,0x0c,0x40,0x72,0x65,0x70,0x65,0x61,0x74,0x46,0x3a,0x0f,0x40,0x73,0x6b,0x69,0x70,0x70,0x61,0x62,0x6c,0x65,0x46,0x3a,0x0a,0x40,0x77,0x61,0x69,0x74,0x54,0x3a,0x0a,0x40,0x6c,0x69,0x73,0x74,0x5b,0x07,0x6f,0x3a,0x15,0x52,0x50,0x47,0x3a,0x3a,0x4d,0x6f,0x76,0x65,0x43,0x6f,0x6d,0x6d,0x61,0x6e,0x64,0x07,0x3a,0x0a,0x40,0x63,0x6f,0x64,0x65,0x69,0x06,0x3a,0x10,0x40,0x70,0x61,0x72,0x61,0x6d,0x65,0x74,0x65,0x72,0x73,0x5b,0x00,0x6f,0x3b,0x0a,0x07,0x3b,0x0b,0x69,0x00,0x3b,0x0c,0x5b,0x00))
   EndEventProcessing()
   0()
  EndIf()
  250(bytes(0x04,0x08,0x6f,0x3a,0x0c,0x52,0x50,0x47,0x3a,0x3a,0x53,0x45,0x08,0x3a,0x0a,0x40,0x6e,0x61,0x6d,0x65,0x49,0x22,0x09,0x4d,0x6f,0x76,0x65,0x06,0x3a,0x06,0x45,0x54,0x3a,0x0b,0x40,0x70,0x69,0x74,0x63,0x68,0x69,0x69,0x3a,0x0c,0x40,0x76,0x6f,0x6c,0x75,0x6d,0x65,0x69,0x55))
  TeleportPlayer(0,875,11,27,0,0)
  0()



EVENT   7
 PAGE   1
  If(1,1208,0,10,0)
   ShowMessageFace("kazuya_fc2",3,0,2,1)
   ShowMessage("\\n<Kazuya>")
   ShowMessage("戻るのは危険だ！")
   205(-1,bytes(0x04,0x08,0x6f,0x3a,0x13,0x52,0x50,0x47,0x3a,0x3a,0x4d,0x6f,0x76,0x65,0x52,0x6f,0x75,0x74,0x65,0x09,0x3a,0x0c,0x40,0x72,0x65,0x70,0x65,0x61,0x74,0x46,0x3a,0x0f,0x40,0x73,0x6b,0x69,0x70,0x70,0x61,0x62,0x6c,0x65,0x46,0x3a,0x0a,0x40,0x77,0x61,0x69,0x74,0x54,0x3a,0x0a,0x40,0x6c,0x69,0x73,0x74,0x5b,0x07,0x6f,0x3a,0x15,0x52,0x50,0x47,0x3a,0x3a,0x4d,0x6f,0x76,0x65,0x43,0x6f,0x6d,0x6d,0x61,0x6e,0x64,0x07,0x3a,0x0a,0x40,0x63,0x6f,0x64,0x65,0x69,0x06,0x3a,0x10,0x40,0x70,0x61,0x72,0x61,0x6d,0x65,0x74,0x65,0x72,0x73,0x5b,0x00,0x6f,0x3b,0x0a,0x07,0x3b,0x0b,0x69,0x00,0x3b,0x0c,0x5b,0x00))
   EndEventProcessing()
   0()
  EndIf()
  250(bytes(0x04,0x08,0x6f,0x3a,0x0c,0x52,0x50,0x47,0x3a,0x3a,0x53,0x45,0x08,0x3a,0x0a,0x40,0x6e,0x61,0x6d,0x65,0x49,0x22,0x09,0x4d,0x6f,0x76,0x65,0x06,0x3a,0x06,0x45,0x54,0x3a,0x0b,0x40,0x70,0x69,0x74,0x63,0x68,0x69,0x69,0x3a,0x0c,0x40,0x76,0x6f,0x6c,0x75,0x6d,0x65,0x69,0x55))
  TeleportPlayer(0,875,11,27,0,0)
  0()



EVENT   8
 PAGE   1
  If(1,1208,0,10,0)
   ShowMessageFace("kazuya_fc2",3,0,2,1)
   ShowMessage("\\n<Kazuya>")
   ShowMessage("戻るのは危険だ！")
   205(-1,bytes(0x04,0x08,0x6f,0x3a,0x13,0x52,0x50,0x47,0x3a,0x3a,0x4d,0x6f,0x76,0x65,0x52,0x6f,0x75,0x74,0x65,0x09,0x3a,0x0c,0x40,0x72,0x65,0x70,0x65,0x61,0x74,0x46,0x3a,0x0f,0x40,0x73,0x6b,0x69,0x70,0x70,0x61,0x62,0x6c,0x65,0x46,0x3a,0x0a,0x40,0x77,0x61,0x69,0x74,0x54,0x3a,0x0a,0x40,0x6c,0x69,0x73,0x74,0x5b,0x07,0x6f,0x3a,0x15,0x52,0x50,0x47,0x3a,0x3a,0x4d,0x6f,0x76,0x65,0x43,0x6f,0x6d,0x6d,0x61,0x6e,0x64,0x07,0x3a,0x0a,0x40,0x63,0x6f,0x64,0x65,0x69,0x06,0x3a,0x10,0x40,0x70,0x61,0x72,0x61,0x6d,0x65,0x74,0x65,0x72,0x73,0x5b,0x00,0x6f,0x3b,0x0a,0x07,0x3b,0x0b,0x69,0x00,0x3b,0x0c,0x5b,0x00))
   EndEventProcessing()
   0()
  EndIf()
  250(bytes(0x04,0x08,0x6f,0x3a,0x0c,0x52,0x50,0x47,0x3a,0x3a,0x53,0x45,0x08,0x3a,0x0a,0x40,0x6e,0x61,0x6d,0x65,0x49,0x22,0x09,0x4d,0x6f,0x76,0x65,0x06,0x3a,0x06,0x45,0x54,0x3a,0x0b,0x40,0x70,0x69,0x74,0x63,0x68,0x69,0x69,0x3a,0x0c,0x40,0x76,0x6f,0x6c,0x75,0x6d,0x65,0x69,0x55))
  TeleportPlayer(0,875,11,27,0,0)
  0()



EVENT   11
 PAGE   1
  If(1,1208,0,10,0)
   ShowMessageFace("kazuya_fc2",3,0,2,1)
   ShowMessage("\\n<Kazuya>")
   ShowMessage("こっちはまずい！")
   205(-1,bytes(0x04,0x08,0x6f,0x3a,0x13,0x52,0x50,0x47,0x3a,0x3a,0x4d,0x6f,0x76,0x65,0x52,0x6f,0x75,0x74,0x65,0x09,0x3a,0x0c,0x40,0x72,0x65,0x70,0x65,0x61,0x74,0x46,0x3a,0x0f,0x40,0x73,0x6b,0x69,0x70,0x70,0x61,0x62,0x6c,0x65,0x46,0x3a,0x0a,0x40,0x77,0x61,0x69,0x74,0x54,0x3a,0x0a,0x40,0x6c,0x69,0x73,0x74,0x5b,0x07,0x6f,0x3a,0x15,0x52,0x50,0x47,0x3a,0x3a,0x4d,0x6f,0x76,0x65,0x43,0x6f,0x6d,0x6d,0x61,0x6e,0x64,0x07,0x3a,0x0a,0x40,0x63,0x6f,0x64,0x65,0x69,0x06,0x3a,0x10,0x40,0x70,0x61,0x72,0x61,0x6d,0x65,0x74,0x65,0x72,0x73,0x5b,0x00,0x6f,0x3b,0x0a,0x07,0x3b,0x0b,0x69,0x00,0x3b,0x0c,0x5b,0x00))
   EndEventProcessing()
   0()
  EndIf()
  250(bytes(0x04,0x08,0x6f,0x3a,0x0c,0x52,0x50,0x47,0x3a,0x3a,0x53,0x45,0x08,0x3a,0x0a,0x40,0x6e,0x61,0x6d,0x65,0x49,0x22,0x09,0x4d,0x6f,0x76,0x65,0x06,0x3a,0x06,0x45,0x54,0x3a,0x0b,0x40,0x70,0x69,0x74,0x63,0x68,0x69,0x69,0x3a,0x0c,0x40,0x76,0x6f,0x6c,0x75,0x6d,0x65,0x69,0x55))
  TeleportPlayer(0,882,7,40,0,0)
  0()



EVENT   12
 PAGE   1
  If(1,1208,0,10,0)
   ShowMessageFace("kazuya_fc2",3,0,2,1)
   ShowMessage("\\n<Kazuya>")
   ShowMessage("こっちはまずい！")
   205(-1,bytes(0x04,0x08,0x6f,0x3a,0x13,0x52,0x50,0x47,0x3a,0x3a,0x4d,0x6f,0x76,0x65,0x52,0x6f,0x75,0x74,0x65,0x09,0x3a,0x0c,0x40,0x72,0x65,0x70,0x65,0x61,0x74,0x46,0x3a,0x0f,0x40,0x73,0x6b,0x69,0x70,0x70,0x61,0x62,0x6c,0x65,0x46,0x3a,0x0a,0x40,0x77,0x61,0x69,0x74,0x54,0x3a,0x0a,0x40,0x6c,0x69,0x73,0x74,0x5b,0x07,0x6f,0x3a,0x15,0x52,0x50,0x47,0x3a,0x3a,0x4d,0x6f,0x76,0x65,0x43,0x6f,0x6d,0x6d,0x61,0x6e,0x64,0x07,0x3a,0x0a,0x40,0x63,0x6f,0x64,0x65,0x69,0x06,0x3a,0x10,0x40,0x70,0x61,0x72,0x61,0x6d,0x65,0x74,0x65,0x72,0x73,0x5b,0x00,0x6f,0x3b,0x0a,0x07,0x3b,0x0b,0x69,0x00,0x3b,0x0c,0x5b,0x00))
   EndEventProcessing()
   0()
  EndIf()
  250(bytes(0x04,0x08,0x6f,0x3a,0x0c,0x52,0x50,0x47,0x3a,0x3a,0x53,0x45,0x08,0x3a,0x0a,0x40,0x6e,0x61,0x6d,0x65,0x49,0x22,0x09,0x4d,0x6f,0x76,0x65,0x06,0x3a,0x06,0x45,0x54,0x3a,0x0b,0x40,0x70,0x69,0x74,0x63,0x68,0x69,0x69,0x3a,0x0c,0x40,0x76,0x6f,0x6c,0x75,0x6d,0x65,0x69,0x55))
  TeleportPlayer(0,882,27,40,0,0)
  0()



EVENT   13
 PAGE   1
  // condition: switch 33 is ON
  0()



EVENT   14
 PAGE   1
  // condition: switch 34 is ON
  0()



EVENT   16
 PAGE   1
  If(1,1208,0,7,2)
   If(2,"A",1)
    ChangeSelfSwitch("A",0)
    ShowMessageFace("rejeo_fc1",0,0,2,1)
    ShowMessage("\\n<Rigeo>")
    ShowMessage("ポートがある……")
    ShowMessage("でも夢世界じゃないから、本来の機能は失ってるみたい。")
    ShowMessageFace("kazuya_fc1",0,0,2,2)
    ShowMessage("\\n<Kazuya>")
    ShowMessage("この装置の力、流用できそうだな。")
    ShowMessage("回復と、あと転職システムも起動できるんじゃないか？")
    0()
   EndIf()
   0()
  EndIf()
  RunCommonEvent(500)
  0()



EVENT   17
 PAGE   1
  ChangeSelfSwitch("A",0)
  ShowMessageFace("rejeo_fc1",0,0,2,1)
  ShowMessage("\\n<Rigeo>")
  ShowMessage("この先……")
  ShowMessage("二階から、フルビュアの気配を感じるわ。")
  ShowMessageFace("magatu_fc1",2,0,2,2)
  ShowMessage("\\n<Magatsu>")
  ShowMessage("わざと妖気を放ち、我等を誘っていると見える。")
  ShowMessage("あの者なら、ゲートの場所を知っているのではないか？")
  ShowMessageFace("kazuya_fc1",0,0,2,3)
  ShowMessage("\\n<Kazuya>")
  ShowMessage("誘いに乗るのも癪だけど……")
  ShowMessage("仕方ない、行ってみるか。")
  ShowMessageFace("",0,0,2,4)
  ShowMessage("あてもなく広い城内を探し回るよりは、")
  ShowMessage("知っている者から聞き出した方が良いに決まっている。")
  ShowMessageFace("",0,0,2,5)
  ShowMessage("ただ、その相手は相当に厄介そうだが――")
  ShowMessage("とにかく、二階に行くしかなさそうだ。")
  EndEventProcessing()
  0()
 PAGE   2
  // condition: self-switch A is ON
  0()



EVENT   18
 PAGE   1
  // condition: variable 1208 >= 9
  241(bytes(0x04,0x08,0x6f,0x3a,0x0d,0x52,0x50,0x47,0x3a,0x3a,0x42,0x47,0x4d,0x08,0x3a,0x0a,0x40,0x6e,0x61,0x6d,0x65,0x49,0x22,0x0a,0x6b,0x69,0x6b,0x69,0x31,0x06,0x3a,0x06,0x45,0x54,0x3a,0x0c,0x40,0x76,0x6f,0x6c,0x75,0x6d,0x65,0x69,0x69,0x3a,0x0b,0x40,0x70,0x69,0x74,0x63,0x68,0x69,0x69))
  ChangeSwitch(31,31,0)
  205(-1,bytes(0x04,0x08,0x6f,0x3a,0x13,0x52,0x50,0x47,0x3a,0x3a,0x4d,0x6f,0x76,0x65,0x52,0x6f,0x75,0x74,0x65,0x09,0x3a,0x0c,0x40,0x72,0x65,0x70,0x65,0x61,0x74,0x46,0x3a,0x0f,0x40,0x73,0x6b,0x69,0x70,0x70,0x61,0x62,0x6c,0x65,0x46,0x3a,0x0a,0x40,0x77,0x61,0x69,0x74,0x54,0x3a,0x0a,0x40,0x6c,0x69,0x73,0x74,0x5b,0x07,0x6f,0x3a,0x15,0x52,0x50,0x47,0x3a,0x3a,0x4d,0x6f,0x76,0x65,0x43,0x6f,0x6d,0x6d,0x61,0x6e,0x64,0x07,0x3a,0x0a,0x40,0x63,0x6f,0x64,0x65,0x69,0x18,0x3a,0x10,0x40,0x70,0x61,0x72,0x61,0x6d,0x65,0x74,0x65,0x72,0x73,0x5b,0x00,0x6f,0x3b,0x0a,0x07,0x3b,0x0b,0x69,0x00,0x3b,0x0c,0x5b,0x00))
  ShowSpeechBalloon(-1,1,false)
  ShowMessageFace("",0,0,1,1)
  ShowMessage("なんとか逃げ延びろ！")
  ShowMessage("捕まればゲームオーバーだ！")
  ChangeVariable(1208,1208,0,0,10)
  EndEventProcessing()
  0()
 PAGE   2
  // condition: variable 1208 >= 10
  0()



EVENT   15
 PAGE   1
  // condition: switch 31 is ON
  0()
 PAGE   2
  // condition: variable 1208 >= 10
  PictureDisplay(5,"80_myuska_st11",0,0,0,0,100,100,0,0)
  PictureMove(5,null,0,0,0,0,100,100,255,0,30,true)
  ShowMessageFace("myuska_fc1",5,0,2,1)
  ShowMessage("\\n<Myusca>")
  ShowMessage("はい、つっかまえた～♡")
  250(bytes(0x04,0x08,0x6f,0x3a,0x0c,0x52,0x50,0x47,0x3a,0x3a,0x53,0x45,0x08,0x3a,0x0a,0x40,0x6e,0x61,0x6d,0x65,0x49,0x22,0x0a,0x44,0x6f,0x77,0x6e,0x31,0x06,0x3a,0x06,0x45,0x54,0x3a,0x0b,0x40,0x70,0x69,0x74,0x63,0x68,0x69,0x69,0x3a,0x0c,0x40,0x76,0x6f,0x6c,0x75,0x6d,0x65,0x69,0x55))
  ShowMessageFace("",0,0,2,2)
  ShowMessage("ミュスカに捕まってしまった……")
  241(bytes(0x04,0x08,0x6f,0x3a,0x0d,0x52,0x50,0x47,0x3a,0x3a,0x42,0x47,0x4d,0x08,0x3a,0x0a,0x40,0x6e,0x61,0x6d,0x65,0x49,0x22,0x09,0x65,0x72,0x6f,0x31,0x06,0x3a,0x06,0x45,0x54,0x3a,0x0c,0x40,0x76,0x6f,0x6c,0x75,0x6d,0x65,0x69,0x69,0x3a,0x0b,0x40,0x70,0x69,0x74,0x63,0x68,0x69,0x69))
  ShowMessageFace("myuska_fc1",5,0,2,3)
  ShowMessage("\\n<Myusca>")
  ShowMessage("それじゃあ……いただきまぁす♡")
  ShowMessageFace("kazuya_fc2",3,0,2,4)
  ShowMessage("\\n<Kazuya>")
  ShowMessage("や、やめろ――うわぁぁぁ！！")
  221()
  PictureClear(5)
  RunCommonEvent(104)
  RunCommonEvent(105)
  ShowMessageFace("kazuya_fc2",3,0,2,5)
  ShowMessage("\\n<Kazuya>")
  ShowMessage("ぁ……ぁぁ……")
  ShowMessageFace("myuska_fc1",5,0,2,6)
  ShowMessage("\\n<Myusca>")
  ShowMessage("あはっ……ごちそうさま♡")
  242(1)
  Wait(120)
  ShowMessageFace("",0,0,2,7)
  ShowMessage("・・・・・・・・")
  RunCommonEvent(2999)
  0()
 PAGE   3
  // condition: variable 1210 >= 1
  0()



EVENT   19
 PAGE   1
  // condition: variable 1208 >= 10
  RunCommonEvent(516)
  0()
 PAGE   2
  // condition: variable 1208 >= 11
  0()



EVENT   24
 PAGE   1
  // condition: variable 1208 >= 10
  RunCommonEvent(517)
  0()
 PAGE   2
  // condition: variable 1208 >= 11
  0()



EVENT   20
 PAGE   1
  // condition: variable 1208 >= 10
  RunCommonEvent(516)
  0()
 PAGE   2
  // condition: variable 1208 >= 11
  0()



EVENT   21
 PAGE   1
  // condition: variable 1208 >= 10
  RunCommonEvent(516)
  0()
 PAGE   2
  // condition: variable 1208 >= 11
  0()



EVENT   22
 PAGE   1
  // condition: variable 1208 >= 10
  RunCommonEvent(516)
  0()
 PAGE   2
  // condition: variable 1208 >= 11
  0()



EVENT   23
 PAGE   1
  // condition: variable 1208 >= 10
  RunCommonEvent(516)
  0()
 PAGE   2
  // condition: variable 1208 >= 11
  0()



EVENT   25
 PAGE   1
  // condition: variable 1208 >= 10
  RunCommonEvent(517)
  0()
 PAGE   2
  // condition: variable 1208 >= 11
  0()



EVENT   26
 PAGE   1
  // condition: variable 1208 >= 10
  RunCommonEvent(517)
  0()
 PAGE   2
  // condition: variable 1208 >= 11
  0()



EVENT   27
 PAGE   1
  ShowMessageFace("monk_demon_fc1",0,0,2,1)
  ShowMessage("\\n<モンクデーモン>")
  ShowMessage("私は、この世界出身の魔物よ。")
  ShowMessage("「夢の主」の啓示を受け、この魔城に馳せ参じたの。")
  ShowMessageFace("monk_demon_fc1",0,0,2,2)
  ShowMessage("\\n<モンクデーモン>")
  ShowMessage("この世界が、夜の国に沈めば……")
  ShowMessage("私達も、永遠の快楽を愉しめるようになるわ。")
  ShowMessageFace("kazuya_fc2",2,0,2,3)
  ShowMessage("\\n<Kazuya>")
  ShowMessage("この世界からも、「夢の主」に荷担する者が出てきてるのか。")
  ShowMessage("そいつらも城内をうろついてるなんて、面倒だな……")
  0()
 PAGE   2
  // condition: variable 1208 >= 9
  0()



EVENT   28
 PAGE   1
  ShowMessageFace("lanpass_fc2",0,0,2,1)
  ShowMessage("\\n<Lampas>")
  ShowMessage("これ、何だろうね？")
  ShowMessage("なんだか面白いお城～♪")
  0()
 PAGE   2
  // condition: variable 1208 >= 9
  0()



EVENT   29
 PAGE   1
  0()



EVENT   30
 PAGE   1
  0()



EVENT   31
 PAGE   1
  0()



EVENT   32
 PAGE   1
  0()



EVENT   33
 PAGE   1
  0()



EVENT   34
 PAGE   1
  0()



EVENT   35
 PAGE   1
  0()



EVENT   36
 PAGE   1
  0()



EVENT   37
 PAGE   1
  0()



EVENT   38
 PAGE   1
  0()



EVENT   39
 PAGE   1
  0()



EVENT   40
 PAGE   1
  0()



EVENT   41
 PAGE   1
  ShowMessageFace("youkosan_fc1",0,0,2,1)
  ShowMessage("\\n<妖狐>")
  ShowMessage("この階の奥に、広間があるよ。")
  ShowMessage("ヒマな魔物や夢魔は、みんなそこでダベってるみたい。")
  ShowMessageFace("youkosan_fc1",0,0,2,2)
  ShowMessage("\\n<妖狐>")
  ShowMessage("ウチは、ちょっと酔い覚ましに散歩中……")
  ShowMessage("昨日も今日も、飲み過ぎちゃったよぉ。")
  0()
 PAGE   2
  // condition: variable 1208 >= 9
  0()
