﻿


EVENT   8
 PAGE   1
  250(bytes(0x04,0x08,0x6f,0x3a,0x0c,0x52,0x50,0x47,0x3a,0x3a,0x53,0x45,0x08,0x3a,0x0a,0x40,0x6e,0x61,0x6d,0x65,0x49,0x22,0x09,0x4d,0x6f,0x76,0x65,0x06,0x3a,0x06,0x45,0x54,0x3a,0x0b,0x40,0x70,0x69,0x74,0x63,0x68,0x69,0x69,0x3a,0x0c,0x40,0x76,0x6f,0x6c,0x75,0x6d,0x65,0x69,0x55))
  TeleportPlayer(0,895,51,26,0,0)
  0()



EVENT   9
 PAGE   1
  250(bytes(0x04,0x08,0x6f,0x3a,0x0c,0x52,0x50,0x47,0x3a,0x3a,0x53,0x45,0x08,0x3a,0x0a,0x40,0x6e,0x61,0x6d,0x65,0x49,0x22,0x09,0x4d,0x6f,0x76,0x65,0x06,0x3a,0x06,0x45,0x54,0x3a,0x0b,0x40,0x70,0x69,0x74,0x63,0x68,0x69,0x69,0x3a,0x0c,0x40,0x76,0x6f,0x6c,0x75,0x6d,0x65,0x69,0x55))
  TeleportPlayer(0,895,51,26,0,0)
  0()



EVENT   10
 PAGE   1
  // condition: switch 32 is ON
  0()



EVENT   12
 PAGE   1
  // condition: switch 33 is ON
  0()



EVENT   13
 PAGE   1
  // condition: switch 31 is ON
  0()



EVENT   11
 PAGE   1
  // condition: variable 1208 >= 13
  RunCommonEvent(520)
  0()



EVENT   14
 PAGE   1
  // condition: variable 1208 >= 13
  RunCommonEvent(520)
  0()



EVENT   15
 PAGE   1
  // condition: variable 1208 >= 13
  RunCommonEvent(520)
  0()



EVENT   16
 PAGE   1
  // condition: switch 4 is ON
  // condition: switch 34 is ON
  0()
 PAGE   2
  // condition: switch 5 is ON
  // condition: switch 34 is ON
  0()



EVENT   17
 PAGE   1
  // condition: switch 35 is ON
  0()



EVENT   18
 PAGE   1
  // condition: switch 36 is ON
  0()



EVENT   19
 PAGE   1
  // condition: switch 37 is ON
  0()
