﻿
DisplayName "魔城トゥーロマンサ 第10層"



EVENT   1
 PAGE   1
  250(bytes(0x04,0x08,0x6f,0x3a,0x0c,0x52,0x50,0x47,0x3a,0x3a,0x53,0x45,0x08,0x3a,0x0a,0x40,0x6e,0x61,0x6d,0x65,0x49,0x22,0x09,0x4d,0x6f,0x76,0x65,0x06,0x3a,0x06,0x45,0x54,0x3a,0x0b,0x40,0x70,0x69,0x74,0x63,0x68,0x69,0x69,0x3a,0x0c,0x40,0x76,0x6f,0x6c,0x75,0x6d,0x65,0x69,0x55))
  TeleportPlayer(0,930,52,45,0,0)
  0()



EVENT   5
 PAGE   1
  ChangeSwitch(31,31,1)
  250(bytes(0x04,0x08,0x6f,0x3a,0x0c,0x52,0x50,0x47,0x3a,0x3a,0x53,0x45,0x08,0x3a,0x0a,0x40,0x6e,0x61,0x6d,0x65,0x49,0x22,0x0b,0x4d,0x61,0x67,0x69,0x63,0x32,0x06,0x3a,0x06,0x45,0x54,0x3a,0x0b,0x40,0x70,0x69,0x74,0x63,0x68,0x69,0x69,0x3a,0x0c,0x40,0x76,0x6f,0x6c,0x75,0x6d,0x65,0x69,0x55))
  TeleportPlayer(0,931,63,51,2,1)
  0()



EVENT   6
 PAGE   1
  250(bytes(0x04,0x08,0x6f,0x3a,0x0c,0x52,0x50,0x47,0x3a,0x3a,0x53,0x45,0x08,0x3a,0x0a,0x40,0x6e,0x61,0x6d,0x65,0x49,0x22,0x0b,0x4d,0x61,0x67,0x69,0x63,0x32,0x06,0x3a,0x06,0x45,0x54,0x3a,0x0b,0x40,0x70,0x69,0x74,0x63,0x68,0x69,0x69,0x3a,0x0c,0x40,0x76,0x6f,0x6c,0x75,0x6d,0x65,0x69,0x55))
  TeleportPlayer(0,931,54,21,2,1)
  0()



EVENT   2
 PAGE   1
  250(bytes(0x04,0x08,0x6f,0x3a,0x0c,0x52,0x50,0x47,0x3a,0x3a,0x53,0x45,0x08,0x3a,0x0a,0x40,0x6e,0x61,0x6d,0x65,0x49,0x22,0x09,0x4d,0x6f,0x76,0x65,0x06,0x3a,0x06,0x45,0x54,0x3a,0x0b,0x40,0x70,0x69,0x74,0x63,0x68,0x69,0x69,0x3a,0x0c,0x40,0x76,0x6f,0x6c,0x75,0x6d,0x65,0x69,0x55))
  TeleportPlayer(0,930,52,45,0,0)
  0()



EVENT   7
 PAGE   1
  // condition: variable 1212 >= 6
  250(bytes(0x04,0x08,0x6f,0x3a,0x0c,0x52,0x50,0x47,0x3a,0x3a,0x53,0x45,0x08,0x3a,0x0a,0x40,0x6e,0x61,0x6d,0x65,0x49,0x22,0x0b,0x4d,0x61,0x67,0x69,0x63,0x31,0x06,0x3a,0x06,0x45,0x54,0x3a,0x0b,0x40,0x70,0x69,0x74,0x63,0x68,0x69,0x69,0x3a,0x0c,0x40,0x76,0x6f,0x6c,0x75,0x6d,0x65,0x69,0x55))
  TeleportPlayer(0,932,19,29,8,1)
  0()



EVENT   8
 PAGE   1
  217()
  If(1,1212,0,5,0)
   ShowMessageFace("",0,0,2,1)
   ShowMessage("この向こうが、魔力供給室。")
   ShowMessage("白兎は、そう言っている――")
   ShowChoices(strings("扉の先へ進む","扉を開けない"),0)
   IfPlayerPicksChoice(0,null)
    JumpToLabel("妲己END")
    0()
   IfPlayerPicksChoice(1,null)
    ShowMessageFace("ruka_fc1",0,0,2,2)
    ShowMessage("\\n<Luka>")
    ShowMessage("……………………")
    ShowMessageFace("",0,0,2,3)
    ShowMessage("しかし僕は、扉を開けなかった。")
    ShowMessage("この先に進むわけにはいかない――")
    205(10,bytes(0x04,0x08,0x6f,0x3a,0x13,0x52,0x50,0x47,0x3a,0x3a,0x4d,0x6f,0x76,0x65,0x52,0x6f,0x75,0x74,0x65,0x09,0x3a,0x0c,0x40,0x72,0x65,0x70,0x65,0x61,0x74,0x46,0x3a,0x0f,0x40,0x73,0x6b,0x69,0x70,0x70,0x61,0x62,0x6c,0x65,0x46,0x3a,0x0a,0x40,0x77,0x61,0x69,0x74,0x54,0x3a,0x0a,0x40,0x6c,0x69,0x73,0x74,0x5b,0x07,0x6f,0x3a,0x15,0x52,0x50,0x47,0x3a,0x3a,0x4d,0x6f,0x76,0x65,0x43,0x6f,0x6d,0x6d,0x61,0x6e,0x64,0x07,0x3a,0x0a,0x40,0x63,0x6f,0x64,0x65,0x69,0x16,0x3a,0x10,0x40,0x70,0x61,0x72,0x61,0x6d,0x65,0x74,0x65,0x72,0x73,0x5b,0x00,0x6f,0x3b,0x0a,0x07,0x3b,0x0b,0x69,0x00,0x3b,0x0c,0x5b,0x00))
    ShowMessageFace("sirousagi_fc1",0,0,2,4)
    ShowMessage("\\n<White Rabbit>")
    ShowMessage("あれ……先に行かないの？")
    ShowMessage("そのドアの向こうが、ゴールだよ……？")
    If(0,4,0)
     ShowMessageFace("alice_fc5",0,0,2,5)
     ShowMessage("\\n<Alice>")
     ShowMessage("……どうしたのだ、ルカ？")
     ShowMessage("何か、気になる事でもあるのか？")
     0()
    EndIf()
    If(0,5,0)
     ShowMessageFace("iriasu_fc4",2,0,2,6)
     ShowMessage("\\n<Ilias>")
     ShowMessage("……どうしたのです、ルカ？")
     ShowMessage("何か、気になる事でもあるのですか？")
     0()
    EndIf()
    ShowMessageFace("ruka_fc1",0,0,2,7)
    ShowMessage("\\n<Luka>")
    ShowMessage("これでいいんだな、カズヤ……")
    ShowMessageFace("kazuya_fc2",0,0,2,8)
    ShowMessage("\\n<Kazuya>")
    ShowMessage("ああ……そこに入ったら終わりだ。")
    205(-1,bytes(0x04,0x08,0x6f,0x3a,0x13,0x52,0x50,0x47,0x3a,0x3a,0x4d,0x6f,0x76,0x65,0x52,0x6f,0x75,0x74,0x65,0x09,0x3a,0x0c,0x40,0x72,0x65,0x70,0x65,0x61,0x74,0x46,0x3a,0x0f,0x40,0x73,0x6b,0x69,0x70,0x70,0x61,0x62,0x6c,0x65,0x46,0x3a,0x0a,0x40,0x77,0x61,0x69,0x74,0x54,0x3a,0x0a,0x40,0x6c,0x69,0x73,0x74,0x5b,0x07,0x6f,0x3a,0x15,0x52,0x50,0x47,0x3a,0x3a,0x4d,0x6f,0x76,0x65,0x43,0x6f,0x6d,0x6d,0x61,0x6e,0x64,0x07,0x3a,0x0a,0x40,0x63,0x6f,0x64,0x65,0x69,0x17,0x3a,0x10,0x40,0x70,0x61,0x72,0x61,0x6d,0x65,0x74,0x65,0x72,0x73,0x5b,0x00,0x6f,0x3b,0x0a,0x07,0x3b,0x0b,0x69,0x00,0x3b,0x0c,0x5b,0x00))
    ScrollMap(6,4,4)
    ShowMessageFace("",0,0,2,9)
    ShowMessage("カズヤは頷くと、白兎を見据えた。")
    241(bytes(0x04,0x08,0x6f,0x3a,0x0d,0x52,0x50,0x47,0x3a,0x3a,0x42,0x47,0x4d,0x08,0x3a,0x0a,0x40,0x6e,0x61,0x6d,0x65,0x49,0x22,0x0a,0x6b,0x69,0x6b,0x69,0x32,0x06,0x3a,0x06,0x45,0x54,0x3a,0x0c,0x40,0x76,0x6f,0x6c,0x75,0x6d,0x65,0x69,0x69,0x3a,0x0b,0x40,0x70,0x69,0x74,0x63,0x68,0x69,0x69))
    ShowMessageFace("kazuya_fc2",0,0,2,10)
    ShowMessage("\\n<Kazuya>")
    ShowMessage("白兎……")
    ShowMessage("僕と最初に会った時、こう言ったよな？")
    221()
    211(0)
    281(1)
    TeleportPlayer(0,858,97,219,0,2)
    ChangeSwitch(39,39,0)
    223(bytes(0x04,0x08,0x75,0x3a,0x09,0x54,0x6f,0x6e,0x65,0x25,0x00,0x00,0x00,0x00,0x00,0x00,0x41,0x40,0x00,0x00,0x00,0x00,0x00,0x00,0x41,0xc0,0x00,0x00,0x00,0x00,0x00,0x00,0x51,0xc0,0x00,0x00,0x00,0x00,0x00,0x40,0x65,0x40),1,false)
    222()
    ShowMessageFace("sirousagi_fc1",0,0,2,11)
    ShowMessage("\\n<White Rabbit>")
    ShowMessage("カズヤ君は、また魔法が使えるようになったみたいだね――")
    221()
    211(1)
    223(bytes(0x04,0x08,0x75,0x3a,0x09,0x54,0x6f,0x6e,0x65,0x25,0x00,0x00,0x00,0x00,0x00,0x00,0x00,0x00,0x00,0x00,0x00,0x00,0x00,0x00,0x00,0x00,0x00,0x00,0x00,0x00,0x00,0x00,0x00,0x00,0x00,0x00,0x00,0x00,0x00,0x00,0x00,0x00),1,false)
    ChangeSwitch(39,39,1)
    TeleportPlayer(0,931,55,53,6,2)
    205(10,bytes(0x04,0x08,0x6f,0x3a,0x13,0x52,0x50,0x47,0x3a,0x3a,0x4d,0x6f,0x76,0x65,0x52,0x6f,0x75,0x74,0x65,0x09,0x3a,0x0c,0x40,0x72,0x65,0x70,0x65,0x61,0x74,0x46,0x3a,0x0f,0x40,0x73,0x6b,0x69,0x70,0x70,0x61,0x62,0x6c,0x65,0x46,0x3a,0x0a,0x40,0x77,0x61,0x69,0x74,0x54,0x3a,0x0a,0x40,0x6c,0x69,0x73,0x74,0x5b,0x07,0x6f,0x3a,0x15,0x52,0x50,0x47,0x3a,0x3a,0x4d,0x6f,0x76,0x65,0x43,0x6f,0x6d,0x6d,0x61,0x6e,0x64,0x07,0x3a,0x0a,0x40,0x63,0x6f,0x64,0x65,0x69,0x16,0x3a,0x10,0x40,0x70,0x61,0x72,0x61,0x6d,0x65,0x74,0x65,0x72,0x73,0x5b,0x00,0x6f,0x3b,0x0a,0x07,0x3b,0x0b,0x69,0x00,0x3b,0x0c,0x5b,0x00))
    222()
    ScrollMap(6,4,4)
    Wait(120)
    PictureDisplay(5,"80_sirousagi_st01",0,0,0,0,100,100,0,0)
    PictureMove(5,null,0,0,0,0,100,100,255,0,30,true)
    ShowMessageFace("kazuya_fc2",0,0,2,12)
    ShowMessage("\\n<Kazuya>")
    ShowMessage("……なぜ、お前は知ってたんだ？")
    ShowMessage("僕が以前に、魔法を使えたことを――")
    ShowMessageFace("sirousagi_fc1",0,0,2,13)
    ShowMessage("\\n<White Rabbit>")
    ShowMessage("えっと、それは――")
    ShowMessageFace("kazuya_fc2",0,0,2,14)
    ShowMessage("\\n<Kazuya>")
    ShowMessage("お前は、他の勇者達の事は何も知らなかった。")
    ShowMessage("異世界の人間に関しては、名前さえあやふやだった。")
    ShowMessageFace("kazuya_fc2",0,0,2,15)
    ShowMessage("\\n<Kazuya>")
    ShowMessage("それなのに、なぜお前は僕の事を詳しく知っている……？")
    ShowMessageFace("sirousagi_fc1",0,0,2,16)
    ShowMessage("\\n<White Rabbit>")
    ShowMessage("いったい、何の事やら――")
    ShowMessageFace("kazuya_fc2",0,0,2,17)
    ShowMessage("\\n<Kazuya>")
    ShowMessage("なぜなら――お前は、僕の世界から来たからだ。")
    ShowMessage("そろそろ、芝居はやめにしたらどうだ？")
    ShowMessageFace("mukuro_fc1",3,0,2,18)
    ShowMessage("\\n<Mukuro>")
    ShowMessage("……………………")
    ShowMessageFace("kazuya_fc2",0,0,2,19)
    ShowMessage("\\n<Kazuya>")
    ShowMessage("お前にとってどうかは知らないけど")
    ShowMessage("僕は『この罠』を見るのは初めてじゃないんだ。")
    242(1)
    ShowMessageFace("kazuya_fc2",0,0,2,20)
    ShowMessage("\\n<Kazuya>")
    ShowMessage("僕に二度も、同じような方法が通じると思ったのか！")
    ShowMessage("…………『妲己』！！！！")
    ShowMessageFace("sirousagi_fc1",0,0,2,21)
    ShowMessage("\\n<White Rabbit>")
    ShowMessage("――――――――")
    PictureClear(5)
    Wait(30)
    212(10,675,false)
    Wait(60)
    241(bytes(0x04,0x08,0x6f,0x3a,0x0d,0x52,0x50,0x47,0x3a,0x3a,0x42,0x47,0x4d,0x08,0x3a,0x0a,0x40,0x6e,0x61,0x6d,0x65,0x49,0x22,0x0c,0x62,0x6f,0x73,0x73,0x30,0x2d,0x34,0x06,0x3a,0x06,0x45,0x54,0x3a,0x0c,0x40,0x76,0x6f,0x6c,0x75,0x6d,0x65,0x69,0x69,0x3a,0x0b,0x40,0x70,0x69,0x74,0x63,0x68,0x69,0x69))
    ChangeSwitch(31,31,0)
    Wait(60)
    PictureDisplay(5,"80_dakki_st01",0,0,0,0,100,100,0,0)
    PictureMove(5,null,0,0,0,0,100,100,255,0,60,true)
    ShowMessageFace("dakki_fc1",0,0,2,22)
    ShowMessage("\\n<Daji>")
    ShowMessage("やれやれ、見破られたか……")
    ShowMessage("よもや、そのような一言からボロが出ようとは。")
    ShowMessageFace("dakki_fc1",0,0,2,23)
    ShowMessage("\\n<Daji>")
    ShowMessage("ククク……まぁよい、認めてやろう。")
    ShowMessage("化かし合いは、妾の負けじゃ。")
    If(0,4,0)
     ShowMessageFace("alice_fc6",0,0,2,24)
     ShowMessage("\\n<Alice>")
     ShowMessage("な……なんだと！？")
     ShowMessage("貴様は、白兎の偽物だったのか……！？")
     0()
    EndIf()
    If(0,5,0)
     ShowMessageFace("iriasu_fc4",5,0,2,25)
     ShowMessage("\\n<Ilias>")
     ShowMessage("そんな、まさか……！")
     ShowMessage("ずっと貴方が、白兎に化けていたというのですか……！？")
     0()
    EndIf()
    ShowMessageFace("dakki_fc1",0,0,2,26)
    ShowMessage("\\n<Daji>")
    ShowMessage("変化の術は、妾の得意技よ。")
    ShowMessage("ホホホ、大したものであろう？")
    ShowMessageFace("kazuya_fc2",0,0,2,27)
    ShowMessage("\\n<Kazuya>")
    ShowMessage("………妲己の変化は、完全な成り代わりだ")
    ShowMessage("外見ばかりか、記憶まで完璧に真似る――")
    ShowMessageFace("kazuya_fc2",0,0,2,28)
    ShowMessage("\\n<Kazuya>")
    ShowMessage("だから、言ってることや行動に矛盾は起きない……")
    ShowMessage("たとえ近しい間柄でも、見破ることはできない……")
    ShowMessageFace("rejeo_fc1",1,0,2,29)
    ShowMessage("\\n<Rigeo>")
    ShowMessage("それじゃあ……")
    ShowMessage("今まで見てきた白兎は――")
    ShowMessageFace("dakki_fc1",0,0,2,30)
    ShowMessage("\\n<Daji>")
    ShowMessage("全て、妾の変化よ。")
    ShowMessage("お主達は、妾に導かれたということだ。")
    ShowMessageFace("dakki_fc1",0,0,2,31)
    ShowMessage("\\n<Daji>")
    ShowMessage("魔力供給室など、妾のでっち上げに過ぎん。")
    ShowMessage("白兎の身柄は、「夢の主」の掌中にあったのだ。")
    ShowMessageFace("rovissa_fc1",0,0,2,32)
    ShowMessage("\\n<Rovissa>")
    ShowMessage("そんな……ずっとあんたに騙されてたなんて！")
    ShowMessageFace("dakki_fc1",0,0,2,33)
    ShowMessage("\\n<Daji>")
    ShowMessage("最後まで、騙されておれば良かったものを……")
    ShowMessage("あの扉の先に進めば、快楽のままに果てられたのだぞ。")
    ShowMessageFace("ruka_fc1",0,0,2,34)
    ShowMessage("\\n<Luka>")
    ShowMessage("やっぱり、あの扉は罠だったのか……")
    ShowMessageFace("kazuya_fc2",0,0,2,35)
    ShowMessage("\\n<Kazuya>")
    ShowMessage("あの中には、妲己の使い魔が潜んでいる……")
    ShowMessage("一度入ったら、絶対に抜け出せない……")
    ShowMessageFace("kazuya_fc2",0,0,2,36)
    ShowMessage("\\n<Kazuya>")
    ShowMessage("僕も自分の世界では、親友の助けがなければ")
    ShowMessage("あの罠に引っかかるところだったんだ……")
    ShowMessageFace("dakki_fc1",0,0,2,37)
    ShowMessage("\\n<Daji>")
    ShowMessage("クク……そういうことか……")
    ShowMessage("この罠の説明をしたのも、他でもない妾ということか。")
    ShowMessageFace("dakki_fc1",0,0,2,38)
    ShowMessage("\\n<Daji>")
    ShowMessage("……カズヤよ、教えてやろう。")
    ShowMessage("妾の世界では、ヌシは妾の餌になったわ。")
    ShowMessageFace("kazuya_fc2",2,0,2,39)
    ShowMessage("\\n<Kazuya>")
    ShowMessage("………………！！！")
    ShowMessageFace("dakki_fc1",0,0,2,40)
    ShowMessage("\\n<Daji>")
    ShowMessage("勇者となったヌシに化けるのも一興かと思ったが……")
    ShowMessage("あいにく、そちらの平和な世界は知らぬものでのう……")
    ShowMessageFace("dakki_fc1",0,0,2,41)
    ShowMessage("\\n<Daji>")
    ShowMessage("つまり、ヌシの『あの時の魔力』も、妾のもの……")
    ShowMessage("ただの人間になった今のヌシに、勝てるのかのう？")
    ShowMessageFace("kazuya_fc2",0,0,2,42)
    ShowMessage("\\n<Kazuya>")
    ShowMessage("……確かに、僕はもうただの人間だ。")
    ShowMessage("魂に少し定着してる分があるが、それだけだ。")
    ShowMessageFace("kazuya_fc2",0,0,2,43)
    ShowMessage("\\n<Kazuya>")
    ShowMessage("だけど……今の僕には『仲間』がいる……！！")
    ShowMessage("どんな強大な相手だろうと、立ち向かってやる！！")
    ShowMessageFace("ruka_fc1",0,0,2,44)
    ShowMessage("\\n<Luka>")
    ShowMessage("この同盟者、すさまじく強い……")
    ShowMessage("みんな、油断するな！")
    ShowMessageFace("dakki_fc1",0,0,2,45)
    ShowMessage("\\n<Daji>")
    ShowMessage("異世界の勇者も、みな妾の餌――")
    ShowMessage("ホホホホ、よりどりみどりよのう！")
    ShowMessageFace("dakki_fc1",0,0,2,46)
    ShowMessage("\\n<Daji>")
    ShowMessage("さぁ……始めようか。")
    ShowMessage("久しぶりの『食事』の時間じゃ……♡")
    SetBattleBGM(bytes(0x04,0x08,0x6f,0x3a,0x0d,0x52,0x50,0x47,0x3a,0x3a,0x42,0x47,0x4d,0x08,0x3a,0x0a,0x40,0x6e,0x61,0x6d,0x65,0x49,0x22,0x08,0x63,0x62,0x34,0x06,0x3a,0x06,0x45,0x54,0x3a,0x0c,0x40,0x76,0x6f,0x6c,0x75,0x6d,0x65,0x69,0x69,0x3a,0x0b,0x40,0x70,0x69,0x74,0x63,0x68,0x69,0x6e))
    Battle(0,1415,false,false)
    SetBattleBGM(bytes(0x04,0x08,0x6f,0x3a,0x0d,0x52,0x50,0x47,0x3a,0x3a,0x42,0x47,0x4d,0x08,0x3a,0x0a,0x40,0x6e,0x61,0x6d,0x65,0x49,0x22,0x0b,0x62,0x61,0x74,0x74,0x6c,0x65,0x06,0x3a,0x06,0x45,0x54,0x3a,0x0c,0x40,0x76,0x6f,0x6c,0x75,0x6d,0x65,0x69,0x69,0x3a,0x0b,0x40,0x70,0x69,0x74,0x63,0x68,0x69,0x69))
    241(bytes(0x04,0x08,0x6f,0x3a,0x0d,0x52,0x50,0x47,0x3a,0x3a,0x42,0x47,0x4d,0x08,0x3a,0x0a,0x40,0x6e,0x61,0x6d,0x65,0x49,0x22,0x14,0x73,0x63,0x65,0x6e,0x65,0x5f,0x65,0x70,0x69,0x6c,0x6f,0x67,0x75,0x65,0x32,0x06,0x3a,0x06,0x45,0x54,0x3a,0x0c,0x40,0x76,0x6f,0x6c,0x75,0x6d,0x65,0x69,0x69,0x3a,0x0b,0x40,0x70,0x69,0x74,0x63,0x68,0x69,0x69))
    ShowMessageFace("dakki_fc2",4,0,2,47)
    ShowMessage("\\n<Daji>")
    ShowMessage("これが、勇者の力とは……")
    ShowMessage("妾さえも、打ち破りおるか。")
    ShowMessageFace("kazuya_fc2",0,0,2,48)
    ShowMessage("\\n<Kazuya>")
    ShowMessage("言っただろう、妲己……")
    ShowMessage("あの時とは、こっちも状況が違うんだ。")
    ShowMessageFace("kazuya_fc2",0,0,2,49)
    ShowMessage("\\n<Kazuya>")
    ShowMessage("僕たちは、絶対に諦めないし、絶対に負けない。")
    ShowMessage("お前が立ち塞がるのなら、力を示すだけだ。")
    Wait(60)
    ShowMessageFace("dakki_fc1",0,0,2,50)
    ShowMessage("\\n<Daji>")
    ShowMessage("くっ……ククッ……")
    ShowMessage("相変わらず、生意気な口を利きよる……")
    ShowMessageFace("dakki_fc1",0,0,2,51)
    ShowMessage("\\n<Daji>")
    ShowMessage("まあ、悪くはあるまい。")
    ShowMessage("一連の遊戯、存分に愉しめたわ……")
    If(0,4,0)
     ShowMessageFace("alice_fc5",0,0,2,52)
     ShowMessage("\\n<Alice>")
     ShowMessage("まったく、陰険な罠を仕掛けおって……")
     ShowMessage("ずっと、我々を騙してきたということか。")
     0()
    EndIf()
    If(0,5,0)
     ShowMessageFace("iriasu_fc4",2,0,2,53)
     ShowMessage("\\n<Ilias>")
     ShowMessage("狐というのは、どこの世界でも性悪なのですね。")
     ShowMessage("ずっと私達を騙してきたとは……")
     0()
    EndIf()
    ShowMessageFace("dakki_fc1",0,0,2,54)
    ShowMessage("\\n<Daji>")
    ShowMessage("ふん……騙したのは、魔力供給室の件のみ。")
    ShowMessage("それ以外は、一切の嘘なくヌシ達を導いてやったのだぞ。")
    ShowMessageFace("dakki_fc1",0,0,2,55)
    ShowMessage("\\n<Daji>")
    ShowMessage("最後に仕込まれた罠を、回避できるかどうか――")
    ShowMessage("それが、妾の仕掛けたゲームというわけだ。")
    ShowMessageFace("lanpass_fc2",2,0,2,56)
    ShowMessage("\\n<Lampas>")
    ShowMessage("ホントかなぁ……")
    ShowMessageFace("kazuya_fc2",0,0,2,57)
    ShowMessage("\\n<Kazuya>")
    ShowMessage("妲己は悪者だけど、卑怯者じゃない。")
    ShowMessage("罠は仕込んでも、そこに至るまでは筋を通すんだ。")
    ShowMessageFace("kazuya_fc2",0,0,2,58)
    ShowMessage("\\n<Kazuya>")
    ShowMessage("そして僕たちは、その罠に打ち勝った。")
    ShowMessage("彼女にもう戦う意志がないのが、何よりの証拠さ。")
    ShowMessageFace("",0,0,2,59)
    ShowMessage("妲己の奸計は、ここに敗れた。")
    ShowMessage("こうしてまた一人、強力な同盟者を打ち倒したのだ。")
    ShowMessageFace("byakunen_fc1",2,0,2,60)
    ShowMessage("\\n<Hakunen>")
    ShowMessage("それにしても……カズヤさんの世界にも、")
    ShowMessage("妲己さんがおられたのですね。")
    If(0,4,0)
     ShowMessageFace("alice_fc5",0,0,2,61)
     ShowMessage("\\n<Alice>")
     ShowMessage("九尾の狐というのは、どの世界にもいるらしいな。")
     ShowMessage("しかも、どいつも性悪と来ておる……")
     0()
    EndIf()
    If(0,5,0)
     ShowMessageFace("iriasu_fc4",2,0,2,62)
     ShowMessage("\\n<Ilias>")
     ShowMessage("九尾の狐というのは、どの世界にもいるらしいですね。")
     ShowMessage("どうせ、みな性悪なのでしょう……")
     0()
    EndIf()
    ShowMessageFace("dakki_fc1",0,0,2,63)
    ShowMessage("\\n<Daji>")
    ShowMessage("ホホホ、自身の世界の妾だけでも手一杯だというのに")
    ShowMessage("他の世界の妾など気にかけておられぬでのう♪")
    ShowMessageFace("dakki_fc1",0,0,2,64)
    ShowMessage("\\n<Daji>")
    ShowMessage("他にどのような妾や九尾がいるのかは知らぬが……")
    ShowMessage("敵手の褒め言葉として受け取っておこう♡")
    Wait(60)
    ShowMessageFace("dakki_fc1",0,0,2,65)
    ShowMessage("\\n<Daji>")
    ShowMessage("さて、いつまでも妾に構っている暇もなかろう……")
    PictureClear(5)
    Wait(30)
    212(7,501,false)
    Wait(30)
    ChangeVariable(1212,1212,0,0,6)
    ChangeSwitch(31,31,1)
    Wait(60)
    ShowMessageFace("dakki_fc1",0,0,2,66)
    ShowMessage("\\n<Daji>")
    ShowMessage("この魔法陣の先は、もはや「夜の国」。")
    ShowMessage("そこに、巨大ゲートが存在しておる。")
    ShowMessageFace("dakki_fc1",0,0,2,67)
    ShowMessage("\\n<Daji>")
    ShowMessage("「コラボの証」の力で、ゲートを破壊出来るのは真実。")
    ShowMessage("巨大ゲートを消滅させれば、ヌシ達の勝ちよ。")
    ShowMessageFace("",0,0,2,68)
    ShowMessage("今更、妲己が僕達に嘘を吐く理由もない。")
    ShowMessage("ここにある魔法陣で、さらに先に進めばゲートが――")
    242(1)
    ShowMessageFace("",0,0,2,69)
    ShowMessage("\\n<夢魔>")
    ShowMessage("待ちなさい、勇者達……")
    ShowMessage("それ以上、先に進ませはしないわよ。")
    241(bytes(0x04,0x08,0x6f,0x3a,0x0d,0x52,0x50,0x47,0x3a,0x3a,0x42,0x47,0x4d,0x08,0x3a,0x0a,0x40,0x6e,0x61,0x6d,0x65,0x49,0x22,0x0a,0x6b,0x69,0x6b,0x69,0x33,0x06,0x3a,0x06,0x45,0x54,0x3a,0x0c,0x40,0x76,0x6f,0x6c,0x75,0x6d,0x65,0x69,0x69,0x3a,0x0b,0x40,0x70,0x69,0x74,0x63,0x68,0x69,0x69))
    212(7,856,false)
    Wait(15)
    ChangeVariable(1212,1212,0,0,6)
    ChangeSwitch(32,32,0)
    205(-1,bytes(0x04,0x08,0x6f,0x3a,0x13,0x52,0x50,0x47,0x3a,0x3a,0x4d,0x6f,0x76,0x65,0x52,0x6f,0x75,0x74,0x65,0x09,0x3a,0x0c,0x40,0x72,0x65,0x70,0x65,0x61,0x74,0x46,0x3a,0x0f,0x40,0x73,0x6b,0x69,0x70,0x70,0x61,0x62,0x6c,0x65,0x46,0x3a,0x0a,0x40,0x77,0x61,0x69,0x74,0x54,0x3a,0x0a,0x40,0x6c,0x69,0x73,0x74,0x5b,0x07,0x6f,0x3a,0x15,0x52,0x50,0x47,0x3a,0x3a,0x4d,0x6f,0x76,0x65,0x43,0x6f,0x6d,0x6d,0x61,0x6e,0x64,0x07,0x3a,0x0a,0x40,0x63,0x6f,0x64,0x65,0x69,0x18,0x3a,0x10,0x40,0x70,0x61,0x72,0x61,0x6d,0x65,0x74,0x65,0x72,0x73,0x5b,0x00,0x6f,0x3b,0x0a,0x07,0x3b,0x0b,0x69,0x00,0x3b,0x0c,0x5b,0x00))
    Wait(60)
    212(7,856,false)
    Wait(15)
    ChangeSwitch(33,33,0)
    205(-1,bytes(0x04,0x08,0x6f,0x3a,0x13,0x52,0x50,0x47,0x3a,0x3a,0x4d,0x6f,0x76,0x65,0x52,0x6f,0x75,0x74,0x65,0x09,0x3a,0x0c,0x40,0x72,0x65,0x70,0x65,0x61,0x74,0x46,0x3a,0x0f,0x40,0x73,0x6b,0x69,0x70,0x70,0x61,0x62,0x6c,0x65,0x46,0x3a,0x0a,0x40,0x77,0x61,0x69,0x74,0x54,0x3a,0x0a,0x40,0x6c,0x69,0x73,0x74,0x5b,0x07,0x6f,0x3a,0x15,0x52,0x50,0x47,0x3a,0x3a,0x4d,0x6f,0x76,0x65,0x43,0x6f,0x6d,0x6d,0x61,0x6e,0x64,0x07,0x3a,0x0a,0x40,0x63,0x6f,0x64,0x65,0x69,0x15,0x3a,0x10,0x40,0x70,0x61,0x72,0x61,0x6d,0x65,0x74,0x65,0x72,0x73,0x5b,0x00,0x6f,0x3b,0x0a,0x07,0x3b,0x0b,0x69,0x00,0x3b,0x0c,0x5b,0x00))
    Wait(60)
    212(7,856,false)
    Wait(15)
    ChangeSwitch(34,34,0)
    205(-1,bytes(0x04,0x08,0x6f,0x3a,0x13,0x52,0x50,0x47,0x3a,0x3a,0x4d,0x6f,0x76,0x65,0x52,0x6f,0x75,0x74,0x65,0x09,0x3a,0x0c,0x40,0x72,0x65,0x70,0x65,0x61,0x74,0x46,0x3a,0x0f,0x40,0x73,0x6b,0x69,0x70,0x70,0x61,0x62,0x6c,0x65,0x46,0x3a,0x0a,0x40,0x77,0x61,0x69,0x74,0x54,0x3a,0x0a,0x40,0x6c,0x69,0x73,0x74,0x5b,0x07,0x6f,0x3a,0x15,0x52,0x50,0x47,0x3a,0x3a,0x4d,0x6f,0x76,0x65,0x43,0x6f,0x6d,0x6d,0x61,0x6e,0x64,0x07,0x3a,0x0a,0x40,0x63,0x6f,0x64,0x65,0x69,0x17,0x3a,0x10,0x40,0x70,0x61,0x72,0x61,0x6d,0x65,0x74,0x65,0x72,0x73,0x5b,0x00,0x6f,0x3b,0x0a,0x07,0x3b,0x0b,0x69,0x00,0x3b,0x0c,0x5b,0x00))
    Wait(60)
    PictureDisplay(5,"80_succubusq_st01",0,0,-150,0,100,100,0,0)
    PictureDisplay(6,"80_succubusq_st01",0,0,150,0,100,100,0,0)
    PictureMove(5,null,0,0,-150,0,100,100,255,0,30,false)
    PictureMove(6,null,0,0,150,0,100,100,255,0,30,true)
    ShowMessageFace("rest_fc1",0,0,2,70)
    ShowMessage("\\n<Lest>")
    ShowMessage("くっ、敵の追撃か！")
    ShowMessage("すごい数だぞ……！！")
    ShowMessageFace("rovissa_fc1",0,0,2,71)
    ShowMessage("\\n<Rovissa>")
    ShowMessage("妲己……これ、あんたの仕業じゃないでしょうね？")
    ShowMessageFace("dakki_fc1",0,0,2,72)
    ShowMessage("\\n<Daji>")
    ShowMessage("言ったであろう、妾にはもはや戦意はない。")
    ShowMessage("これも、妾は関わってはおらんわ。")
    ShowMessageFace("sonia_fc3",7,0,2,73)
    ShowMessage("\\n<Sonya>")
    ShowMessage("この魔法陣に飛び込んで、先に逃げれば――")
    ShowMessageFace("daimeikai_fc1",1,0,2,74)
    ShowMessage("\\n<Daimyokai>")
    ShowMessage("馬鹿か！　この先にも敵はいるんだぞ！")
    ShowMessage("こいつらを放置すりゃ、前後から挟み撃ちだ！")
    If(0,4,0)
     ShowMessageFace("alice_fc6",0,0,2,75)
     ShowMessage("\\n<Alice>")
     ShowMessage("ここで後顧の憂いを断つしかないか。")
     ShowMessage("しかし、この数は……")
     0()
    EndIf()
    If(0,5,0)
     ShowMessageFace("iriasu_fc4",7,0,2,76)
     ShowMessage("\\n<Ilias>")
     ShowMessage("ここで後顧の憂いを断つしかありませんか。")
     ShowMessage("しかし、これだけの数となると……")
     0()
    EndIf()
    PictureClear(5)
    PictureClear(6)
    Wait(30)
    205(10,bytes(0x04,0x08,0x6f,0x3a,0x13,0x52,0x50,0x47,0x3a,0x3a,0x4d,0x6f,0x76,0x65,0x52,0x6f,0x75,0x74,0x65,0x09,0x3a,0x0c,0x40,0x72,0x65,0x70,0x65,0x61,0x74,0x46,0x3a,0x0f,0x40,0x73,0x6b,0x69,0x70,0x70,0x61,0x62,0x6c,0x65,0x46,0x3a,0x0a,0x40,0x77,0x61,0x69,0x74,0x46,0x3a,0x0a,0x40,0x6c,0x69,0x73,0x74,0x5b,0x09,0x6f,0x3a,0x15,0x52,0x50,0x47,0x3a,0x3a,0x4d,0x6f,0x76,0x65,0x43,0x6f,0x6d,0x6d,0x61,0x6e,0x64,0x07,0x3a,0x0a,0x40,0x63,0x6f,0x64,0x65,0x69,0x28,0x3a,0x10,0x40,0x70,0x61,0x72,0x61,0x6d,0x65,0x74,0x65,0x72,0x73,0x5b,0x00,0x6f,0x3b,0x0a,0x07,0x3b,0x0b,0x69,0x13,0x3b,0x0c,0x5b,0x07,0x69,0x09,0x69,0x00,0x6f,0x3b,0x0a,0x07,0x3b,0x0b,0x69,0x29,0x3b,0x0c,0x5b,0x00,0x6f,0x3b,0x0a,0x07,0x3b,0x0b,0x69,0x00,0x3b,0x0c,0x5b,0x00))
    ShowMessageFace("dakki_fc1",0,0,2,77)
    ShowMessage("\\n<Daji>")
    ShowMessage("残念だが、妾は手を貸さんぞ。")
    If(0,4,0)
     ShowMessageFace("alice_fc6",1,0,2,78)
     ShowMessage("\\n<Alice>")
     ShowMessage("最初から期待などしておらんわ！")
     ShowMessage("仕方ない、ここは消耗を覚悟してでも――")
     Wait(30)
     242(1)
     ShowMessageFace("",0,0,2,79)
     ShowMessage("\\n<？？？>")
     ShowMessage("待て……この場はウチに任せよ。")
     ShowMessageFace("alice_fc6",0,0,2,80)
     ShowMessage("\\n<Alice>")
     ShowMessage("馬鹿な、貴様は――")
     Wait(30)
     205(43,bytes(0x04,0x08,0x6f,0x3a,0x13,0x52,0x50,0x47,0x3a,0x3a,0x4d,0x6f,0x76,0x65,0x52,0x6f,0x75,0x74,0x65,0x09,0x3a,0x0c,0x40,0x72,0x65,0x70,0x65,0x61,0x74,0x46,0x3a,0x0f,0x40,0x73,0x6b,0x69,0x70,0x70,0x61,0x62,0x6c,0x65,0x46,0x3a,0x0a,0x40,0x77,0x61,0x69,0x74,0x54,0x3a,0x0a,0x40,0x6c,0x69,0x73,0x74,0x5b,0x07,0x6f,0x3a,0x15,0x52,0x50,0x47,0x3a,0x3a,0x4d,0x6f,0x76,0x65,0x43,0x6f,0x6d,0x6d,0x61,0x6e,0x64,0x07,0x3a,0x0a,0x40,0x63,0x6f,0x64,0x65,0x69,0x18,0x3a,0x10,0x40,0x70,0x61,0x72,0x61,0x6d,0x65,0x74,0x65,0x72,0x73,0x5b,0x00,0x6f,0x3b,0x0a,0x07,0x3b,0x0b,0x69,0x00,0x3b,0x0c,0x5b,0x00))
     212(11,542,false)
     Wait(60)
     ChangeSwitch(35,35,0)
     241(bytes(0x04,0x08,0x6f,0x3a,0x0d,0x52,0x50,0x47,0x3a,0x3a,0x42,0x47,0x4d,0x08,0x3a,0x0a,0x40,0x6e,0x61,0x6d,0x65,0x49,0x22,0x0c,0x62,0x6f,0x73,0x73,0x30,0x2d,0x33,0x06,0x3a,0x06,0x45,0x54,0x3a,0x0c,0x40,0x76,0x6f,0x6c,0x75,0x6d,0x65,0x69,0x69,0x3a,0x0b,0x40,0x70,0x69,0x74,0x63,0x68,0x69,0x69))
     Wait(60)
     PictureDisplay(5,"80_tamamo_st61b",0,0,0,0,100,100,0,0)
     PictureMove(5,null,0,0,0,0,100,100,255,0,60,true)
     ShowMessageFace("tamamo_fc3",0,0,2,81)
     ShowMessage("\\n<玉藻>")
     ShowMessage("六祖が一人、玉藻――")
     ShowMessage("特別に加勢に来てやったぞ。")
     ShowMessageFace("ruka_fc1",0,0,2,82)
     ShowMessage("\\n<Luka>")
     ShowMessage("邪神世界の玉藻……！？")
     ShowMessage("いったい、なぜここに――")
     ShowMessageFace("tamamo_fc3",0,0,2,83)
     ShowMessage("\\n<玉藻>")
     ShowMessage("こたびの凶事を聞き、力を貸しに来てやったまで。")
     ShowMessage("この世界が堕ちれば、我等も困るのでな――")
     ShowMessageFace("tamamo_fc3",0,0,2,84)
     ShowMessage("\\n<玉藻>")
     ShowMessage("この場はウチに任せ、「夢の主」の元に行くが良い。")
     ShowMessage("ここにいられる時間は短いが、足止め程度は果たせよう。")
     ShowMessageFace("alice_fc5",2,0,2,85)
     ShowMessage("\\n<Alice>")
     ShowMessage("まさか、貴様が救援に来るとはな。")
     ShowMessage("本当にこの場を預けても良いのか……？")
     ShowMessageFace("tamamo_fc3",0,0,2,86)
     ShowMessage("\\n<玉藻>")
     ShowMessage("任せよ……これも邪神様のご意志よ。")
     ShowMessage("ウチの力は、存分に知っていよう？")
     ShowMessageFace("alice_fc5",2,0,2,87)
     ShowMessage("\\n<Alice>")
     ShowMessage("分かった、ここは任せたぞ……")
     ShowMessage("皆の者、我々は先へと進む！")
     ShowMessageFace("",0,0,2,88)
     ShowMessage("玉藻が、本当に信用できる相手なのかは分からないが――")
     ShowMessage("ここは、彼女に任せるしかない。")
     ShowMessageFace("ruka_fc1",0,0,2,89)
     ShowMessage("\\n<Luka>")
     ShowMessage("ありがとう、玉藻。")
     ShowMessage("さあ、行こう……！！")
     0()
    EndIf()
    If(0,5,0)
     ShowMessageFace("iriasu_fc4",7,0,2,90)
     ShowMessage("\\n<Ilias>")
     ShowMessage("期待などしていません！")
     ShowMessage("かくなる上は、消耗を覚悟してでも――")
     Wait(30)
     242(1)
     ShowMessageFace("",0,0,2,91)
     ShowMessage("\\n<？？？>")
     ShowMessage("お待ち下さい、イリアス様……")
     ShowMessageFace("iriasu_fc4",5,0,2,92)
     ShowMessage("\\n<Ilias>")
     ShowMessage("まさか、あなたは――")
     Wait(30)
     212(11,501,false)
     Wait(30)
     ChangeSwitch(35,35,0)
     241(bytes(0x04,0x08,0x6f,0x3a,0x0d,0x52,0x50,0x47,0x3a,0x3a,0x42,0x47,0x4d,0x08,0x3a,0x0a,0x40,0x6e,0x61,0x6d,0x65,0x49,0x22,0x16,0x62,0x6f,0x73,0x73,0x5f,0x6e,0x61,0x6e,0x61,0x64,0x61,0x69,0x74,0x65,0x6e,0x73,0x69,0x06,0x3a,0x06,0x45,0x54,0x3a,0x0c,0x40,0x76,0x6f,0x6c,0x75,0x6d,0x65,0x69,0x69,0x3a,0x0b,0x40,0x70,0x69,0x74,0x63,0x68,0x69,0x69))
     Wait(90)
     PictureDisplay(5,"80_rafaera_st01",0,0,0,0,100,100,0,0)
     PictureMove(5,null,0,0,0,0,100,100,255,0,60,true)
     ShowMessageFace("rafaera_fc1",0,0,2,93)
     ShowMessage("\\n<ラファエラ>")
     ShowMessage("七大天使が一人ラファエラ、推参いたしました。")
     ShowMessage("これより、お力添えを致します。")
     ShowMessageFace("ruka_fc1",0,0,2,94)
     ShowMessage("\\n<Luka>")
     ShowMessage("異世界の……七大天使！？")
     ShowMessage("いったい、なぜここに――")
     ShowMessageFace("rafaera_fc1",1,0,2,95)
     ShowMessage("\\n<ラファエラ>")
     ShowMessage("こたびの凶事を知り、馳せ参じました。")
     ShowMessage("我々としても、この世界を陥落させるわけにはいきません。")
     ShowMessageFace("rafaera_fc1",0,0,2,96)
     ShowMessage("\\n<ラファエラ>")
     ShowMessage("さあイリアスさま、どうか「夢の主」の元へ！")
     ShowMessage("この場は、私が受け持ちましょう――")
     ShowMessageFace("iriasu_fc4",7,0,2,97)
     ShowMessage("\\n<Ilias>")
     ShowMessage("しかし、夢魔には快楽しか通じないのですよ！")
     ShowMessage("いかに、あなたの力が強大とは言えども――")
     ShowMessageFace("rafaera_fc1",0,0,2,98)
     ShowMessage("\\n<ラファエラ>")
     ShowMessage("仰せの通り……")
     ShowMessage("快楽に不得手な天使の身では、相性的に不利でしょう。")
     ShowMessageFace("rafaera_fc1",0,0,2,99)
     ShowMessage("\\n<ラファエラ>")
     ShowMessage("ですがイリアス様のためならば、不利も承知。")
     ShowMessage("どうか、先にお急ぎ下さい。")
     ShowMessageFace("iriasu_fc4",7,0,2,100)
     ShowMessage("\\n<Ilias>")
     ShowMessage("……任せましたよ、ラファエラ。")
     ShowMessage("皆の者、我々は先に急ぎます！")
     ShowMessageFace("",0,0,2,101)
     ShowMessage("ラファエラが、本当に信用できる相手なのかは分からないが――")
     ShowMessage("ここは、彼女に任せるしかない。")
     ShowMessageFace("ruka_fc1",0,0,2,102)
     ShowMessage("\\n<Luka>")
     ShowMessage("ありがとう、ラファエラ。")
     ShowMessage("さあ、行こう……！！")
     0()
    EndIf()
    PictureClear(5)
    Wait(30)
    205(-1,bytes(0x04,0x08,0x6f,0x3a,0x13,0x52,0x50,0x47,0x3a,0x3a,0x4d,0x6f,0x76,0x65,0x52,0x6f,0x75,0x74,0x65,0x09,0x3a,0x0c,0x40,0x72,0x65,0x70,0x65,0x61,0x74,0x46,0x3a,0x0f,0x40,0x73,0x6b,0x69,0x70,0x70,0x61,0x62,0x6c,0x65,0x46,0x3a,0x0a,0x40,0x77,0x61,0x69,0x74,0x54,0x3a,0x0a,0x40,0x6c,0x69,0x73,0x74,0x5b,0x0f,0x6f,0x3a,0x15,0x52,0x50,0x47,0x3a,0x3a,0x4d,0x6f,0x76,0x65,0x43,0x6f,0x6d,0x6d,0x61,0x6e,0x64,0x07,0x3a,0x0a,0x40,0x63,0x6f,0x64,0x65,0x69,0x22,0x3a,0x10,0x40,0x70,0x61,0x72,0x61,0x6d,0x65,0x74,0x65,0x72,0x73,0x5b,0x06,0x69,0x0a,0x6f,0x3b,0x0a,0x07,0x3b,0x0b,0x69,0x08,0x3b,0x0c,0x5b,0x00,0x6f,0x3b,0x0a,0x07,0x3b,0x0b,0x69,0x08,0x3b,0x0c,0x5b,0x00,0x6f,0x3b,0x0a,0x07,0x3b,0x0b,0x69,0x08,0x3b,0x0c,0x5b,0x00,0x6f,0x3b,0x0a,0x07,0x3b,0x0b,0x69,0x08,0x3b,0x0c,0x5b,0x00,0x6f,0x3b,0x0a,0x07,0x3b,0x0b,0x69,0x31,0x3b,0x0c,0x5b,0x06,0x6f,0x3a,0x0c,0x52,0x50,0x47,0x3a,0x3a,0x53,0x45,0x08,0x3a,0x0a,0x40,0x6e,0x61,0x6d,0x65,0x49,0x22,0x0b,0x4d,0x61,0x67,0x69,0x63,0x31,0x06,0x3a,0x06,0x45,0x54,0x3a,0x0b,0x40,0x70,0x69,0x74,0x63,0x68,0x69,0x69,0x3a,0x0c,0x40,0x76,0x6f,0x6c,0x75,0x6d,0x65,0x69,0x55,0x6f,0x3b,0x0a,0x07,0x3b,0x0b,0x69,0x14,0x3b,0x0c,0x5b,0x06,0x69,0x0f,0x6f,0x3b,0x0a,0x07,0x3b,0x0b,0x69,0x2c,0x3b,0x0c,0x5b,0x00,0x6f,0x3b,0x0a,0x07,0x3b,0x0b,0x69,0x22,0x3b,0x0c,0x5b,0x06,0x69,0x09,0x6f,0x3b,0x0a,0x07,0x3b,0x0b,0x69,0x00,0x3b,0x0c,0x5b,0x00))
    Wait(60)
    242(1)
    221()
    ShowMessageFace("",0,0,2,103)
    ShowMessage("こうして僕達は、夜の国に通じる魔法陣へと飛び込んだ。")
    ShowMessage("そこまで行けば、ゴールは目前だ。")
    ShowMessageFace("",0,0,2,104)
    ShowMessage("そして、「夢の主」――エスト・モルンとの決戦。")
    ShowMessage("いよいよ、事態は終局に向かって動き出していた――")
    Wait(120)
    211(0)
    ChangeSwitch(31,31,1)
    ChangeSwitch(32,32,1)
    ChangeSwitch(33,33,1)
    ChangeSwitch(34,34,1)
    ChangeSwitch(35,35,1)
    TeleportPlayer(0,948,0,0,0,2)
    222()
    EndEventProcessing()
    0()
   404()
   0()
  EndIf()
  If(1,1212,0,6,1)
   ShowMessageFace("",0,0,2,105)
   ShowMessage("この扉は、妲己の罠。")
   ShowMessage("もはや入る必要などないが――")
   ShowChoices(strings("扉の先へ進む","扉を開けない"),0)
   IfPlayerPicksChoice(0,null)
    JumpToLabel("妲己END")
    EndEventProcessing()
    0()
   IfPlayerPicksChoice(1,null)
    EndEventProcessing()
    0()
   404()
   0()
  EndIf()
  DefineLabel("妲己END")
  250(bytes(0x04,0x08,0x6f,0x3a,0x0c,0x52,0x50,0x47,0x3a,0x3a,0x53,0x45,0x08,0x3a,0x0a,0x40,0x6e,0x61,0x6d,0x65,0x49,0x22,0x0a,0x4f,0x70,0x65,0x6e,0x31,0x06,0x3a,0x06,0x45,0x54,0x3a,0x0b,0x40,0x70,0x69,0x74,0x63,0x68,0x69,0x69,0x3a,0x0c,0x40,0x76,0x6f,0x6c,0x75,0x6d,0x65,0x69,0x55))
  205(0,bytes(0x04,0x08,0x6f,0x3a,0x13,0x52,0x50,0x47,0x3a,0x3a,0x4d,0x6f,0x76,0x65,0x52,0x6f,0x75,0x74,0x65,0x09,0x3a,0x0c,0x40,0x72,0x65,0x70,0x65,0x61,0x74,0x46,0x3a,0x0f,0x40,0x73,0x6b,0x69,0x70,0x70,0x61,0x62,0x6c,0x65,0x46,0x3a,0x0a,0x40,0x77,0x61,0x69,0x74,0x54,0x3a,0x0a,0x40,0x6c,0x69,0x73,0x74,0x5b,0x0c,0x6f,0x3a,0x15,0x52,0x50,0x47,0x3a,0x3a,0x4d,0x6f,0x76,0x65,0x43,0x6f,0x6d,0x6d,0x61,0x6e,0x64,0x07,0x3a,0x0a,0x40,0x63,0x6f,0x64,0x65,0x69,0x16,0x3a,0x10,0x40,0x70,0x61,0x72,0x61,0x6d,0x65,0x74,0x65,0x72,0x73,0x5b,0x00,0x6f,0x3b,0x0a,0x07,0x3b,0x0b,0x69,0x14,0x3b,0x0c,0x5b,0x06,0x69,0x08,0x6f,0x3b,0x0a,0x07,0x3b,0x0b,0x69,0x17,0x3b,0x0c,0x5b,0x00,0x6f,0x3b,0x0a,0x07,0x3b,0x0b,0x69,0x14,0x3b,0x0c,0x5b,0x06,0x69,0x08,0x6f,0x3b,0x0a,0x07,0x3b,0x0b,0x69,0x18,0x3b,0x0c,0x5b,0x00,0x6f,0x3b,0x0a,0x07,0x3b,0x0b,0x69,0x2a,0x3b,0x0c,0x5b,0x00,0x6f,0x3b,0x0a,0x07,0x3b,0x0b,0x69,0x00,0x3b,0x0c,0x5b,0x00))
  205(-1,bytes(0x04,0x08,0x6f,0x3a,0x13,0x52,0x50,0x47,0x3a,0x3a,0x4d,0x6f,0x76,0x65,0x52,0x6f,0x75,0x74,0x65,0x09,0x3a,0x0c,0x40,0x72,0x65,0x70,0x65,0x61,0x74,0x46,0x3a,0x0f,0x40,0x73,0x6b,0x69,0x70,0x70,0x61,0x62,0x6c,0x65,0x54,0x3a,0x0a,0x40,0x77,0x61,0x69,0x74,0x54,0x3a,0x0a,0x40,0x6c,0x69,0x73,0x74,0x5b,0x07,0x6f,0x3a,0x15,0x52,0x50,0x47,0x3a,0x3a,0x4d,0x6f,0x76,0x65,0x43,0x6f,0x6d,0x6d,0x61,0x6e,0x64,0x07,0x3a,0x0a,0x40,0x63,0x6f,0x64,0x65,0x69,0x11,0x3a,0x10,0x40,0x70,0x61,0x72,0x61,0x6d,0x65,0x74,0x65,0x72,0x73,0x5b,0x00,0x6f,0x3b,0x0a,0x07,0x3b,0x0b,0x69,0x00,0x3b,0x0c,0x5b,0x00))
  250(bytes(0x04,0x08,0x6f,0x3a,0x0c,0x52,0x50,0x47,0x3a,0x3a,0x53,0x45,0x08,0x3a,0x0a,0x40,0x6e,0x61,0x6d,0x65,0x49,0x22,0x09,0x4d,0x6f,0x76,0x65,0x06,0x3a,0x06,0x45,0x54,0x3a,0x0b,0x40,0x70,0x69,0x74,0x63,0x68,0x69,0x69,0x3a,0x0c,0x40,0x76,0x6f,0x6c,0x75,0x6d,0x65,0x69,0x55))
  242(1)
  221()
  ShowMessageFace("ruka_fc1",0,0,2,106)
  ShowMessage("\\n<Luka>")
  ShowMessage("あれ、なんで真っ暗なんだ……？")
  ShowMessage("白兎は……？")
  ShowMessageFace("byakunen_fc1",2,0,2,107)
  ShowMessage("\\n<Hakunen>")
  ShowMessage("なんだか、様子がおかしくありませんか？")
  ShowMessage("これ、もしかして罠じゃ――")
  241(bytes(0x04,0x08,0x6f,0x3a,0x0d,0x52,0x50,0x47,0x3a,0x3a,0x42,0x47,0x4d,0x08,0x3a,0x0a,0x40,0x6e,0x61,0x6d,0x65,0x49,0x22,0x0a,0x6b,0x69,0x6b,0x69,0x32,0x06,0x3a,0x06,0x45,0x54,0x3a,0x0c,0x40,0x76,0x6f,0x6c,0x75,0x6d,0x65,0x69,0x69,0x3a,0x0b,0x40,0x70,0x69,0x74,0x63,0x68,0x69,0x69))
  ShowMessageFace("fulbeua_fc1",0,0,2,108)
  ShowMessage("\\n<Fullviewer>")
  ShowMessage("ロウラット……")
  ShowMessage("さあ、私の下僕になりなさい……")
  ShowMessageFace("lawrat_fc1",1,0,2,109)
  ShowMessage("\\n<Lauratt>")
  ShowMessage("…………！？")
  ShowMessageFace("lanpass_fc1",0,0,2,110)
  ShowMessage("\\n<Lampas>")
  ShowMessage("あははっ……")
  ShowMessage("気持ちいいこと、いっぱいしようよ～♪")
  ShowMessageFace("kazuya_fc2",3,0,2,111)
  ShowMessage("\\n<Kazuya>")
  ShowMessage("や、やめろランパス……")
  ShowMessage("あぁぁぁっ！！")
  ShowMessageFace("rest_fc1",0,0,2,112)
  ShowMessage("\\n<Lest>")
  ShowMessage("な、何が起きてるんだ……！？")
  ShowMessage("くっ、真っ暗で見えない！！")
  ShowMessageFace("muzet_fc1",0,0,2,113)
  ShowMessage("\\n<Musette>")
  ShowMessage("たっぷり犯してあげるわ、万能剣士。")
  ShowMessage("身も心も、私のものよ……")
  ShowMessageFace("rest_fc1",0,0,2,114)
  ShowMessage("\\n<Lest>")
  ShowMessage("ミュ、ミュゼットがなぜここに……！？")
  ShowMessage("うわぁぁぁっ！！")
  ShowMessageFace("daimeikai_fc1",0,0,2,115)
  ShowMessage("\\n<Daimyokai>")
  ShowMessage("白念！　さあ、俺とまぐわえ～！！")
  ShowMessageFace("byakunen_fc1",3,0,2,116)
  ShowMessage("\\n<Hakunen>")
  ShowMessage("ちょっと、大明海様……！？")
  ShowMessage("ひゃぁぁっ！！")
  ShowMessageFace("mistilteinn_fc1",0,0,2,117)
  ShowMessage("\\n<Mysteltainn>")
  ShowMessage("ノビッサ……あなたの精を頂きましょう。")
  ShowMessageFace("nobissa_fc1",0,0,2,118)
  ShowMessage("\\n<Novissa>")
  ShowMessage("…………！？")
  ShowMessageFace("ruka_fc1",0,0,2,119)
  ShowMessage("\\n<Luka>")
  ShowMessage("ど、どうなってるんだ……！？")
  ShowMessage("み、みんな……！！")
  ShowMessageFace("",0,0,2,120)
  ShowMessage("なんらかの攻撃を受けているらしいが、状況が全く分からない。")
  ShowMessage("いったい、何がどうなっているのか――")
  241(bytes(0x04,0x08,0x6f,0x3a,0x0d,0x52,0x50,0x47,0x3a,0x3a,0x42,0x47,0x4d,0x08,0x3a,0x0a,0x40,0x6e,0x61,0x6d,0x65,0x49,0x22,0x09,0x65,0x72,0x6f,0x31,0x06,0x3a,0x06,0x45,0x54,0x3a,0x0c,0x40,0x76,0x6f,0x6c,0x75,0x6d,0x65,0x69,0x69,0x3a,0x0b,0x40,0x70,0x69,0x74,0x63,0x68,0x69,0x69))
  ShowMessageFace("sonia_fc1",1,0,2,121)
  ShowMessage("\\n<Sonya>")
  ShowMessage("さあ、ルカ……")
  ShowMessage("ここで観念して、楽になろうよ……")
  ShowMessageFace("ruka_fc1",0,0,2,122)
  ShowMessage("\\n<Luka>")
  ShowMessage("ソ、ソニア……！？　いったい、何を――")
  ShowMessageFace("soniaapoto_fc1",2,0,2,123)
  ShowMessage("\\n<Sonya>")
  ShowMessage("このまま、ずっと……")
  ShowMessage("快楽の世界で、永遠に……ね。")
  ShowMessageFace("ruka_fc1",0,0,2,124)
  ShowMessage("\\n<Luka>")
  ShowMessage("ソ、ソニア――")
  Wait(60)
  ShowMessageFace("",0,0,2,125)
  ShowMessage("\\n<？？？>")
  ShowMessage("ホホホ……勇者達よ、快楽の罠に堕ちるが良い。")
  ShowMessage("知恵比べは、妾の勝ちよ……")
  ShowMessageFace("ruka_fc1",0,0,2,126)
  ShowMessage("\\n<Luka>")
  ShowMessage("う、あぁぁぁ……")
  ShowMessageFace("",0,0,2,127)
  ShowMessage("\\n<？？？>")
  ShowMessage("ホホホホ……")
  ShowMessageFace("",0,0,2,128)
  ShowMessage("こうして僕達は罠に堕とされ、一挙に全滅してしまった。")
  ShowMessage("ずっと騙されていた事など、知る由もなく――")
  242(1)
  Wait(120)
  ShowMessageFace("",0,0,2,129)
  ShowMessage("・・・・・・・・")
  RunCommonEvent(3000)
  0()



EVENT   9
 PAGE   1
  If(0,4,0)
   ShowMessageFace("alice_fc5",0,0,2,1)
   ShowMessage("\\n<Alice>")
   ShowMessage("このフロア、雰囲気が違うな。")
   ShowMessage("まさか、ここが――")
   0()
  EndIf()
  If(0,5,0)
   ShowMessageFace("iriasu_fc4",7,0,2,2)
   ShowMessage("\\n<Ilias>")
   ShowMessage("ずいぶん雰囲気の違うフロアに来ましたね。")
   ShowMessage("もしかして、ここが――")
   0()
  EndIf()
  ChangeVariable(1212,1212,0,0,5)
  250(bytes(0x04,0x08,0x6f,0x3a,0x0c,0x52,0x50,0x47,0x3a,0x3a,0x53,0x45,0x08,0x3a,0x0a,0x40,0x6e,0x61,0x6d,0x65,0x49,0x22,0x10,0x6d,0x6f,0x6e,0x5f,0x74,0x61,0x6d,0x61,0x6d,0x6f,0x32,0x06,0x3a,0x06,0x45,0x54,0x3a,0x0b,0x40,0x70,0x69,0x74,0x63,0x68,0x69,0x69,0x3a,0x0c,0x40,0x76,0x6f,0x6c,0x75,0x6d,0x65,0x69,0x55))
  205(-1,bytes(0x04,0x08,0x6f,0x3a,0x13,0x52,0x50,0x47,0x3a,0x3a,0x4d,0x6f,0x76,0x65,0x52,0x6f,0x75,0x74,0x65,0x09,0x3a,0x0c,0x40,0x72,0x65,0x70,0x65,0x61,0x74,0x46,0x3a,0x0f,0x40,0x73,0x6b,0x69,0x70,0x70,0x61,0x62,0x6c,0x65,0x46,0x3a,0x0a,0x40,0x77,0x61,0x69,0x74,0x54,0x3a,0x0a,0x40,0x6c,0x69,0x73,0x74,0x5b,0x07,0x6f,0x3a,0x15,0x52,0x50,0x47,0x3a,0x3a,0x4d,0x6f,0x76,0x65,0x43,0x6f,0x6d,0x6d,0x61,0x6e,0x64,0x07,0x3a,0x0a,0x40,0x63,0x6f,0x64,0x65,0x69,0x16,0x3a,0x10,0x40,0x70,0x61,0x72,0x61,0x6d,0x65,0x74,0x65,0x72,0x73,0x5b,0x00,0x6f,0x3b,0x0a,0x07,0x3b,0x0b,0x69,0x00,0x3b,0x0c,0x5b,0x00))
  205(10,bytes(0x04,0x08,0x6f,0x3a,0x13,0x52,0x50,0x47,0x3a,0x3a,0x4d,0x6f,0x76,0x65,0x52,0x6f,0x75,0x74,0x65,0x09,0x3a,0x0c,0x40,0x72,0x65,0x70,0x65,0x61,0x74,0x46,0x3a,0x0f,0x40,0x73,0x6b,0x69,0x70,0x70,0x61,0x62,0x6c,0x65,0x46,0x3a,0x0a,0x40,0x77,0x61,0x69,0x74,0x54,0x3a,0x0a,0x40,0x6c,0x69,0x73,0x74,0x5b,0x08,0x6f,0x3a,0x15,0x52,0x50,0x47,0x3a,0x3a,0x4d,0x6f,0x76,0x65,0x43,0x6f,0x6d,0x6d,0x61,0x6e,0x64,0x07,0x3a,0x0a,0x40,0x63,0x6f,0x64,0x65,0x69,0x13,0x3a,0x10,0x40,0x70,0x61,0x72,0x61,0x6d,0x65,0x74,0x65,0x72,0x73,0x5b,0x07,0x69,0x00,0x69,0x00,0x6f,0x3b,0x0a,0x07,0x3b,0x0b,0x69,0x17,0x3b,0x0c,0x5b,0x00,0x6f,0x3b,0x0a,0x07,0x3b,0x0b,0x69,0x00,0x3b,0x0c,0x5b,0x00))
  241(bytes(0x04,0x08,0x6f,0x3a,0x0d,0x52,0x50,0x47,0x3a,0x3a,0x42,0x47,0x4d,0x08,0x3a,0x0a,0x40,0x6e,0x61,0x6d,0x65,0x49,0x22,0x0f,0x73,0x68,0x69,0x72,0x6f,0x75,0x73,0x61,0x67,0x69,0x06,0x3a,0x06,0x45,0x54,0x3a,0x0c,0x40,0x76,0x6f,0x6c,0x75,0x6d,0x65,0x69,0x69,0x3a,0x0b,0x40,0x70,0x69,0x74,0x63,0x68,0x69,0x69))
  ShowMessageFace("sirousagi_fc1",0,0,2,3)
  ShowMessage("\\n<White Rabbit>")
  ShowMessage("そうだよ～♪")
  ShowMessage("いよいよ、ゴール手前！")
  ScrollMap(4,6,5)
  ShowMessageFace("sirousagi_fc1",0,0,2,4)
  ShowMessage("\\n<White Rabbit>")
  ShowMessage("あのドアの先が、魔力供給室だよ。")
  ShowMessage("よく、ここまで辿り着いたね♪")
  ShowMessageFace("kazuya_fc1",0,0,2,5)
  ShowMessage("\\n<Kazuya>")
  ShowMessage("……………………")
  ShowMessageFace("rovissa_fc1",0,0,2,6)
  ShowMessage("\\n<Rovissa>")
  ShowMessage("あの部屋に、眠ってる白兎がいるのね。")
  ShowMessage("それを起こして、次にゲートを破壊すれば――")
  If(0,4,0)
   ShowMessageFace("alice_fc5",2,0,2,7)
   ShowMessage("\\n<Alice>")
   ShowMessage("ああ、今回の事件は解決というわけだ！")
   ShowMessageFace("alice_fc5",2,0,2,8)
   ShowMessage("\\n<Alice>")
   ShowMessage("……だが、「夢の主」が仕掛けてくるかもしれん。")
   ShowMessage("ドアを開ける前に、決戦の準備をしておけよ。")
   0()
  EndIf()
  If(0,5,0)
   ShowMessageFace("iriasu_fc4",7,0,2,9)
   ShowMessage("\\n<Ilias>")
   ShowMessage("今回の一件、めでたく解決というわけです。")
   ShowMessageFace("iriasu_fc4",7,0,2,10)
   ShowMessage("\\n<Alice>")
   ShowMessage("……ですが、「夢の主」の抵抗が予想されます。")
   ShowMessage("ドアを開ける前に、決戦の準備を忘れずに。")
   0()
  EndIf()
  ScrollMap(6,6,5)
  ShowMessageFace("sirousagi_fc1",0,0,2,11)
  ShowMessage("\\n<White Rabbit>")
  ShowMessage("準備が出来たら、魔力供給室にレッツゴー♪")
  ShowMessage("それで、世界が救えるよ！")
  ShowMessageFace("kazuya_fc1",0,0,2,12)
  ShowMessage("\\n<Kazuya>")
  ShowMessage("\\C[2]……分かってるな？")
  ShowMessageFace("ruka_fc1",0,0,2,13)
  ShowMessage("\\n<Luka>")
  ShowMessage("……………………")
  ChangeVariable(1002,1002,0,0,44)
  241(bytes(0x04,0x08,0x6f,0x3a,0x0d,0x52,0x50,0x47,0x3a,0x3a,0x42,0x47,0x4d,0x08,0x3a,0x0a,0x40,0x6e,0x61,0x6d,0x65,0x49,0x22,0x08,0x63,0x62,0x31,0x06,0x3a,0x06,0x45,0x54,0x3a,0x0c,0x40,0x76,0x6f,0x6c,0x75,0x6d,0x65,0x69,0x69,0x3a,0x0b,0x40,0x70,0x69,0x74,0x63,0x68,0x69,0x69))
  EndEventProcessing()
  0()
 PAGE   2
  // condition: variable 1212 >= 5
  0()



EVENT   10
 PAGE   1
  // condition: variable 1212 >= 5
  ShowMessageFace("sirousagi_fc1",0,0,2,1)
  ShowMessage("\\n<White Rabbit>")
  ShowMessage("どうしたの？")
  ShowMessage("その扉の先が、魔力供給室だよ。")
  0()
 PAGE   2
  // condition: switch 31 is ON
  // condition: variable 1212 >= 5
  0()
 PAGE   3
  // condition: variable 1212 >= 6
  ShowMessageFace("dakki_fc1",0,0,2,1)
  ShowMessage("\\n<Daji>")
  ShowMessage("この魔法陣の先は、もはや「夜の国」。")
  ShowMessage("そこに、巨大ゲートが存在しておる。")
  ShowMessageFace("dakki_fc1",0,0,2,2)
  ShowMessage("\\n<Daji>")
  ShowMessage("「コラボの証」の力で、ゲートを破壊出来るのは真実。")
  ShowMessage("巨大ゲートを消滅させれば、ヌシ達の勝ちよ。")
  EndEventProcessing()
  0()
 PAGE   4
  // condition: variable 1212 >= 7
  0()



EVENT   11
 PAGE   1
  // condition: switch 35 is ON
  // condition: switch 4 is ON
  0()
 PAGE   2
  // condition: switch 35 is ON
  // condition: switch 5 is ON
  0()



EVENT   12
 PAGE   1
  // condition: switch 32 is ON
  0()



EVENT   13
 PAGE   1
  // condition: switch 33 is ON
  0()



EVENT   14
 PAGE   1
  // condition: switch 34 is ON
  0()



EVENT   15
 PAGE   1
  // condition: switch 32 is ON
  0()



EVENT   16
 PAGE   1
  // condition: switch 32 is ON
  0()



EVENT   17
 PAGE   1
  // condition: switch 32 is ON
  0()



EVENT   18
 PAGE   1
  // condition: switch 32 is ON
  0()



EVENT   19
 PAGE   1
  // condition: switch 32 is ON
  0()



EVENT   20
 PAGE   1
  // condition: switch 32 is ON
  0()



EVENT   21
 PAGE   1
  // condition: switch 32 is ON
  0()



EVENT   22
 PAGE   1
  // condition: switch 32 is ON
  0()



EVENT   23
 PAGE   1
  // condition: switch 33 is ON
  0()



EVENT   24
 PAGE   1
  // condition: switch 33 is ON
  0()



EVENT   25
 PAGE   1
  // condition: switch 33 is ON
  0()



EVENT   26
 PAGE   1
  // condition: switch 33 is ON
  0()



EVENT   27
 PAGE   1
  // condition: switch 33 is ON
  0()



EVENT   28
 PAGE   1
  // condition: switch 33 is ON
  0()



EVENT   29
 PAGE   1
  // condition: switch 33 is ON
  0()



EVENT   30
 PAGE   1
  // condition: switch 33 is ON
  0()



EVENT   31
 PAGE   1
  // condition: switch 33 is ON
  0()



EVENT   32
 PAGE   1
  // condition: switch 34 is ON
  0()



EVENT   33
 PAGE   1
  // condition: switch 34 is ON
  0()



EVENT   34
 PAGE   1
  // condition: switch 34 is ON
  0()



EVENT   35
 PAGE   1
  // condition: switch 34 is ON
  0()



EVENT   36
 PAGE   1
  // condition: switch 34 is ON
  0()



EVENT   37
 PAGE   1
  // condition: switch 34 is ON
  0()



EVENT   38
 PAGE   1
  // condition: switch 34 is ON
  0()



EVENT   39
 PAGE   1
  // condition: switch 34 is ON
  0()



EVENT   40
 PAGE   1
  // condition: switch 33 is ON
  0()



EVENT   41
 PAGE   1
  // condition: switch 33 is ON
  0()



EVENT   42
 PAGE   1
  // condition: switch 33 is ON
  0()



EVENT   3
 PAGE   1
  250(bytes(0x04,0x08,0x6f,0x3a,0x0c,0x52,0x50,0x47,0x3a,0x3a,0x53,0x45,0x08,0x3a,0x0a,0x40,0x6e,0x61,0x6d,0x65,0x49,0x22,0x0b,0x4d,0x61,0x67,0x69,0x63,0x32,0x06,0x3a,0x06,0x45,0x54,0x3a,0x0b,0x40,0x70,0x69,0x74,0x63,0x68,0x69,0x69,0x3a,0x0c,0x40,0x76,0x6f,0x6c,0x75,0x6d,0x65,0x69,0x55))
  TeleportPlayer(0,931,75,80,2,1)
  0()



EVENT   4
 PAGE   1
  250(bytes(0x04,0x08,0x6f,0x3a,0x0c,0x52,0x50,0x47,0x3a,0x3a,0x53,0x45,0x08,0x3a,0x0a,0x40,0x6e,0x61,0x6d,0x65,0x49,0x22,0x0b,0x4d,0x61,0x67,0x69,0x63,0x32,0x06,0x3a,0x06,0x45,0x54,0x3a,0x0b,0x40,0x70,0x69,0x74,0x63,0x68,0x69,0x69,0x3a,0x0c,0x40,0x76,0x6f,0x6c,0x75,0x6d,0x65,0x69,0x55))
  TeleportPlayer(0,931,59,101,2,1)
  0()



EVENT   43
 PAGE   1
  If(6,-1,4)
   205(0,bytes(0x04,0x08,0x6f,0x3a,0x13,0x52,0x50,0x47,0x3a,0x3a,0x4d,0x6f,0x76,0x65,0x52,0x6f,0x75,0x74,0x65,0x09,0x3a,0x0c,0x40,0x72,0x65,0x70,0x65,0x61,0x74,0x46,0x3a,0x0f,0x40,0x73,0x6b,0x69,0x70,0x70,0x61,0x62,0x6c,0x65,0x46,0x3a,0x0a,0x40,0x77,0x61,0x69,0x74,0x54,0x3a,0x0a,0x40,0x6c,0x69,0x73,0x74,0x5b,0x09,0x6f,0x3a,0x15,0x52,0x50,0x47,0x3a,0x3a,0x4d,0x6f,0x76,0x65,0x43,0x6f,0x6d,0x6d,0x61,0x6e,0x64,0x07,0x3a,0x0a,0x40,0x63,0x6f,0x64,0x65,0x69,0x31,0x3a,0x10,0x40,0x70,0x61,0x72,0x61,0x6d,0x65,0x74,0x65,0x72,0x73,0x5b,0x06,0x6f,0x3a,0x0c,0x52,0x50,0x47,0x3a,0x3a,0x53,0x45,0x08,0x3a,0x0a,0x40,0x6e,0x61,0x6d,0x65,0x49,0x22,0x10,0x68,0x61,0x6e,0x64,0x2d,0x64,0x72,0x75,0x6d,0x30,0x31,0x06,0x3a,0x06,0x45,0x54,0x3a,0x0b,0x40,0x70,0x69,0x74,0x63,0x68,0x69,0x69,0x3a,0x0c,0x40,0x76,0x6f,0x6c,0x75,0x6d,0x65,0x69,0x69,0x6f,0x3b,0x0a,0x07,0x3b,0x0b,0x69,0x2e,0x3b,0x0c,0x5b,0x07,0x49,0x22,0x0b,0x73,0x61,0x6e,0x6d,0x61,0x69,0x06,0x3b,0x0f,0x54,0x69,0x06,0x6f,0x3b,0x0a,0x07,0x3b,0x0b,0x69,0x13,0x3b,0x0c,0x5b,0x07,0x69,0x00,0x69,0x00,0x6f,0x3b,0x0a,0x07,0x3b,0x0b,0x69,0x00,0x3b,0x0c,0x5b,0x00))
   205(0,bytes(0x04,0x08,0x6f,0x3a,0x13,0x52,0x50,0x47,0x3a,0x3a,0x4d,0x6f,0x76,0x65,0x52,0x6f,0x75,0x74,0x65,0x09,0x3a,0x0c,0x40,0x72,0x65,0x70,0x65,0x61,0x74,0x46,0x3a,0x0f,0x40,0x73,0x6b,0x69,0x70,0x70,0x61,0x62,0x6c,0x65,0x46,0x3a,0x0a,0x40,0x77,0x61,0x69,0x74,0x46,0x3a,0x0a,0x40,0x6c,0x69,0x73,0x74,0x5b,0x0d,0x6f,0x3a,0x15,0x52,0x50,0x47,0x3a,0x3a,0x4d,0x6f,0x76,0x65,0x43,0x6f,0x6d,0x6d,0x61,0x6e,0x64,0x07,0x3a,0x0a,0x40,0x63,0x6f,0x64,0x65,0x69,0x31,0x3a,0x10,0x40,0x70,0x61,0x72,0x61,0x6d,0x65,0x74,0x65,0x72,0x73,0x5b,0x06,0x6f,0x3a,0x0c,0x52,0x50,0x47,0x3a,0x3a,0x53,0x45,0x08,0x3a,0x0a,0x40,0x6e,0x61,0x6d,0x65,0x49,0x22,0x09,0x53,0x61,0x6e,0x64,0x06,0x3a,0x06,0x45,0x54,0x3a,0x0b,0x40,0x70,0x69,0x74,0x63,0x68,0x69,0x01,0x96,0x3a,0x0c,0x40,0x76,0x6f,0x6c,0x75,0x6d,0x65,0x69,0x55,0x6f,0x3b,0x0a,0x07,0x3b,0x0b,0x69,0x29,0x3b,0x0c,0x5b,0x00,0x6f,0x3b,0x0a,0x07,0x3b,0x0b,0x69,0x2e,0x3b,0x0c,0x5b,0x07,0x49,0x22,0x0b,0x21,0x46,0x6c,0x61,0x6d,0x65,0x06,0x3b,0x0f,0x54,0x69,0x0c,0x6f,0x3b,0x0a,0x07,0x3b,0x0b,0x69,0x17,0x3b,0x0c,0x5b,0x00,0x6f,0x3b,0x0a,0x07,0x3b,0x0b,0x69,0x22,0x3b,0x0c,0x5b,0x06,0x69,0x0a,0x6f,0x3b,0x0a,0x07,0x3b,0x0b,0x69,0x26,0x3b,0x0c,0x5b,0x00,0x6f,0x3b,0x0a,0x07,0x3b,0x0b,0x69,0x14,0x3b,0x0c,0x5b,0x06,0x69,0x23,0x6f,0x3b,0x0a,0x07,0x3b,0x0b,0x69,0x00,0x3b,0x0c,0x5b,0x00))
   ShowMessageFace("youkosan_fc1",3,0,2,1)
   ShowMessage("\\n<妖狐>")
   ShowMessage("むぎゃっ！！\\^\\.\\.")
   ChangeSelfSwitch("A",0)
   EndEventProcessing()
   0()
  Else()
   ShowMessageFace("youkosan_fc2",0,0,2,2)
   ShowMessage("\\n<狐像>")
   ShowMessage("フフフ……。ウチは石像狐。")
   ShowMessage("「お尻」から話しかけない限り退かないのだ。")
   EndEventProcessing()
   0()
  EndIf()
  0()
 PAGE   2
  // condition: self-switch A is ON
  0()



EVENT   44
 PAGE   1
  250(bytes(0x04,0x08,0x6f,0x3a,0x0c,0x52,0x50,0x47,0x3a,0x3a,0x53,0x45,0x08,0x3a,0x0a,0x40,0x6e,0x61,0x6d,0x65,0x49,0x22,0x0a,0x43,0x68,0x65,0x73,0x74,0x06,0x3a,0x06,0x45,0x54,0x3a,0x0b,0x40,0x70,0x69,0x74,0x63,0x68,0x69,0x69,0x3a,0x0c,0x40,0x76,0x6f,0x6c,0x75,0x6d,0x65,0x69,0x55))
  205(0,bytes(0x04,0x08,0x6f,0x3a,0x13,0x52,0x50,0x47,0x3a,0x3a,0x4d,0x6f,0x76,0x65,0x52,0x6f,0x75,0x74,0x65,0x09,0x3a,0x0c,0x40,0x72,0x65,0x70,0x65,0x61,0x74,0x46,0x3a,0x0f,0x40,0x73,0x6b,0x69,0x70,0x70,0x61,0x62,0x6c,0x65,0x46,0x3a,0x0a,0x40,0x77,0x61,0x69,0x74,0x54,0x3a,0x0a,0x40,0x6c,0x69,0x73,0x74,0x5b,0x0b,0x6f,0x3a,0x15,0x52,0x50,0x47,0x3a,0x3a,0x4d,0x6f,0x76,0x65,0x43,0x6f,0x6d,0x6d,0x61,0x6e,0x64,0x07,0x3a,0x0a,0x40,0x63,0x6f,0x64,0x65,0x69,0x29,0x3a,0x10,0x40,0x70,0x61,0x72,0x61,0x6d,0x65,0x74,0x65,0x72,0x73,0x5b,0x00,0x6f,0x3b,0x0a,0x07,0x3b,0x0b,0x69,0x16,0x3b,0x0c,0x5b,0x00,0x6f,0x3b,0x0a,0x07,0x3b,0x0b,0x69,0x14,0x3b,0x0c,0x5b,0x06,0x69,0x08,0x6f,0x3b,0x0a,0x07,0x3b,0x0b,0x69,0x17,0x3b,0x0c,0x5b,0x00,0x6f,0x3b,0x0a,0x07,0x3b,0x0b,0x69,0x14,0x3b,0x0c,0x5b,0x06,0x69,0x08,0x6f,0x3b,0x0a,0x07,0x3b,0x0b,0x69,0x00,0x3b,0x0c,0x5b,0x00))
  ChangeSwitch(2957,2957,0)
  ChangeInventoryWeapon(946,0,0,1,false)
  ShowMessageFace("rejeo_fc1",0,0,2,1)
  ShowMessage("\\n<Rigeo>")
  ShowMessage("これは、誰の武器かしら……？")
  ShowMessageFace("rovissa_fc1",0,0,2,2)
  ShowMessage("\\n<Rovissa>")
  ShowMessage("とぼけても無駄よ。")
  ShowMessage("武器に名前が入ってるじゃない。")
  ShowMessageFace("rejeo_fc1",0,0,2,3)
  ShowMessage("\\n<Rigeo>")
  ShowMessage("……………………")
  ShowMessageFace("daimeikai_fc1",0,0,2,4)
  ShowMessage("\\n<Daimyokai>")
  ShowMessage("おおっ、これすごいな！")
  ShowMessage("傘モードから杖モード、小刀や扇モードに完全変形だぜ！")
  ShowMessageFace("",0,0,2,5)
  ShowMessage("ロッドとしても、扇や忍者刀としても性能を引き出せる武器のようだ――")
  ShowMessageFace("rejeo_fc1",0,0,2,6)
  ShowMessage("\\n<Rigeo>")
  ShowMessage("誰が、こんなものを……")
  0()
 PAGE   2
  // condition: switch 2957 is ON
  0()



EVENT   45
 PAGE   1
  250(bytes(0x04,0x08,0x6f,0x3a,0x0c,0x52,0x50,0x47,0x3a,0x3a,0x53,0x45,0x08,0x3a,0x0a,0x40,0x6e,0x61,0x6d,0x65,0x49,0x22,0x0a,0x43,0x68,0x65,0x73,0x74,0x06,0x3a,0x06,0x45,0x54,0x3a,0x0b,0x40,0x70,0x69,0x74,0x63,0x68,0x69,0x69,0x3a,0x0c,0x40,0x76,0x6f,0x6c,0x75,0x6d,0x65,0x69,0x55))
  205(0,bytes(0x04,0x08,0x6f,0x3a,0x13,0x52,0x50,0x47,0x3a,0x3a,0x4d,0x6f,0x76,0x65,0x52,0x6f,0x75,0x74,0x65,0x09,0x3a,0x0c,0x40,0x72,0x65,0x70,0x65,0x61,0x74,0x46,0x3a,0x0f,0x40,0x73,0x6b,0x69,0x70,0x70,0x61,0x62,0x6c,0x65,0x46,0x3a,0x0a,0x40,0x77,0x61,0x69,0x74,0x54,0x3a,0x0a,0x40,0x6c,0x69,0x73,0x74,0x5b,0x0b,0x6f,0x3a,0x15,0x52,0x50,0x47,0x3a,0x3a,0x4d,0x6f,0x76,0x65,0x43,0x6f,0x6d,0x6d,0x61,0x6e,0x64,0x07,0x3a,0x0a,0x40,0x63,0x6f,0x64,0x65,0x69,0x29,0x3a,0x10,0x40,0x70,0x61,0x72,0x61,0x6d,0x65,0x74,0x65,0x72,0x73,0x5b,0x00,0x6f,0x3b,0x0a,0x07,0x3b,0x0b,0x69,0x16,0x3b,0x0c,0x5b,0x00,0x6f,0x3b,0x0a,0x07,0x3b,0x0b,0x69,0x14,0x3b,0x0c,0x5b,0x06,0x69,0x08,0x6f,0x3b,0x0a,0x07,0x3b,0x0b,0x69,0x17,0x3b,0x0c,0x5b,0x00,0x6f,0x3b,0x0a,0x07,0x3b,0x0b,0x69,0x14,0x3b,0x0c,0x5b,0x06,0x69,0x08,0x6f,0x3b,0x0a,0x07,0x3b,0x0b,0x69,0x00,0x3b,0x0c,0x5b,0x00))
  ChangeSwitch(2955,2955,0)
  ChangeInventoryArmor(344,0,0,1,false)
  ShowMessageFace("rejeo_fc1",0,0,2,1)
  ShowMessage("\\n<Rigeo>")
  ShowMessage("この首輪、ロウラットにぴったりなんだけど……")
  ShowMessage("いったい、誰がこんなモノを……")
  ShowMessageFace("lawrat_fc1",0,0,2,2)
  ShowMessage("\\n<Lauratt>")
  ShowMessage("……………………")
  0()
 PAGE   2
  // condition: switch 2955 is ON
  0()



EVENT   46
 PAGE   1
  250(bytes(0x04,0x08,0x6f,0x3a,0x0c,0x52,0x50,0x47,0x3a,0x3a,0x53,0x45,0x08,0x3a,0x0a,0x40,0x6e,0x61,0x6d,0x65,0x49,0x22,0x0a,0x43,0x68,0x65,0x73,0x74,0x06,0x3a,0x06,0x45,0x54,0x3a,0x0b,0x40,0x70,0x69,0x74,0x63,0x68,0x69,0x69,0x3a,0x0c,0x40,0x76,0x6f,0x6c,0x75,0x6d,0x65,0x69,0x55))
  205(0,bytes(0x04,0x08,0x6f,0x3a,0x13,0x52,0x50,0x47,0x3a,0x3a,0x4d,0x6f,0x76,0x65,0x52,0x6f,0x75,0x74,0x65,0x09,0x3a,0x0c,0x40,0x72,0x65,0x70,0x65,0x61,0x74,0x46,0x3a,0x0f,0x40,0x73,0x6b,0x69,0x70,0x70,0x61,0x62,0x6c,0x65,0x46,0x3a,0x0a,0x40,0x77,0x61,0x69,0x74,0x54,0x3a,0x0a,0x40,0x6c,0x69,0x73,0x74,0x5b,0x0b,0x6f,0x3a,0x15,0x52,0x50,0x47,0x3a,0x3a,0x4d,0x6f,0x76,0x65,0x43,0x6f,0x6d,0x6d,0x61,0x6e,0x64,0x07,0x3a,0x0a,0x40,0x63,0x6f,0x64,0x65,0x69,0x29,0x3a,0x10,0x40,0x70,0x61,0x72,0x61,0x6d,0x65,0x74,0x65,0x72,0x73,0x5b,0x00,0x6f,0x3b,0x0a,0x07,0x3b,0x0b,0x69,0x16,0x3b,0x0c,0x5b,0x00,0x6f,0x3b,0x0a,0x07,0x3b,0x0b,0x69,0x14,0x3b,0x0c,0x5b,0x06,0x69,0x08,0x6f,0x3b,0x0a,0x07,0x3b,0x0b,0x69,0x17,0x3b,0x0c,0x5b,0x00,0x6f,0x3b,0x0a,0x07,0x3b,0x0b,0x69,0x14,0x3b,0x0c,0x5b,0x06,0x69,0x08,0x6f,0x3b,0x0a,0x07,0x3b,0x0b,0x69,0x00,0x3b,0x0c,0x5b,0x00))
  ChangeSwitch(2956,2956,0)
  ChangeInventoryArmor(363,0,0,1,false)
  ShowMessageFace("rest_fc1",0,0,2,1)
  ShowMessage("\\n<Lest>")
  ShowMessage("これは、リチア姫の……！！")
  ShowMessageFace("rovissa_fc1",0,0,2,2)
  ShowMessage("\\n<Rovissa>")
  ShowMessage("へぇ……王女様の、ねぇ。")
  ShowMessageFace("rejeo_fc1",0,0,2,3)
  ShowMessage("\\n<Rigeo>")
  ShowMessage("ふぅん、王女様の……")
  ShowMessageFace("tarsa_fc2",1,0,2,4)
  ShowMessage("\\n<Tarsa>")
  ShowMessage("王女様の、愛ねぇ……")
  ShowMessageFace("rest_fc1",0,0,2,5)
  ShowMessage("\\n<Lest>")
  ShowMessage("な、なんでみんな……！")
  ShowMessage("そんな……！")
  0()
 PAGE   2
  // condition: switch 2956 is ON
  0()



EVENT   47
 PAGE   1
  RunCommonEvent(499)
  0()



EVENT   48
 PAGE   1
  205(43,bytes(0x04,0x08,0x6f,0x3a,0x13,0x52,0x50,0x47,0x3a,0x3a,0x4d,0x6f,0x76,0x65,0x52,0x6f,0x75,0x74,0x65,0x09,0x3a,0x0c,0x40,0x72,0x65,0x70,0x65,0x61,0x74,0x46,0x3a,0x0f,0x40,0x73,0x6b,0x69,0x70,0x70,0x61,0x62,0x6c,0x65,0x46,0x3a,0x0a,0x40,0x77,0x61,0x69,0x74,0x54,0x3a,0x0a,0x40,0x6c,0x69,0x73,0x74,0x5b,0x07,0x6f,0x3a,0x15,0x52,0x50,0x47,0x3a,0x3a,0x4d,0x6f,0x76,0x65,0x43,0x6f,0x6d,0x6d,0x61,0x6e,0x64,0x07,0x3a,0x0a,0x40,0x63,0x6f,0x64,0x65,0x69,0x18,0x3a,0x10,0x40,0x70,0x61,0x72,0x61,0x6d,0x65,0x74,0x65,0x72,0x73,0x5b,0x00,0x6f,0x3b,0x0a,0x07,0x3b,0x0b,0x69,0x00,0x3b,0x0c,0x5b,0x00))
  Wait(30)
  212(44,542,false)
  Wait(60)
  ChangeSwitch(31,31,0)
  Wait(60)
  0()



EVENT   49
 PAGE   1
  RunCommonEvent(499)
  0()



EVENT   50
 PAGE   1
  // condition: variable 1216 >= 2
  ChangeVariable(1229,1229,0,0,3)
  If(0,2955,0)
   ChangeVariable(1229,1229,2,0,1)
   0()
  EndIf()
  If(0,2956,0)
   ChangeVariable(1229,1229,2,0,1)
   0()
  EndIf()
  If(0,2957,0)
   ChangeVariable(1229,1229,2,0,1)
   0()
  EndIf()
  If(1,1229,0,0,0)
   ShowMessageFace("youkosan_fc1",0,0,2,1)
   ShowMessage("\\n<妖狐>")
   ShowMessage("このフロアの宝箱は、もう残ってないみたいだね。")
   ShowMessage("おめでと～♪")
   0()
  Else()
   ShowMessageFace("youkosan_fc1",0,0,2,2)
   ShowMessage("\\n<妖狐>")
   ShowMessage("このフロアの宝箱は、あと\\V[1229]個だね。")
   ShowMessage("がんばって探してみてよ！！")
   0()
  EndIf()
  0()
